#VRML V2.0 utf8
Transform {
translation 5.236 0.714 0
rotation 0 1 0 3.141593
scale 1 1 1
children [DEF CMP_Component_2 Group {
children [
Shape {
appearance DEF COL_Color_M00 Appearance {
material Material { diffuseColor 1 1 1 }
}
geometry IndexedFaceSet {
solid TRUE
coord Coordinate {
point [
0.315 0 0,
0.396 0.011 0,
0.396 0.011 1.181,
0.315 0 1.181,
]
}
coordIndex [
0
1
2
3
-1
]
}
}
Shape {
appearance DEF COL_BackColor Appearance {
material Material { diffuseColor 0.643 0.698 0.733 }
}
geometry IndexedFaceSet {
solid TRUE
coord Coordinate {
point [
0.315 0 1.181,
0.396 0.011 1.181,
0.396 0.011 0,
0.315 0 0,
]
}
coordIndex [
0
1
2
3
-1
]
}
}
Shape {
appearance USE COL_Color_M00
geometry IndexedFaceSet {
solid TRUE
coord Coordinate {
point [
0.233 0.011 1.181,
0.315 0 1.181,
0.396 0.011 1.181,
0.472 0.042 1.181,
0.538 0.092 1.181,
0.588 0.157 1.181,
0.619 0.233 1.181,
0.63 0.315 1.181,
0.619 0.396 1.181,
0.588 0.472 1.181,
0.538 0.538 1.181,
0.472 0.588 1.181,
0.396 0.619 1.181,
0.315 0.63 1.181,
0.233 0.619 1.181,
0.157 0.588 1.181,
0.092 0.538 1.181,
0.042 0.472 1.181,
0.011 0.396 1.181,
0 0.315 1.181,
0.011 0.233 1.181,
0.042 0.157 1.181,
0.092 0.092 1.181,
0.157 0.042 1.181,
]
}
coordIndex [
0
1
2
3
4
5
6
7
8
9
10
11
12
13
14
15
16
17
18
19
20
21
22
23
-1
]
}
}
Shape {
appearance USE COL_Color_M00
geometry IndexedFaceSet {
solid TRUE
coord Coordinate {
point [
0.233 0.011 0,
0.315 0 0,
0.315 0 1.181,
0.233 0.011 1.181,
]
}
coordIndex [
0
1
2
3
-1
]
}
}
Shape {
appearance USE COL_BackColor
geometry IndexedFaceSet {
solid TRUE
coord Coordinate {
point [
0.233 0.011 1.181,
0.315 0 1.181,
0.315 0 0,
0.233 0.011 0,
]
}
coordIndex [
0
1
2
3
-1
]
}
}
Shape {
appearance USE COL_BackColor
geometry IndexedFaceSet {
solid TRUE
coord Coordinate {
point [
0.157 0.042 1.181,
0.092 0.092 1.181,
0.042 0.157 1.181,
0.011 0.233 1.181,
0 0.315 1.181,
0.011 0.396 1.181,
0.042 0.472 1.181,
0.092 0.538 1.181,
0.157 0.588 1.181,
0.233 0.619 1.181,
0.315 0.63 1.181,
0.396 0.619 1.181,
0.472 0.588 1.181,
0.538 0.538 1.181,
0.588 0.472 1.181,
0.619 0.396 1.181,
0.63 0.315 1.181,
0.619 0.233 1.181,
0.588 0.157 1.181,
0.538 0.092 1.181,
0.472 0.042 1.181,
0.396 0.011 1.181,
0.315 0 1.181,
0.233 0.011 1.181,
]
}
coordIndex [
0
1
2
3
4
5
6
7
8
9
10
11
12
13
14
15
16
17
18
19
20
21
22
23
-1
]
}
}
Shape {
appearance USE COL_Color_M00
geometry IndexedFaceSet {
solid TRUE
coord Coordinate {
point [
0.092 0.092 0,
0.157 0.042 0,
0.157 0.042 1.181,
0.092 0.092 1.181,
]
}
coordIndex [
0
1
2
3
-1
]
}
}
Shape {
appearance USE COL_BackColor
geometry IndexedFaceSet {
solid TRUE
coord Coordinate {
point [
0.092 0.092 1.181,
0.157 0.042 1.181,
0.157 0.042 0,
0.092 0.092 0,
]
}
coordIndex [
0
1
2
3
-1
]
}
}
Shape {
appearance USE COL_Color_M00
geometry IndexedFaceSet {
solid TRUE
coord Coordinate {
point [
0.157 0.042 0,
0.233 0.011 0,
0.233 0.011 1.181,
0.157 0.042 1.181,
]
}
coordIndex [
0
1
2
3
-1
]
}
}
Shape {
appearance USE COL_BackColor
geometry IndexedFaceSet {
solid TRUE
coord Coordinate {
point [
0.157 0.042 1.181,
0.233 0.011 1.181,
0.233 0.011 0,
0.157 0.042 0,
]
}
coordIndex [
0
1
2
3
-1
]
}
}
Shape {
appearance USE COL_Color_M00
geometry IndexedFaceSet {
solid TRUE
coord Coordinate {
point [
0.042 0.157 0,
0.092 0.092 0,
0.092 0.092 1.181,
0.042 0.157 1.181,
]
}
coordIndex [
0
1
2
3
-1
]
}
}
Shape {
appearance USE COL_BackColor
geometry IndexedFaceSet {
solid TRUE
coord Coordinate {
point [
0.042 0.157 1.181,
0.092 0.092 1.181,
0.092 0.092 0,
0.042 0.157 0,
]
}
coordIndex [
0
1
2
3
-1
]
}
}
Shape {
appearance USE COL_Color_M00
geometry IndexedFaceSet {
solid TRUE
coord Coordinate {
point [
0.011 0.233 0,
0.042 0.157 0,
0.042 0.157 1.181,
0.011 0.233 1.181,
]
}
coordIndex [
0
1
2
3
-1
]
}
}
Shape {
appearance USE COL_BackColor
geometry IndexedFaceSet {
solid TRUE
coord Coordinate {
point [
0.011 0.233 1.181,
0.042 0.157 1.181,
0.042 0.157 0,
0.011 0.233 0,
]
}
coordIndex [
0
1
2
3
-1
]
}
}
Shape {
appearance USE COL_Color_M00
geometry IndexedFaceSet {
solid TRUE
coord Coordinate {
point [
0 0.315 0,
0.011 0.233 0,
0.011 0.233 1.181,
0 0.315 1.181,
]
}
coordIndex [
0
1
2
3
-1
]
}
}
Shape {
appearance USE COL_BackColor
geometry IndexedFaceSet {
solid TRUE
coord Coordinate {
point [
0 0.315 1.181,
0.011 0.233 1.181,
0.011 0.233 0,
0 0.315 0,
]
}
coordIndex [
0
1
2
3
-1
]
}
}
Shape {
appearance USE COL_Color_M00
geometry IndexedFaceSet {
solid TRUE
coord Coordinate {
point [
0.011 0.396 0,
0 0.315 0,
0 0.315 1.181,
0.011 0.396 1.181,
]
}
coordIndex [
0
1
2
3
-1
]
}
}
Shape {
appearance USE COL_BackColor
geometry IndexedFaceSet {
solid TRUE
coord Coordinate {
point [
0.011 0.396 1.181,
0 0.315 1.181,
0 0.315 0,
0.011 0.396 0,
]
}
coordIndex [
0
1
2
3
-1
]
}
}
Shape {
appearance USE COL_Color_M00
geometry IndexedFaceSet {
solid TRUE
coord Coordinate {
point [
0.042 0.472 0,
0.011 0.396 0,
0.011 0.396 1.181,
0.042 0.472 1.181,
]
}
coordIndex [
0
1
2
3
-1
]
}
}
Shape {
appearance USE COL_BackColor
geometry IndexedFaceSet {
solid TRUE
coord Coordinate {
point [
0.042 0.472 1.181,
0.011 0.396 1.181,
0.011 0.396 0,
0.042 0.472 0,
]
}
coordIndex [
0
1
2
3
-1
]
}
}
Shape {
appearance USE COL_Color_M00
geometry IndexedFaceSet {
solid TRUE
coord Coordinate {
point [
0.092 0.538 0,
0.042 0.472 0,
0.042 0.472 1.181,
0.092 0.538 1.181,
]
}
coordIndex [
0
1
2
3
-1
]
}
}
Shape {
appearance USE COL_BackColor
geometry IndexedFaceSet {
solid TRUE
coord Coordinate {
point [
0.092 0.538 1.181,
0.042 0.472 1.181,
0.042 0.472 0,
0.092 0.538 0,
]
}
coordIndex [
0
1
2
3
-1
]
}
}
Shape {
appearance USE COL_Color_M00
geometry IndexedFaceSet {
solid TRUE
coord Coordinate {
point [
0.157 0.588 0,
0.092 0.538 0,
0.092 0.538 1.181,
0.157 0.588 1.181,
]
}
coordIndex [
0
1
2
3
-1
]
}
}
Shape {
appearance USE COL_BackColor
geometry IndexedFaceSet {
solid TRUE
coord Coordinate {
point [
0.157 0.588 1.181,
0.092 0.538 1.181,
0.092 0.538 0,
0.157 0.588 0,
]
}
coordIndex [
0
1
2
3
-1
]
}
}
Shape {
appearance USE COL_Color_M00
geometry IndexedFaceSet {
solid TRUE
coord Coordinate {
point [
0.233 0.619 0,
0.157 0.588 0,
0.157 0.588 1.181,
0.233 0.619 1.181,
]
}
coordIndex [
0
1
2
3
-1
]
}
}
Shape {
appearance USE COL_BackColor
geometry IndexedFaceSet {
solid TRUE
coord Coordinate {
point [
0.233 0.619 1.181,
0.157 0.588 1.181,
0.157 0.588 0,
0.233 0.619 0,
]
}
coordIndex [
0
1
2
3
-1
]
}
}
Shape {
appearance USE COL_Color_M00
geometry IndexedFaceSet {
solid TRUE
coord Coordinate {
point [
0.315 0.63 0,
0.233 0.619 0,
0.233 0.619 1.181,
0.315 0.63 1.181,
]
}
coordIndex [
0
1
2
3
-1
]
}
}
Shape {
appearance USE COL_BackColor
geometry IndexedFaceSet {
solid TRUE
coord Coordinate {
point [
0.315 0.63 1.181,
0.233 0.619 1.181,
0.233 0.619 0,
0.315 0.63 0,
]
}
coordIndex [
0
1
2
3
-1
]
}
}
Shape {
appearance USE COL_Color_M00
geometry IndexedFaceSet {
solid TRUE
coord Coordinate {
point [
0.396 0.619 0,
0.315 0.63 0,
0.315 0.63 1.181,
0.396 0.619 1.181,
]
}
coordIndex [
0
1
2
3
-1
]
}
}
Shape {
appearance USE COL_BackColor
geometry IndexedFaceSet {
solid TRUE
coord Coordinate {
point [
0.396 0.619 1.181,
0.315 0.63 1.181,
0.315 0.63 0,
0.396 0.619 0,
]
}
coordIndex [
0
1
2
3
-1
]
}
}
Shape {
appearance USE COL_Color_M00
geometry IndexedFaceSet {
solid TRUE
coord Coordinate {
point [
0.472 0.588 0,
0.396 0.619 0,
0.396 0.619 1.181,
0.472 0.588 1.181,
]
}
coordIndex [
0
1
2
3
-1
]
}
}
Shape {
appearance USE COL_BackColor
geometry IndexedFaceSet {
solid TRUE
coord Coordinate {
point [
0.472 0.588 1.181,
0.396 0.619 1.181,
0.396 0.619 0,
0.472 0.588 0,
]
}
coordIndex [
0
1
2
3
-1
]
}
}
Shape {
appearance USE COL_Color_M00
geometry IndexedFaceSet {
solid TRUE
coord Coordinate {
point [
0.538 0.538 0,
0.472 0.588 0,
0.472 0.588 1.181,
0.538 0.538 1.181,
]
}
coordIndex [
0
1
2
3
-1
]
}
}
Shape {
appearance USE COL_BackColor
geometry IndexedFaceSet {
solid TRUE
coord Coordinate {
point [
0.538 0.538 1.181,
0.472 0.588 1.181,
0.472 0.588 0,
0.538 0.538 0,
]
}
coordIndex [
0
1
2
3
-1
]
}
}
Shape {
appearance USE COL_Color_M00
geometry IndexedFaceSet {
solid TRUE
coord Coordinate {
point [
0.588 0.472 0,
0.538 0.538 0,
0.538 0.538 1.181,
0.588 0.472 1.181,
]
}
coordIndex [
0
1
2
3
-1
]
}
}
Shape {
appearance USE COL_BackColor
geometry IndexedFaceSet {
solid TRUE
coord Coordinate {
point [
0.588 0.472 1.181,
0.538 0.538 1.181,
0.538 0.538 0,
0.588 0.472 0,
]
}
coordIndex [
0
1
2
3
-1
]
}
}
Shape {
appearance USE COL_Color_M00
geometry IndexedFaceSet {
solid TRUE
coord Coordinate {
point [
0.619 0.396 0,
0.588 0.472 0,
0.588 0.472 1.181,
0.619 0.396 1.181,
]
}
coordIndex [
0
1
2
3
-1
]
}
}
Shape {
appearance USE COL_BackColor
geometry IndexedFaceSet {
solid TRUE
coord Coordinate {
point [
0.619 0.396 1.181,
0.588 0.472 1.181,
0.588 0.472 0,
0.619 0.396 0,
]
}
coordIndex [
0
1
2
3
-1
]
}
}
Shape {
appearance USE COL_Color_M00
geometry IndexedFaceSet {
solid TRUE
coord Coordinate {
point [
0.63 0.315 0,
0.619 0.396 0,
0.619 0.396 1.181,
0.63 0.315 1.181,
]
}
coordIndex [
0
1
2
3
-1
]
}
}
Shape {
appearance USE COL_BackColor
geometry IndexedFaceSet {
solid TRUE
coord Coordinate {
point [
0.63 0.315 1.181,
0.619 0.396 1.181,
0.619 0.396 0,
0.63 0.315 0,
]
}
coordIndex [
0
1
2
3
-1
]
}
}
Shape {
appearance USE COL_Color_M00
geometry IndexedFaceSet {
solid TRUE
coord Coordinate {
point [
0.619 0.233 0,
0.63 0.315 0,
0.63 0.315 1.181,
0.619 0.233 1.181,
]
}
coordIndex [
0
1
2
3
-1
]
}
}
Shape {
appearance USE COL_BackColor
geometry IndexedFaceSet {
solid TRUE
coord Coordinate {
point [
0.619 0.233 1.181,
0.63 0.315 1.181,
0.63 0.315 0,
0.619 0.233 0,
]
}
coordIndex [
0
1
2
3
-1
]
}
}
Shape {
appearance USE COL_Color_M00
geometry IndexedFaceSet {
solid TRUE
coord Coordinate {
point [
0.588 0.157 0,
0.619 0.233 0,
0.619 0.233 1.181,
0.588 0.157 1.181,
]
}
coordIndex [
0
1
2
3
-1
]
}
}
Shape {
appearance USE COL_BackColor
geometry IndexedFaceSet {
solid TRUE
coord Coordinate {
point [
0.588 0.157 1.181,
0.619 0.233 1.181,
0.619 0.233 0,
0.588 0.157 0,
]
}
coordIndex [
0
1
2
3
-1
]
}
}
Shape {
appearance USE COL_Color_M00
geometry IndexedFaceSet {
solid TRUE
coord Coordinate {
point [
0.538 0.092 0,
0.588 0.157 0,
0.588 0.157 1.181,
0.538 0.092 1.181,
]
}
coordIndex [
0
1
2
3
-1
]
}
}
Shape {
appearance USE COL_BackColor
geometry IndexedFaceSet {
solid TRUE
coord Coordinate {
point [
0.538 0.092 1.181,
0.588 0.157 1.181,
0.588 0.157 0,
0.538 0.092 0,
]
}
coordIndex [
0
1
2
3
-1
]
}
}
Shape {
appearance USE COL_Color_M00
geometry IndexedFaceSet {
solid TRUE
coord Coordinate {
point [
0.472 0.042 0,
0.538 0.092 0,
0.538 0.092 1.181,
0.472 0.042 1.181,
]
}
coordIndex [
0
1
2
3
-1
]
}
}
Shape {
appearance USE COL_BackColor
geometry IndexedFaceSet {
solid TRUE
coord Coordinate {
point [
0.472 0.042 1.181,
0.538 0.092 1.181,
0.538 0.092 0,
0.472 0.042 0,
]
}
coordIndex [
0
1
2
3
-1
]
}
}
Shape {
appearance USE COL_Color_M00
geometry IndexedFaceSet {
solid TRUE
coord Coordinate {
point [
0.396 0.011 0,
0.472 0.042 0,
0.472 0.042 1.181,
0.396 0.011 1.181,
]
}
coordIndex [
0
1
2
3
-1
]
}
}
Shape {
appearance USE COL_BackColor
geometry IndexedFaceSet {
solid TRUE
coord Coordinate {
point [
0.396 0.011 1.181,
0.472 0.042 1.181,
0.472 0.042 0,
0.396 0.011 0,
]
}
coordIndex [
0
1
2
3
-1
]
}
}
Shape {
appearance DEF COL_ForegroundColor Appearance {
material Material { diffuseColor 0 0 0
}
}
geometry IndexedLineSet {
coord Coordinate {
point [ 0.157 0.042 1.181,
0.092 0.092 1.181,
]
}
coordIndex [ 0 1 -1]
}
}
Shape {
appearance USE COL_ForegroundColor
geometry IndexedLineSet {
coord Coordinate {
point [ 0.233 0.011 1.181,
0.157 0.042 1.181,
]
}
coordIndex [ 0 1 -1]
}
}
Shape {
appearance USE COL_ForegroundColor
geometry IndexedLineSet {
coord Coordinate {
point [ 0.315 0 1.181,
0.233 0.011 1.181,
]
}
coordIndex [ 0 1 -1]
}
}
Shape {
appearance USE COL_ForegroundColor
geometry IndexedLineSet {
coord Coordinate {
point [ 0.396 0.011 1.181,
0.315 0 1.181,
]
}
coordIndex [ 0 1 -1]
}
}
Shape {
appearance USE COL_ForegroundColor
geometry IndexedLineSet {
coord Coordinate {
point [ 0.472 0.042 1.181,
0.396 0.011 1.181,
]
}
coordIndex [ 0 1 -1]
}
}
Shape {
appearance USE COL_ForegroundColor
geometry IndexedLineSet {
coord Coordinate {
point [ 0.538 0.092 1.181,
0.472 0.042 1.181,
]
}
coordIndex [ 0 1 -1]
}
}
Shape {
appearance USE COL_ForegroundColor
geometry IndexedLineSet {
coord Coordinate {
point [ 0.588 0.157 1.181,
0.538 0.092 1.181,
]
}
coordIndex [ 0 1 -1]
}
}
Shape {
appearance USE COL_ForegroundColor
geometry IndexedLineSet {
coord Coordinate {
point [ 0.619 0.233 1.181,
0.588 0.157 1.181,
]
}
coordIndex [ 0 1 -1]
}
}
Shape {
appearance USE COL_ForegroundColor
geometry IndexedLineSet {
coord Coordinate {
point [ 0.63 0.315 1.181,
0.619 0.233 1.181,
]
}
coordIndex [ 0 1 -1]
}
}
Shape {
appearance USE COL_ForegroundColor
geometry IndexedLineSet {
coord Coordinate {
point [ 0.619 0.396 1.181,
0.63 0.315 1.181,
]
}
coordIndex [ 0 1 -1]
}
}
Shape {
appearance USE COL_ForegroundColor
geometry IndexedLineSet {
coord Coordinate {
point [ 0.588 0.472 1.181,
0.619 0.396 1.181,
]
}
coordIndex [ 0 1 -1]
}
}
Shape {
appearance USE COL_ForegroundColor
geometry IndexedLineSet {
coord Coordinate {
point [ 0.538 0.538 1.181,
0.588 0.472 1.181,
]
}
coordIndex [ 0 1 -1]
}
}
Shape {
appearance USE COL_ForegroundColor
geometry IndexedLineSet {
coord Coordinate {
point [ 0.472 0.588 1.181,
0.538 0.538 1.181,
]
}
coordIndex [ 0 1 -1]
}
}
Shape {
appearance USE COL_ForegroundColor
geometry IndexedLineSet {
coord Coordinate {
point [ 0.396 0.619 1.181,
0.472 0.588 1.181,
]
}
coordIndex [ 0 1 -1]
}
}
Shape {
appearance USE COL_ForegroundColor
geometry IndexedLineSet {
coord Coordinate {
point [ 0.315 0.63 1.181,
0.396 0.619 1.181,
]
}
coordIndex [ 0 1 -1]
}
}
Shape {
appearance USE COL_ForegroundColor
geometry IndexedLineSet {
coord Coordinate {
point [ 0.233 0.619 1.181,
0.315 0.63 1.181,
]
}
coordIndex [ 0 1 -1]
}
}
Shape {
appearance USE COL_ForegroundColor
geometry IndexedLineSet {
coord Coordinate {
point [ 0.157 0.588 1.181,
0.233 0.619 1.181,
]
}
coordIndex [ 0 1 -1]
}
}
Shape {
appearance USE COL_ForegroundColor
geometry IndexedLineSet {
coord Coordinate {
point [ 0.092 0.538 1.181,
0.157 0.588 1.181,
]
}
coordIndex [ 0 1 -1]
}
}
Shape {
appearance USE COL_ForegroundColor
geometry IndexedLineSet {
coord Coordinate {
point [ 0.042 0.472 1.181,
0.092 0.538 1.181,
]
}
coordIndex [ 0 1 -1]
}
}
Shape {
appearance USE COL_ForegroundColor
geometry IndexedLineSet {
coord Coordinate {
point [ 0.011 0.396 1.181,
0.042 0.472 1.181,
]
}
coordIndex [ 0 1 -1]
}
}
Shape {
appearance USE COL_ForegroundColor
geometry IndexedLineSet {
coord Coordinate {
point [ 0 0.315 1.181,
0.011 0.396 1.181,
]
}
coordIndex [ 0 1 -1]
}
}
Shape {
appearance USE COL_ForegroundColor
geometry IndexedLineSet {
coord Coordinate {
point [ 0.011 0.233 1.181,
0 0.315 1.181,
]
}
coordIndex [ 0 1 -1]
}
}
Shape {
appearance USE COL_ForegroundColor
geometry IndexedLineSet {
coord Coordinate {
point [ 0.042 0.157 1.181,
0.011 0.233 1.181,
]
}
coordIndex [ 0 1 -1]
}
}
Shape {
appearance USE COL_ForegroundColor
geometry IndexedLineSet {
coord Coordinate {
point [ 0.092 0.092 1.181,
0.042 0.157 1.181,
]
}
coordIndex [ 0 1 -1]
}
}
Shape {
appearance USE COL_ForegroundColor
geometry IndexedLineSet {
coord Coordinate {
point [ 0.396 0.011 0,
0.315 0 0,
]
}
coordIndex [ 0 1 -1]
}
}
Shape {
appearance USE COL_ForegroundColor
geometry IndexedLineSet {
coord Coordinate {
point [ 0.472 0.042 0,
0.396 0.011 0,
]
}
coordIndex [ 0 1 -1]
}
}
Shape {
appearance USE COL_ForegroundColor
geometry IndexedLineSet {
coord Coordinate {
point [ 0.538 0.092 0,
0.472 0.042 0,
]
}
coordIndex [ 0 1 -1]
}
}
Shape {
appearance USE COL_ForegroundColor
geometry IndexedLineSet {
coord Coordinate {
point [ 0.588 0.157 0,
0.538 0.092 0,
]
}
coordIndex [ 0 1 -1]
}
}
Shape {
appearance USE COL_ForegroundColor
geometry IndexedLineSet {
coord Coordinate {
point [ 0.619 0.233 0,
0.588 0.157 0,
]
}
coordIndex [ 0 1 -1]
}
}
Shape {
appearance USE COL_ForegroundColor
geometry IndexedLineSet {
coord Coordinate {
point [ 0.63 0.315 0,
0.619 0.233 0,
]
}
coordIndex [ 0 1 -1]
}
}
Shape {
appearance USE COL_ForegroundColor
geometry IndexedLineSet {
coord Coordinate {
point [ 0.619 0.396 0,
0.63 0.315 0,
]
}
coordIndex [ 0 1 -1]
}
}
Shape {
appearance USE COL_ForegroundColor
geometry IndexedLineSet {
coord Coordinate {
point [ 0.588 0.472 0,
0.619 0.396 0,
]
}
coordIndex [ 0 1 -1]
}
}
Shape {
appearance USE COL_ForegroundColor
geometry IndexedLineSet {
coord Coordinate {
point [ 0.538 0.538 0,
0.588 0.472 0,
]
}
coordIndex [ 0 1 -1]
}
}
Shape {
appearance USE COL_ForegroundColor
geometry IndexedLineSet {
coord Coordinate {
point [ 0.472 0.588 0,
0.538 0.538 0,
]
}
coordIndex [ 0 1 -1]
}
}
Shape {
appearance USE COL_ForegroundColor
geometry IndexedLineSet {
coord Coordinate {
point [ 0.396 0.619 0,
0.472 0.588 0,
]
}
coordIndex [ 0 1 -1]
}
}
Shape {
appearance USE COL_ForegroundColor
geometry IndexedLineSet {
coord Coordinate {
point [ 0.315 0.63 0,
0.396 0.619 0,
]
}
coordIndex [ 0 1 -1]
}
}
Shape {
appearance USE COL_ForegroundColor
geometry IndexedLineSet {
coord Coordinate {
point [ 0.233 0.619 0,
0.315 0.63 0,
]
}
coordIndex [ 0 1 -1]
}
}
Shape {
appearance USE COL_ForegroundColor
geometry IndexedLineSet {
coord Coordinate {
point [ 0.157 0.588 0,
0.233 0.619 0,
]
}
coordIndex [ 0 1 -1]
}
}
Shape {
appearance USE COL_ForegroundColor
geometry IndexedLineSet {
coord Coordinate {
point [ 0.092 0.538 0,
0.157 0.588 0,
]
}
coordIndex [ 0 1 -1]
}
}
Shape {
appearance USE COL_ForegroundColor
geometry IndexedLineSet {
coord Coordinate {
point [ 0.042 0.472 0,
0.092 0.538 0,
]
}
coordIndex [ 0 1 -1]
}
}
Shape {
appearance USE COL_ForegroundColor
geometry IndexedLineSet {
coord Coordinate {
point [ 0.011 0.396 0,
0.042 0.472 0,
]
}
coordIndex [ 0 1 -1]
}
}
Shape {
appearance USE COL_ForegroundColor
geometry IndexedLineSet {
coord Coordinate {
point [ 0 0.315 0,
0.011 0.396 0,
]
}
coordIndex [ 0 1 -1]
}
}
Shape {
appearance USE COL_ForegroundColor
geometry IndexedLineSet {
coord Coordinate {
point [ 0.011 0.233 0,
0 0.315 0,
]
}
coordIndex [ 0 1 -1]
}
}
Shape {
appearance USE COL_ForegroundColor
geometry IndexedLineSet {
coord Coordinate {
point [ 0.042 0.157 0,
0.011 0.233 0,
]
}
coordIndex [ 0 1 -1]
}
}
Shape {
appearance USE COL_ForegroundColor
geometry IndexedLineSet {
coord Coordinate {
point [ 0.092 0.092 0,
0.042 0.157 0,
]
}
coordIndex [ 0 1 -1]
}
}
Shape {
appearance USE COL_ForegroundColor
geometry IndexedLineSet {
coord Coordinate {
point [ 0.157 0.042 0,
0.092 0.092 0,
]
}
coordIndex [ 0 1 -1]
}
}
Shape {
appearance USE COL_ForegroundColor
geometry IndexedLineSet {
coord Coordinate {
point [ 0.233 0.011 0,
0.157 0.042 0,
]
}
coordIndex [ 0 1 -1]
}
}
Shape {
appearance USE COL_ForegroundColor
geometry IndexedLineSet {
coord Coordinate {
point [ 0.315 0 0,
0.233 0.011 0,
]
}
coordIndex [ 0 1 -1]
}
}
]
}
]
}
Transform {
translation 1.299 0.714 0
rotation 0 1 0 3.141593
scale 1 1 1
children [USE CMP_Component_2
]
}
Shape {
appearance USE COL_Color_M00
geometry IndexedFaceSet {
solid TRUE
coord Coordinate {
point [
0 2.087 0,
0.711 1.186 0,
0 0 0,
]
}
coordIndex [
0
1
2
-1
]
}
}
Shape {
appearance USE COL_Color_M00
geometry IndexedFaceSet {
solid TRUE
coord Coordinate {
point [
0.711 1.186 0,
0 2.087 0,
0.762 1.252 0,
]
}
coordIndex [
0
1
2
-1
]
}
}
Shape {
appearance USE COL_BackColor
geometry IndexedFaceSet {
solid TRUE
coord Coordinate {
point [
0 0 0,
0.711 1.186 0,
0 2.087 0,
]
}
coordIndex [
0
1
2
-1
]
}
}
Shape {
appearance USE COL_Color_M00
geometry IndexedFaceSet {
solid TRUE
coord Coordinate {
point [
0 0 0,
0.711 1.186 0,
0.68 1.11 0,
]
}
coordIndex [
0
1
2
-1
]
}
}
Shape {
appearance USE COL_BackColor
geometry IndexedFaceSet {
solid TRUE
coord Coordinate {
point [
0.68 1.11 0,
0.711 1.186 0,
0 0 0,
]
}
coordIndex [
0
1
2
-1
]
}
}
Shape {
appearance USE COL_Color_M00
geometry IndexedFaceSet {
solid TRUE
coord Coordinate {
point [
0 0 0,
0.68 1.11 0,
0.669 1.029 0,
]
}
coordIndex [
0
1
2
-1
]
}
}
Shape {
appearance USE COL_BackColor
geometry IndexedFaceSet {
solid TRUE
coord Coordinate {
point [
0.669 1.029 0,
0.68 1.11 0,
0 0 0,
]
}
coordIndex [
0
1
2
-1
]
}
}
Shape {
appearance USE COL_Color_M00
geometry IndexedFaceSet {
solid TRUE
coord Coordinate {
point [
0.68 0.947 0,
0 0 0,
0.669 1.029 0,
]
}
coordIndex [
0
1
2
-1
]
}
}
Shape {
appearance USE COL_Color_M00
geometry IndexedFaceSet {
solid TRUE
coord Coordinate {
point [
0.711 0.871 0,
0 0 0,
0.68 0.947 0,
]
}
coordIndex [
0
1
2
-1
]
}
}
Shape {
appearance USE COL_Color_M00
geometry IndexedFaceSet {
solid TRUE
coord Coordinate {
point [
0.762 0.806 0,
0 0 0,
0.711 0.871 0,
]
}
coordIndex [
0
1
2
-1
]
}
}
Shape {
appearance USE COL_Color_M00
geometry IndexedFaceSet {
solid TRUE
coord Coordinate {
point [
0.827 0.756 0,
0 0 0,
0.762 0.806 0,
]
}
coordIndex [
0
1
2
-1
]
}
}
Shape {
appearance USE COL_Color_M00
geometry IndexedFaceSet {
solid TRUE
coord Coordinate {
point [
0.903 0.725 0,
0 0 0,
0.827 0.756 0,
]
}
coordIndex [
0
1
2
-1
]
}
}
Shape {
appearance USE COL_Color_M00
geometry IndexedFaceSet {
solid TRUE
coord Coordinate {
point [
0 0 0,
0.903 0.725 0,
5.906 0 0,
]
}
coordIndex [
0
1
2
-1
]
}
}
Shape {
appearance USE COL_BackColor
geometry IndexedFaceSet {
solid TRUE
coord Coordinate {
point [
5.906 0 0,
0.903 0.725 0,
0 0 0,
]
}
coordIndex [
0
1
2
-1
]
}
}
Shape {
appearance USE COL_Color_M00
geometry IndexedFaceSet {
solid TRUE
coord Coordinate {
point [
5.906 0 0,
0.903 0.725 0,
0.984 0.714 0,
]
}
coordIndex [
0
1
2
-1
]
}
}
Shape {
appearance USE COL_BackColor
geometry IndexedFaceSet {
solid TRUE
coord Coordinate {
point [
0.984 0.714 0,
0.903 0.725 0,
5.906 0 0,
]
}
coordIndex [
0
1
2
-1
]
}
}
Shape {
appearance USE COL_Color_M00
geometry IndexedFaceSet {
solid TRUE
coord Coordinate {
point [
5.906 0 0,
0.984 0.714 0,
1.066 0.725 0,
]
}
coordIndex [
0
1
2
-1
]
}
}
Shape {
appearance USE COL_BackColor
geometry IndexedFaceSet {
solid TRUE
coord Coordinate {
point [
1.066 0.725 0,
0.984 0.714 0,
5.906 0 0,
]
}
coordIndex [
0
1
2
-1
]
}
}
Shape {
appearance USE COL_Color_M00
geometry IndexedFaceSet {
solid TRUE
coord Coordinate {
point [
5.906 0 0,
1.066 0.725 0,
1.142 0.756 0,
]
}
coordIndex [
0
1
2
-1
]
}
}
Shape {
appearance USE COL_BackColor
geometry IndexedFaceSet {
solid TRUE
coord Coordinate {
point [
1.142 0.756 0,
1.066 0.725 0,
5.906 0 0,
]
}
coordIndex [
0
1
2
-1
]
}
}
Shape {
appearance USE COL_Color_M00
geometry IndexedFaceSet {
solid TRUE
coord Coordinate {
point [
5.906 0 0,
1.142 0.756 0,
1.207 0.806 0,
]
}
coordIndex [
0
1
2
-1
]
}
}
Shape {
appearance USE COL_BackColor
geometry IndexedFaceSet {
solid TRUE
coord Coordinate {
point [
1.207 0.806 0,
1.142 0.756 0,
5.906 0 0,
]
}
coordIndex [
0
1
2
-1
]
}
}
Shape {
appearance USE COL_Color_M00
geometry IndexedFaceSet {
solid TRUE
coord Coordinate {
point [
5.906 0 0,
1.207 0.806 0,
1.257 0.871 0,
]
}
coordIndex [
0
1
2
-1
]
}
}
Shape {
appearance USE COL_BackColor
geometry IndexedFaceSet {
solid TRUE
coord Coordinate {
point [
1.257 0.871 0,
1.207 0.806 0,
5.906 0 0,
]
}
coordIndex [
0
1
2
-1
]
}
}
Shape {
appearance USE COL_Color_M00
geometry IndexedFaceSet {
solid TRUE
coord Coordinate {
point [
5.906 0 0,
1.257 0.871 0,
1.288 0.947 0,
]
}
coordIndex [
0
1
2
-1
]
}
}
Shape {
appearance USE COL_BackColor
geometry IndexedFaceSet {
solid TRUE
coord Coordinate {
point [
1.288 0.947 0,
1.257 0.871 0,
5.906 0 0,
]
}
coordIndex [
0
1
2
-1
]
}
}
Shape {
appearance USE COL_Color_M00
geometry IndexedFaceSet {
solid TRUE
coord Coordinate {
point [
5.906 0 0,
1.288 0.947 0,
1.299 1.029 0,
]
}
coordIndex [
0
1
2
-1
]
}
}
Shape {
appearance USE COL_BackColor
geometry IndexedFaceSet {
solid TRUE
coord Coordinate {
point [
1.299 1.029 0,
1.288 0.947 0,
5.906 0 0,
]
}
coordIndex [
0
1
2
-1
]
}
}
Shape {
appearance USE COL_Color_M00
geometry IndexedFaceSet {
solid TRUE
coord Coordinate {
point [
5.906 0 0,
1.299 1.029 0,
4.764 0.756 0,
]
}
coordIndex [
0
1
2
-1
]
}
}
Shape {
appearance USE COL_BackColor
geometry IndexedFaceSet {
solid TRUE
coord Coordinate {
point [
4.764 0.756 0,
1.299 1.029 0,
5.906 0 0,
]
}
coordIndex [
0
1
2
-1
]
}
}
Shape {
appearance USE COL_Color_M00
geometry IndexedFaceSet {
solid TRUE
coord Coordinate {
point [
4.764 0.756 0,
1.299 1.029 0,
4.699 0.806 0,
]
}
coordIndex [
0
1
2
-1
]
}
}
Shape {
appearance USE COL_BackColor
geometry IndexedFaceSet {
solid TRUE
coord Coordinate {
point [
4.699 0.806 0,
1.299 1.029 0,
4.764 0.756 0,
]
}
coordIndex [
0
1
2
-1
]
}
}
Shape {
appearance USE COL_Color_M00
geometry IndexedFaceSet {
solid TRUE
coord Coordinate {
point [
4.699 0.806 0,
1.299 1.029 0,
4.648 0.871 0,
]
}
coordIndex [
0
1
2
-1
]
}
}
Shape {
appearance USE COL_BackColor
geometry IndexedFaceSet {
solid TRUE
coord Coordinate {
point [
4.648 0.871 0,
1.299 1.029 0,
4.699 0.806 0,
]
}
coordIndex [
0
1
2
-1
]
}
}
Shape {
appearance USE COL_Color_M00
geometry IndexedFaceSet {
solid TRUE
coord Coordinate {
point [
4.648 0.871 0,
1.299 1.029 0,
4.617 0.947 0,
]
}
coordIndex [
0
1
2
-1
]
}
}
Shape {
appearance USE COL_BackColor
geometry IndexedFaceSet {
solid TRUE
coord Coordinate {
point [
4.617 0.947 0,
1.299 1.029 0,
4.648 0.871 0,
]
}
coordIndex [
0
1
2
-1
]
}
}
Shape {
appearance USE COL_Color_M00
geometry IndexedFaceSet {
solid TRUE
coord Coordinate {
point [
4.617 0.947 0,
1.299 1.029 0,
4.606 1.029 0,
]
}
coordIndex [
0
1
2
-1
]
}
}
Shape {
appearance USE COL_BackColor
geometry IndexedFaceSet {
solid TRUE
coord Coordinate {
point [
4.606 1.029 0,
1.299 1.029 0,
4.617 0.947 0,
]
}
coordIndex [
0
1
2
-1
]
}
}
Shape {
appearance USE COL_Color_M00
geometry IndexedFaceSet {
solid TRUE
coord Coordinate {
point [
1.299 1.029 0,
4.617 1.11 0,
4.606 1.029 0,
]
}
coordIndex [
0
1
2
-1
]
}
}
Shape {
appearance USE COL_Color_M00
geometry IndexedFaceSet {
solid TRUE
coord Coordinate {
point [
1.299 1.029 0,
4.648 1.186 0,
4.617 1.11 0,
]
}
coordIndex [
0
1
2
-1
]
}
}
Shape {
appearance USE COL_Color_M00
geometry IndexedFaceSet {
solid TRUE
coord Coordinate {
point [
1.299 1.029 0,
4.699 1.252 0,
4.648 1.186 0,
]
}
coordIndex [
0
1
2
-1
]
}
}
Shape {
appearance USE COL_Color_M00
geometry IndexedFaceSet {
solid TRUE
coord Coordinate {
point [
1.299 1.029 0,
4.764 1.302 0,
4.699 1.252 0,
]
}
coordIndex [
0
1
2
-1
]
}
}
Shape {
appearance USE COL_Color_M00
geometry IndexedFaceSet {
solid TRUE
coord Coordinate {
point [
1.299 1.029 0,
5.906 2.087 0,
4.764 1.302 0,
]
}
coordIndex [
0
1
2
-1
]
}
}
Shape {
appearance USE COL_Color_M00
geometry IndexedFaceSet {
solid TRUE
coord Coordinate {
point [
1.288 1.11 0,
5.906 2.087 0,
1.299 1.029 0,
]
}
coordIndex [
0
1
2
-1
]
}
}
Shape {
appearance USE COL_Color_M00
geometry IndexedFaceSet {
solid TRUE
coord Coordinate {
point [
1.257 1.186 0,
5.906 2.087 0,
1.288 1.11 0,
]
}
coordIndex [
0
1
2
-1
]
}
}
Shape {
appearance USE COL_Color_M00
geometry IndexedFaceSet {
solid TRUE
coord Coordinate {
point [
1.207 1.252 0,
5.906 2.087 0,
1.257 1.186 0,
]
}
coordIndex [
0
1
2
-1
]
}
}
Shape {
appearance USE COL_Color_M00
geometry IndexedFaceSet {
solid TRUE
coord Coordinate {
point [
1.142 1.302 0,
5.906 2.087 0,
1.207 1.252 0,
]
}
coordIndex [
0
1
2
-1
]
}
}
Shape {
appearance USE COL_Color_M00
geometry IndexedFaceSet {
solid TRUE
coord Coordinate {
point [
1.066 1.333 0,
5.906 2.087 0,
1.142 1.302 0,
]
}
coordIndex [
0
1
2
-1
]
}
}
Shape {
appearance USE COL_Color_M00
geometry IndexedFaceSet {
solid TRUE
coord Coordinate {
point [
0.984 1.344 0,
5.906 2.087 0,
1.066 1.333 0,
]
}
coordIndex [
0
1
2
-1
]
}
}
Shape {
appearance USE COL_Color_M00
geometry IndexedFaceSet {
solid TRUE
coord Coordinate {
point [
0.903 1.333 0,
5.906 2.087 0,
0.984 1.344 0,
]
}
coordIndex [
0
1
2
-1
]
}
}
Shape {
appearance USE COL_Color_M00
geometry IndexedFaceSet {
solid TRUE
coord Coordinate {
point [
0.903 1.333 0,
0 2.087 0,
5.906 2.087 0,
]
}
coordIndex [
0
1
2
-1
]
}
}
Shape {
appearance USE COL_Color_M00
geometry IndexedFaceSet {
solid TRUE
coord Coordinate {
point [
0.827 1.302 0,
0 2.087 0,
0.903 1.333 0,
]
}
coordIndex [
0
1
2
-1
]
}
}
Shape {
appearance USE COL_Color_M00
geometry IndexedFaceSet {
solid TRUE
coord Coordinate {
point [
0.762 1.252 0,
0 2.087 0,
0.827 1.302 0,
]
}
coordIndex [
0
1
2
-1
]
}
}
Shape {
appearance USE COL_BackColor
geometry IndexedFaceSet {
solid TRUE
coord Coordinate {
point [
0.762 1.252 0,
0 2.087 0,
0.711 1.186 0,
]
}
coordIndex [
0
1
2
-1
]
}
}
Shape {
appearance USE COL_BackColor
geometry IndexedFaceSet {
solid TRUE
coord Coordinate {
point [
0.827 1.302 0,
0 2.087 0,
0.762 1.252 0,
]
}
coordIndex [
0
1
2
-1
]
}
}
Shape {
appearance USE COL_BackColor
geometry IndexedFaceSet {
solid TRUE
coord Coordinate {
point [
0.903 1.333 0,
0 2.087 0,
0.827 1.302 0,
]
}
coordIndex [
0
1
2
-1
]
}
}
Shape {
appearance USE COL_BackColor
geometry IndexedFaceSet {
solid TRUE
coord Coordinate {
point [
5.906 2.087 0,
0 2.087 0,
0.903 1.333 0,
]
}
coordIndex [
0
1
2
-1
]
}
}
Shape {
appearance USE COL_Color_M00
geometry IndexedFaceSet {
solid TRUE
coord Coordinate {
point [
5.906 2.087 0,
0 2.087 0,
0 2.087 7.087,
5.906 2.087 7.087,
]
}
coordIndex [
0
1
2
3
-1
]
}
}
Shape {
appearance USE COL_BackColor
geometry IndexedFaceSet {
solid TRUE
coord Coordinate {
point [
5.906 2.087 7.087,
0 2.087 7.087,
0 2.087 0,
5.906 2.087 0,
]
}
coordIndex [
0
1
2
3
-1
]
}
}
Shape {
appearance USE COL_Color_M00
geometry IndexedFaceSet {
solid TRUE
coord Coordinate {
point [
0 0 7.087,
5.906 0 7.087,
5.906 2.087 7.087,
0 2.087 7.087,
]
}
coordIndex [
0
1
2
3
-1
]
}
}
Shape {
appearance USE COL_BackColor
geometry IndexedFaceSet {
solid TRUE
coord Coordinate {
point [
0 2.087 7.087,
5.906 2.087 7.087,
5.906 0 7.087,
0 0 7.087,
]
}
coordIndex [
0
1
2
3
-1
]
}
}
Shape {
appearance USE COL_Color_M00
geometry IndexedFaceSet {
solid TRUE
coord Coordinate {
point [
5.906 0 0,
5.906 2.087 0,
5.906 2.087 7.087,
5.906 0 7.087,
]
}
coordIndex [
0
1
2
3
-1
]
}
}
Shape {
appearance USE COL_Color_M00
geometry IndexedFaceSet {
solid TRUE
coord Coordinate {
point [
5.906 0 0,
5.236 1.029 0,
5.906 2.087 0,
]
}
coordIndex [
0
1
2
-1
]
}
}
Shape {
appearance USE COL_Color_M00
geometry IndexedFaceSet {
solid TRUE
coord Coordinate {
point [
5.906 0 0,
5.225 0.947 0,
5.236 1.029 0,
]
}
coordIndex [
0
1
2
-1
]
}
}
Shape {
appearance USE COL_Color_M00
geometry IndexedFaceSet {
solid TRUE
coord Coordinate {
point [
5.906 0 0,
5.194 0.871 0,
5.225 0.947 0,
]
}
coordIndex [
0
1
2
-1
]
}
}
Shape {
appearance USE COL_Color_M00
geometry IndexedFaceSet {
solid TRUE
coord Coordinate {
point [
5.906 0 0,
5.144 0.806 0,
5.194 0.871 0,
]
}
coordIndex [
0
1
2
-1
]
}
}
Shape {
appearance USE COL_Color_M00
geometry IndexedFaceSet {
solid TRUE
coord Coordinate {
point [
5.906 0 0,
5.079 0.756 0,
5.144 0.806 0,
]
}
coordIndex [
0
1
2
-1
]
}
}
Shape {
appearance USE COL_Color_M00
geometry IndexedFaceSet {
solid TRUE
coord Coordinate {
point [
5.906 0 0,
5.003 0.725 0,
5.079 0.756 0,
]
}
coordIndex [
0
1
2
-1
]
}
}
Shape {
appearance USE COL_Color_M00
geometry IndexedFaceSet {
solid TRUE
coord Coordinate {
point [
5.906 0 0,
4.921 0.714 0,
5.003 0.725 0,
]
}
coordIndex [
0
1
2
-1
]
}
}
Shape {
appearance USE COL_Color_M00
geometry IndexedFaceSet {
solid TRUE
coord Coordinate {
point [
5.906 0 0,
4.84 0.725 0,
4.921 0.714 0,
]
}
coordIndex [
0
1
2
-1
]
}
}
Shape {
appearance USE COL_Color_M00
geometry IndexedFaceSet {
solid TRUE
coord Coordinate {
point [
5.906 0 0,
4.764 0.756 0,
4.84 0.725 0,
]
}
coordIndex [
0
1
2
-1
]
}
}
Shape {
appearance USE COL_BackColor
geometry IndexedFaceSet {
solid TRUE
coord Coordinate {
point [
4.84 0.725 0,
4.764 0.756 0,
5.906 0 0,
]
}
coordIndex [
0
1
2
-1
]
}
}
Shape {
appearance USE COL_BackColor
geometry IndexedFaceSet {
solid TRUE
coord Coordinate {
point [
4.921 0.714 0,
4.84 0.725 0,
5.906 0 0,
]
}
coordIndex [
0
1
2
-1
]
}
}
Shape {
appearance USE COL_BackColor
geometry IndexedFaceSet {
solid TRUE
coord Coordinate {
point [
5.003 0.725 0,
4.921 0.714 0,
5.906 0 0,
]
}
coordIndex [
0
1
2
-1
]
}
}
Shape {
appearance USE COL_BackColor
geometry IndexedFaceSet {
solid TRUE
coord Coordinate {
point [
5.079 0.756 0,
5.003 0.725 0,
5.906 0 0,
]
}
coordIndex [
0
1
2
-1
]
}
}
Shape {
appearance USE COL_BackColor
geometry IndexedFaceSet {
solid TRUE
coord Coordinate {
point [
5.144 0.806 0,
5.079 0.756 0,
5.906 0 0,
]
}
coordIndex [
0
1
2
-1
]
}
}
Shape {
appearance USE COL_BackColor
geometry IndexedFaceSet {
solid TRUE
coord Coordinate {
point [
5.194 0.871 0,
5.144 0.806 0,
5.906 0 0,
]
}
coordIndex [
0
1
2
-1
]
}
}
Shape {
appearance USE COL_BackColor
geometry IndexedFaceSet {
solid TRUE
coord Coordinate {
point [
5.225 0.947 0,
5.194 0.871 0,
5.906 0 0,
]
}
coordIndex [
0
1
2
-1
]
}
}
Shape {
appearance USE COL_BackColor
geometry IndexedFaceSet {
solid TRUE
coord Coordinate {
point [
5.236 1.029 0,
5.225 0.947 0,
5.906 0 0,
]
}
coordIndex [
0
1
2
-1
]
}
}
Shape {
appearance USE COL_BackColor
geometry IndexedFaceSet {
solid TRUE
coord Coordinate {
point [
5.906 2.087 0,
5.236 1.029 0,
5.906 0 0,
]
}
coordIndex [
0
1
2
-1
]
}
}
Shape {
appearance USE COL_Color_M00
geometry IndexedFaceSet {
solid TRUE
coord Coordinate {
point [
5.225 1.11 0,
5.906 2.087 0,
5.236 1.029 0,
]
}
coordIndex [
0
1
2
-1
]
}
}
Shape {
appearance USE COL_Color_M00
geometry IndexedFaceSet {
solid TRUE
coord Coordinate {
point [
5.194 1.186 0,
5.906 2.087 0,
5.225 1.11 0,
]
}
coordIndex [
0
1
2
-1
]
}
}
Shape {
appearance USE COL_Color_M00
geometry IndexedFaceSet {
solid TRUE
coord Coordinate {
point [
5.144 1.252 0,
5.906 2.087 0,
5.194 1.186 0,
]
}
coordIndex [
0
1
2
-1
]
}
}
Shape {
appearance USE COL_Color_M00
geometry IndexedFaceSet {
solid TRUE
coord Coordinate {
point [
5.079 1.302 0,
5.906 2.087 0,
5.144 1.252 0,
]
}
coordIndex [
0
1
2
-1
]
}
}
Shape {
appearance USE COL_Color_M00
geometry IndexedFaceSet {
solid TRUE
coord Coordinate {
point [
5.003 1.333 0,
5.906 2.087 0,
5.079 1.302 0,
]
}
coordIndex [
0
1
2
-1
]
}
}
Shape {
appearance USE COL_Color_M00
geometry IndexedFaceSet {
solid TRUE
coord Coordinate {
point [
4.921 1.344 0,
5.906 2.087 0,
5.003 1.333 0,
]
}
coordIndex [
0
1
2
-1
]
}
}
Shape {
appearance USE COL_Color_M00
geometry IndexedFaceSet {
solid TRUE
coord Coordinate {
point [
4.84 1.333 0,
5.906 2.087 0,
4.921 1.344 0,
]
}
coordIndex [
0
1
2
-1
]
}
}
Shape {
appearance USE COL_Color_M00
geometry IndexedFaceSet {
solid TRUE
coord Coordinate {
point [
4.764 1.302 0,
5.906 2.087 0,
4.84 1.333 0,
]
}
coordIndex [
0
1
2
-1
]
}
}
Shape {
appearance USE COL_BackColor
geometry IndexedFaceSet {
solid TRUE
coord Coordinate {
point [
4.764 1.302 0,
5.906 2.087 0,
1.299 1.029 0,
]
}
coordIndex [
0
1
2
-1
]
}
}
Shape {
appearance USE COL_BackColor
geometry IndexedFaceSet {
solid TRUE
coord Coordinate {
point [
4.84 1.333 0,
5.906 2.087 0,
4.764 1.302 0,
]
}
coordIndex [
0
1
2
-1
]
}
}
Shape {
appearance USE COL_BackColor
geometry IndexedFaceSet {
solid TRUE
coord Coordinate {
point [
4.921 1.344 0,
5.906 2.087 0,
4.84 1.333 0,
]
}
coordIndex [
0
1
2
-1
]
}
}
Shape {
appearance USE COL_BackColor
geometry IndexedFaceSet {
solid TRUE
coord Coordinate {
point [
5.003 1.333 0,
5.906 2.087 0,
4.921 1.344 0,
]
}
coordIndex [
0
1
2
-1
]
}
}
Shape {
appearance USE COL_BackColor
geometry IndexedFaceSet {
solid TRUE
coord Coordinate {
point [
5.079 1.302 0,
5.906 2.087 0,
5.003 1.333 0,
]
}
coordIndex [
0
1
2
-1
]
}
}
Shape {
appearance USE COL_BackColor
geometry IndexedFaceSet {
solid TRUE
coord Coordinate {
point [
5.144 1.252 0,
5.906 2.087 0,
5.079 1.302 0,
]
}
coordIndex [
0
1
2
-1
]
}
}
Shape {
appearance USE COL_BackColor
geometry IndexedFaceSet {
solid TRUE
coord Coordinate {
point [
5.194 1.186 0,
5.906 2.087 0,
5.144 1.252 0,
]
}
coordIndex [
0
1
2
-1
]
}
}
Shape {
appearance USE COL_BackColor
geometry IndexedFaceSet {
solid TRUE
coord Coordinate {
point [
5.225 1.11 0,
5.906 2.087 0,
5.194 1.186 0,
]
}
coordIndex [
0
1
2
-1
]
}
}
Shape {
appearance USE COL_BackColor
geometry IndexedFaceSet {
solid TRUE
coord Coordinate {
point [
5.236 1.029 0,
5.906 2.087 0,
5.225 1.11 0,
]
}
coordIndex [
0
1
2
-1
]
}
}
Shape {
appearance USE COL_BackColor
geometry IndexedFaceSet {
solid TRUE
coord Coordinate {
point [
1.299 1.029 0,
5.906 2.087 0,
1.288 1.11 0,
]
}
coordIndex [
0
1
2
-1
]
}
}
Shape {
appearance USE COL_BackColor
geometry IndexedFaceSet {
solid TRUE
coord Coordinate {
point [
1.288 1.11 0,
5.906 2.087 0,
1.257 1.186 0,
]
}
coordIndex [
0
1
2
-1
]
}
}
Shape {
appearance USE COL_BackColor
geometry IndexedFaceSet {
solid TRUE
coord Coordinate {
point [
1.257 1.186 0,
5.906 2.087 0,
1.207 1.252 0,
]
}
coordIndex [
0
1
2
-1
]
}
}
Shape {
appearance USE COL_BackColor
geometry IndexedFaceSet {
solid TRUE
coord Coordinate {
point [
1.207 1.252 0,
5.906 2.087 0,
1.142 1.302 0,
]
}
coordIndex [
0
1
2
-1
]
}
}
Shape {
appearance USE COL_BackColor
geometry IndexedFaceSet {
solid TRUE
coord Coordinate {
point [
1.142 1.302 0,
5.906 2.087 0,
1.066 1.333 0,
]
}
coordIndex [
0
1
2
-1
]
}
}
Shape {
appearance USE COL_BackColor
geometry IndexedFaceSet {
solid TRUE
coord Coordinate {
point [
1.066 1.333 0,
5.906 2.087 0,
0.984 1.344 0,
]
}
coordIndex [
0
1
2
-1
]
}
}
Shape {
appearance USE COL_BackColor
geometry IndexedFaceSet {
solid TRUE
coord Coordinate {
point [
0.984 1.344 0,
5.906 2.087 0,
0.903 1.333 0,
]
}
coordIndex [
0
1
2
-1
]
}
}
Shape {
appearance USE COL_BackColor
geometry IndexedFaceSet {
solid TRUE
coord Coordinate {
point [
4.699 1.252 0,
4.764 1.302 0,
1.299 1.029 0,
]
}
coordIndex [
0
1
2
-1
]
}
}
Shape {
appearance USE COL_BackColor
geometry IndexedFaceSet {
solid TRUE
coord Coordinate {
point [
4.648 1.186 0,
4.699 1.252 0,
1.299 1.029 0,
]
}
coordIndex [
0
1
2
-1
]
}
}
Shape {
appearance USE COL_BackColor
geometry IndexedFaceSet {
solid TRUE
coord Coordinate {
point [
4.617 1.11 0,
4.648 1.186 0,
1.299 1.029 0,
]
}
coordIndex [
0
1
2
-1
]
}
}
Shape {
appearance USE COL_BackColor
geometry IndexedFaceSet {
solid TRUE
coord Coordinate {
point [
4.606 1.029 0,
4.617 1.11 0,
1.299 1.029 0,
]
}
coordIndex [
0
1
2
-1
]
}
}
Shape {
appearance USE COL_BackColor
geometry IndexedFaceSet {
solid TRUE
coord Coordinate {
point [
5.906 0 7.087,
5.906 2.087 7.087,
5.906 2.087 0,
5.906 0 0,
]
}
coordIndex [
0
1
2
3
-1
]
}
}
Shape {
appearance USE COL_Color_M00
geometry IndexedFaceSet {
solid TRUE
coord Coordinate {
point [
0 0 0,
5.906 0 0,
5.906 0 7.087,
0 0 7.087,
]
}
coordIndex [
0
1
2
3
-1
]
}
}
Shape {
appearance USE COL_BackColor
geometry IndexedFaceSet {
solid TRUE
coord Coordinate {
point [
0 0 7.087,
5.906 0 7.087,
5.906 0 0,
0 0 0,
]
}
coordIndex [
0
1
2
3
-1
]
}
}
Shape {
appearance USE COL_Color_M00
geometry IndexedFaceSet {
solid TRUE
coord Coordinate {
point [
0 2.087 0,
0 0 0,
0 0 7.087,
0 2.087 7.087,
]
}
coordIndex [
0
1
2
3
-1
]
}
}
Shape {
appearance USE COL_BackColor
geometry IndexedFaceSet {
solid TRUE
coord Coordinate {
point [
0 2.087 7.087,
0 0 7.087,
0 0 0,
0 2.087 0,
]
}
coordIndex [
0
1
2
3
-1
]
}
}
Shape {
appearance USE COL_BackColor
geometry IndexedFaceSet {
solid TRUE
coord Coordinate {
point [
0.827 0.756 0,
0 0 0,
0.903 0.725 0,
]
}
coordIndex [
0
1
2
-1
]
}
}
Shape {
appearance USE COL_BackColor
geometry IndexedFaceSet {
solid TRUE
coord Coordinate {
point [
0.762 0.806 0,
0 0 0,
0.827 0.756 0,
]
}
coordIndex [
0
1
2
-1
]
}
}
Shape {
appearance USE COL_BackColor
geometry IndexedFaceSet {
solid TRUE
coord Coordinate {
point [
0.711 0.871 0,
0 0 0,
0.762 0.806 0,
]
}
coordIndex [
0
1
2
-1
]
}
}
Shape {
appearance USE COL_BackColor
geometry IndexedFaceSet {
solid TRUE
coord Coordinate {
point [
0.68 0.947 0,
0 0 0,
0.711 0.871 0,
]
}
coordIndex [
0
1
2
-1
]
}
}
Shape {
appearance USE COL_BackColor
geometry IndexedFaceSet {
solid TRUE
coord Coordinate {
point [
0.669 1.029 0,
0 0 0,
0.68 0.947 0,
]
}
coordIndex [
0
1
2
-1
]
}
}
Shape {
appearance USE COL_ForegroundColor
geometry IndexedLineSet {
coord Coordinate {
point [ 0 2.087 0,
0 0 0,
]
}
coordIndex [ 0 1 -1]
}
}
Shape {
appearance USE COL_ForegroundColor
geometry IndexedLineSet {
coord Coordinate {
point [ 5.906 2.087 0,
0 2.087 0,
]
}
coordIndex [ 0 1 -1]
}
}
Shape {
appearance USE COL_ForegroundColor
geometry IndexedLineSet {
coord Coordinate {
point [ 5.906 0 0,
5.906 2.087 0,
]
}
coordIndex [ 0 1 -1]
}
}
Shape {
appearance USE COL_ForegroundColor
geometry IndexedLineSet {
coord Coordinate {
point [ 0 0 0,
5.906 0 0,
]
}
coordIndex [ 0 1 -1]
}
}
Shape {
appearance USE COL_ForegroundColor
geometry IndexedLineSet {
coord Coordinate {
point [ 0 0 0,
0 0 7.087,
]
}
coordIndex [ 0 1 -1]
}
}
Shape {
appearance USE COL_ForegroundColor
geometry IndexedLineSet {
coord Coordinate {
point [ 0 0 7.087,
5.906 0 7.087,
]
}
coordIndex [ 0 1 -1]
}
}
Shape {
appearance USE COL_ForegroundColor
geometry IndexedLineSet {
coord Coordinate {
point [ 0 2.087 7.087,
0 0 7.087,
]
}
coordIndex [ 0 1 -1]
}
}
Shape {
appearance USE COL_ForegroundColor
geometry IndexedLineSet {
coord Coordinate {
point [ 5.906 2.087 7.087,
0 2.087 7.087,
]
}
coordIndex [ 0 1 -1]
}
}
Shape {
appearance USE COL_ForegroundColor
geometry IndexedLineSet {
coord Coordinate {
point [ 5.906 0 7.087,
5.906 2.087 7.087,
]
}
coordIndex [ 0 1 -1]
}
}
Shape {
appearance USE COL_ForegroundColor
geometry IndexedLineSet {
coord Coordinate {
point [ 5.906 0 0,
5.906 0 7.087,
]
}
coordIndex [ 0 1 -1]
}
}
Shape {
appearance USE COL_ForegroundColor
geometry IndexedLineSet {
coord Coordinate {
point [ 5.906 2.087 0,
5.906 2.087 7.087,
]
}
coordIndex [ 0 1 -1]
}
}
Shape {
appearance USE COL_ForegroundColor
geometry IndexedLineSet {
coord Coordinate {
point [ 0 2.087 0,
0 2.087 7.087,
]
}
coordIndex [ 0 1 -1]
}
}
Viewpoint {
position -1.418 -23.52 16.29
orientation 0.998546 -0.027101 -0.046593 1.054911
fieldOfView 0.61087
description "Camera"
jump FALSE
}
