#VRML V2.0 utf8
Transform {
translation -0.059 -0.024 0
scale 1 1 1
children [DEF CMP_Relay Group {
children [
Transform {
translation 0.073 0.032 0.63
scale 1 1 1
children [DEF CMP_Component_2 Group {
children [
Shape {
appearance DEF COL_FrontColor Appearance {
material Material { diffuseColor 1 1 1 }
}
geometry IndexedFaceSet {
convex FALSE
solid TRUE
coord Coordinate {
point [
0.007 0.044 0,
0.013 0.048 0,
0.019 0.05 0,
0.026 0.051 0,
0.032 0.05 0,
0.038 0.048 0,
0.044 0.044 0,
0.048 0.038 0,
0.05 0.032 0,
0.051 0.026 0,
0.05 0.019 0,
0.048 0.013 0,
0.044 0.007 0,
0.038 0.003 0,
0.032 0.001 0,
0.026 0 0,
0.019 0.001 0,
0.013 0.003 0,
0.007 0.007 0,
0.003 0.013 0,
0.001 0.019 0,
0 0.026 0,
0.001 0.032 0,
0.003 0.038 0,
]
}
coordIndex [
0
1
2
3
4
5
6
7
8
9
10
11
12
13
14
15
16
17
18
19
20
21
22
23
-1
]
}
}
Shape {
appearance DEF COL_BackColor Appearance {
material Material { diffuseColor 0.643 0.698 0.733 }
}
geometry IndexedFaceSet {
convex FALSE
solid TRUE
coord Coordinate {
point [
0.003 0.038 0,
0.001 0.032 0,
0 0.026 0,
0.001 0.019 0,
0.003 0.013 0,
0.007 0.007 0,
0.013 0.003 0,
0.019 0.001 0,
0.026 0 0,
0.032 0.001 0,
0.038 0.003 0,
0.044 0.007 0,
0.048 0.013 0,
0.05 0.019 0,
0.051 0.026 0,
0.05 0.032 0,
0.048 0.038 0,
0.044 0.044 0,
0.038 0.048 0,
0.032 0.05 0,
0.026 0.051 0,
0.019 0.05 0,
0.013 0.048 0,
0.007 0.044 0,
]
}
coordIndex [
0
1
2
3
4
5
6
7
8
9
10
11
12
13
14
15
16
17
18
19
20
21
22
23
-1
]
}
}
Shape {
appearance USE COL_FrontColor
geometry IndexedFaceSet {
convex FALSE
solid TRUE
coord Coordinate {
point [
0.003 0.038 0,
0.001 0.032 0,
0.001 0.032 0.118,
0.003 0.038 0.118,
]
}
coordIndex [
0
1
2
3
-1
]
}
}
Shape {
appearance USE COL_BackColor
geometry IndexedFaceSet {
convex FALSE
solid TRUE
coord Coordinate {
point [
0.003 0.038 0.118,
0.001 0.032 0.118,
0.001 0.032 0,
0.003 0.038 0,
]
}
coordIndex [
0
1
2
3
-1
]
}
}
Shape {
appearance USE COL_FrontColor
geometry IndexedFaceSet {
convex FALSE
solid TRUE
coord Coordinate {
point [
0.013 0.048 0.118,
0.007 0.044 0.118,
0.003 0.038 0.118,
0.001 0.032 0.118,
0 0.026 0.118,
0.001 0.019 0.118,
0.003 0.013 0.118,
0.007 0.007 0.118,
0.013 0.003 0.118,
0.019 0.001 0.118,
0.026 0 0.118,
0.032 0.001 0.118,
0.038 0.003 0.118,
0.044 0.007 0.118,
0.048 0.013 0.118,
0.05 0.019 0.118,
0.051 0.026 0.118,
0.05 0.032 0.118,
0.048 0.038 0.118,
0.044 0.044 0.118,
0.038 0.048 0.118,
0.032 0.05 0.118,
0.026 0.051 0.118,
0.019 0.05 0.118,
]
}
coordIndex [
0
1
2
3
4
5
6
7
8
9
10
11
12
13
14
15
16
17
18
19
20
21
22
23
-1
]
}
}
Shape {
appearance USE COL_BackColor
geometry IndexedFaceSet {
convex FALSE
solid TRUE
coord Coordinate {
point [
0.019 0.05 0.118,
0.026 0.051 0.118,
0.032 0.05 0.118,
0.038 0.048 0.118,
0.044 0.044 0.118,
0.048 0.038 0.118,
0.05 0.032 0.118,
0.051 0.026 0.118,
0.05 0.019 0.118,
0.048 0.013 0.118,
0.044 0.007 0.118,
0.038 0.003 0.118,
0.032 0.001 0.118,
0.026 0 0.118,
0.019 0.001 0.118,
0.013 0.003 0.118,
0.007 0.007 0.118,
0.003 0.013 0.118,
0.001 0.019 0.118,
0 0.026 0.118,
0.001 0.032 0.118,
0.003 0.038 0.118,
0.007 0.044 0.118,
0.013 0.048 0.118,
]
}
coordIndex [
0
1
2
3
4
5
6
7
8
9
10
11
12
13
14
15
16
17
18
19
20
21
22
23
-1
]
}
}
Shape {
appearance USE COL_FrontColor
geometry IndexedFaceSet {
convex FALSE
solid TRUE
coord Coordinate {
point [
0.026 0.051 0,
0.019 0.05 0,
0.019 0.05 0.118,
0.026 0.051 0.118,
]
}
coordIndex [
0
1
2
3
-1
]
}
}
Shape {
appearance USE COL_BackColor
geometry IndexedFaceSet {
convex FALSE
solid TRUE
coord Coordinate {
point [
0.026 0.051 0.118,
0.019 0.05 0.118,
0.019 0.05 0,
0.026 0.051 0,
]
}
coordIndex [
0
1
2
3
-1
]
}
}
Shape {
appearance USE COL_FrontColor
geometry IndexedFaceSet {
convex FALSE
solid TRUE
coord Coordinate {
point [
0.019 0.05 0,
0.013 0.048 0,
0.013 0.048 0.118,
0.019 0.05 0.118,
]
}
coordIndex [
0
1
2
3
-1
]
}
}
Shape {
appearance USE COL_BackColor
geometry IndexedFaceSet {
convex FALSE
solid TRUE
coord Coordinate {
point [
0.019 0.05 0.118,
0.013 0.048 0.118,
0.013 0.048 0,
0.019 0.05 0,
]
}
coordIndex [
0
1
2
3
-1
]
}
}
Shape {
appearance USE COL_FrontColor
geometry IndexedFaceSet {
convex FALSE
solid TRUE
coord Coordinate {
point [
0.013 0.048 0,
0.007 0.044 0,
0.007 0.044 0.118,
0.013 0.048 0.118,
]
}
coordIndex [
0
1
2
3
-1
]
}
}
Shape {
appearance USE COL_BackColor
geometry IndexedFaceSet {
convex FALSE
solid TRUE
coord Coordinate {
point [
0.013 0.048 0.118,
0.007 0.044 0.118,
0.007 0.044 0,
0.013 0.048 0,
]
}
coordIndex [
0
1
2
3
-1
]
}
}
Shape {
appearance USE COL_FrontColor
geometry IndexedFaceSet {
convex FALSE
solid TRUE
coord Coordinate {
point [
0.007 0.044 0,
0.003 0.038 0,
0.003 0.038 0.118,
0.007 0.044 0.118,
]
}
coordIndex [
0
1
2
3
-1
]
}
}
Shape {
appearance USE COL_BackColor
geometry IndexedFaceSet {
convex FALSE
solid TRUE
coord Coordinate {
point [
0.007 0.044 0.118,
0.003 0.038 0.118,
0.003 0.038 0,
0.007 0.044 0,
]
}
coordIndex [
0
1
2
3
-1
]
}
}
Shape {
appearance USE COL_FrontColor
geometry IndexedFaceSet {
convex FALSE
solid TRUE
coord Coordinate {
point [
0.032 0.05 0,
0.026 0.051 0,
0.026 0.051 0.118,
0.032 0.05 0.118,
]
}
coordIndex [
0
1
2
3
-1
]
}
}
Shape {
appearance USE COL_BackColor
geometry IndexedFaceSet {
convex FALSE
solid TRUE
coord Coordinate {
point [
0.032 0.05 0.118,
0.026 0.051 0.118,
0.026 0.051 0,
0.032 0.05 0,
]
}
coordIndex [
0
1
2
3
-1
]
}
}
Shape {
appearance USE COL_FrontColor
geometry IndexedFaceSet {
convex FALSE
solid TRUE
coord Coordinate {
point [
0.038 0.048 0,
0.032 0.05 0,
0.032 0.05 0.118,
0.038 0.048 0.118,
]
}
coordIndex [
0
1
2
3
-1
]
}
}
Shape {
appearance USE COL_BackColor
geometry IndexedFaceSet {
convex FALSE
solid TRUE
coord Coordinate {
point [
0.038 0.048 0.118,
0.032 0.05 0.118,
0.032 0.05 0,
0.038 0.048 0,
]
}
coordIndex [
0
1
2
3
-1
]
}
}
Shape {
appearance USE COL_FrontColor
geometry IndexedFaceSet {
convex FALSE
solid TRUE
coord Coordinate {
point [
0.044 0.044 0,
0.038 0.048 0,
0.038 0.048 0.118,
0.044 0.044 0.118,
]
}
coordIndex [
0
1
2
3
-1
]
}
}
Shape {
appearance USE COL_BackColor
geometry IndexedFaceSet {
convex FALSE
solid TRUE
coord Coordinate {
point [
0.044 0.044 0.118,
0.038 0.048 0.118,
0.038 0.048 0,
0.044 0.044 0,
]
}
coordIndex [
0
1
2
3
-1
]
}
}
Shape {
appearance USE COL_FrontColor
geometry IndexedFaceSet {
convex FALSE
solid TRUE
coord Coordinate {
point [
0.048 0.038 0,
0.044 0.044 0,
0.044 0.044 0.118,
0.048 0.038 0.118,
]
}
coordIndex [
0
1
2
3
-1
]
}
}
Shape {
appearance USE COL_BackColor
geometry IndexedFaceSet {
convex FALSE
solid TRUE
coord Coordinate {
point [
0.048 0.038 0.118,
0.044 0.044 0.118,
0.044 0.044 0,
0.048 0.038 0,
]
}
coordIndex [
0
1
2
3
-1
]
}
}
Shape {
appearance USE COL_FrontColor
geometry IndexedFaceSet {
convex FALSE
solid TRUE
coord Coordinate {
point [
0.05 0.032 0,
0.048 0.038 0,
0.048 0.038 0.118,
0.05 0.032 0.118,
]
}
coordIndex [
0
1
2
3
-1
]
}
}
Shape {
appearance USE COL_BackColor
geometry IndexedFaceSet {
convex FALSE
solid TRUE
coord Coordinate {
point [
0.05 0.032 0.118,
0.048 0.038 0.118,
0.048 0.038 0,
0.05 0.032 0,
]
}
coordIndex [
0
1
2
3
-1
]
}
}
Shape {
appearance USE COL_FrontColor
geometry IndexedFaceSet {
convex FALSE
solid TRUE
coord Coordinate {
point [
0.051 0.026 0,
0.05 0.032 0,
0.05 0.032 0.118,
0.051 0.026 0.118,
]
}
coordIndex [
0
1
2
3
-1
]
}
}
Shape {
appearance USE COL_BackColor
geometry IndexedFaceSet {
convex FALSE
solid TRUE
coord Coordinate {
point [
0.051 0.026 0.118,
0.05 0.032 0.118,
0.05 0.032 0,
0.051 0.026 0,
]
}
coordIndex [
0
1
2
3
-1
]
}
}
Shape {
appearance USE COL_FrontColor
geometry IndexedFaceSet {
convex FALSE
solid TRUE
coord Coordinate {
point [
0.05 0.019 0,
0.051 0.026 0,
0.051 0.026 0.118,
0.05 0.019 0.118,
]
}
coordIndex [
0
1
2
3
-1
]
}
}
Shape {
appearance USE COL_BackColor
geometry IndexedFaceSet {
convex FALSE
solid TRUE
coord Coordinate {
point [
0.05 0.019 0.118,
0.051 0.026 0.118,
0.051 0.026 0,
0.05 0.019 0,
]
}
coordIndex [
0
1
2
3
-1
]
}
}
Shape {
appearance USE COL_FrontColor
geometry IndexedFaceSet {
convex FALSE
solid TRUE
coord Coordinate {
point [
0.048 0.013 0,
0.05 0.019 0,
0.05 0.019 0.118,
0.048 0.013 0.118,
]
}
coordIndex [
0
1
2
3
-1
]
}
}
Shape {
appearance USE COL_BackColor
geometry IndexedFaceSet {
convex FALSE
solid TRUE
coord Coordinate {
point [
0.048 0.013 0.118,
0.05 0.019 0.118,
0.05 0.019 0,
0.048 0.013 0,
]
}
coordIndex [
0
1
2
3
-1
]
}
}
Shape {
appearance USE COL_FrontColor
geometry IndexedFaceSet {
convex FALSE
solid TRUE
coord Coordinate {
point [
0.044 0.007 0,
0.048 0.013 0,
0.048 0.013 0.118,
0.044 0.007 0.118,
]
}
coordIndex [
0
1
2
3
-1
]
}
}
Shape {
appearance USE COL_BackColor
geometry IndexedFaceSet {
convex FALSE
solid TRUE
coord Coordinate {
point [
0.044 0.007 0.118,
0.048 0.013 0.118,
0.048 0.013 0,
0.044 0.007 0,
]
}
coordIndex [
0
1
2
3
-1
]
}
}
Shape {
appearance USE COL_FrontColor
geometry IndexedFaceSet {
convex FALSE
solid TRUE
coord Coordinate {
point [
0.038 0.003 0,
0.044 0.007 0,
0.044 0.007 0.118,
0.038 0.003 0.118,
]
}
coordIndex [
0
1
2
3
-1
]
}
}
Shape {
appearance USE COL_BackColor
geometry IndexedFaceSet {
convex FALSE
solid TRUE
coord Coordinate {
point [
0.038 0.003 0.118,
0.044 0.007 0.118,
0.044 0.007 0,
0.038 0.003 0,
]
}
coordIndex [
0
1
2
3
-1
]
}
}
Shape {
appearance USE COL_FrontColor
geometry IndexedFaceSet {
convex FALSE
solid TRUE
coord Coordinate {
point [
0.032 0.001 0,
0.038 0.003 0,
0.038 0.003 0.118,
0.032 0.001 0.118,
]
}
coordIndex [
0
1
2
3
-1
]
}
}
Shape {
appearance USE COL_BackColor
geometry IndexedFaceSet {
convex FALSE
solid TRUE
coord Coordinate {
point [
0.032 0.001 0.118,
0.038 0.003 0.118,
0.038 0.003 0,
0.032 0.001 0,
]
}
coordIndex [
0
1
2
3
-1
]
}
}
Shape {
appearance USE COL_FrontColor
geometry IndexedFaceSet {
convex FALSE
solid TRUE
coord Coordinate {
point [
0.026 0 0,
0.032 0.001 0,
0.032 0.001 0.118,
0.026 0 0.118,
]
}
coordIndex [
0
1
2
3
-1
]
}
}
Shape {
appearance USE COL_BackColor
geometry IndexedFaceSet {
convex FALSE
solid TRUE
coord Coordinate {
point [
0.026 0 0.118,
0.032 0.001 0.118,
0.032 0.001 0,
0.026 0 0,
]
}
coordIndex [
0
1
2
3
-1
]
}
}
Shape {
appearance USE COL_FrontColor
geometry IndexedFaceSet {
convex FALSE
solid TRUE
coord Coordinate {
point [
0.019 0.001 0,
0.026 0 0,
0.026 0 0.118,
0.019 0.001 0.118,
]
}
coordIndex [
0
1
2
3
-1
]
}
}
Shape {
appearance USE COL_BackColor
geometry IndexedFaceSet {
convex FALSE
solid TRUE
coord Coordinate {
point [
0.019 0.001 0.118,
0.026 0 0.118,
0.026 0 0,
0.019 0.001 0,
]
}
coordIndex [
0
1
2
3
-1
]
}
}
Shape {
appearance USE COL_FrontColor
geometry IndexedFaceSet {
convex FALSE
solid TRUE
coord Coordinate {
point [
0.013 0.003 0,
0.019 0.001 0,
0.019 0.001 0.118,
0.013 0.003 0.118,
]
}
coordIndex [
0
1
2
3
-1
]
}
}
Shape {
appearance USE COL_BackColor
geometry IndexedFaceSet {
convex FALSE
solid TRUE
coord Coordinate {
point [
0.013 0.003 0.118,
0.019 0.001 0.118,
0.019 0.001 0,
0.013 0.003 0,
]
}
coordIndex [
0
1
2
3
-1
]
}
}
Shape {
appearance USE COL_FrontColor
geometry IndexedFaceSet {
convex FALSE
solid TRUE
coord Coordinate {
point [
0.007 0.007 0,
0.013 0.003 0,
0.013 0.003 0.118,
0.007 0.007 0.118,
]
}
coordIndex [
0
1
2
3
-1
]
}
}
Shape {
appearance USE COL_BackColor
geometry IndexedFaceSet {
convex FALSE
solid TRUE
coord Coordinate {
point [
0.007 0.007 0.118,
0.013 0.003 0.118,
0.013 0.003 0,
0.007 0.007 0,
]
}
coordIndex [
0
1
2
3
-1
]
}
}
Shape {
appearance USE COL_FrontColor
geometry IndexedFaceSet {
convex FALSE
solid TRUE
coord Coordinate {
point [
0.003 0.013 0,
0.007 0.007 0,
0.007 0.007 0.118,
0.003 0.013 0.118,
]
}
coordIndex [
0
1
2
3
-1
]
}
}
Shape {
appearance USE COL_BackColor
geometry IndexedFaceSet {
convex FALSE
solid TRUE
coord Coordinate {
point [
0.003 0.013 0.118,
0.007 0.007 0.118,
0.007 0.007 0,
0.003 0.013 0,
]
}
coordIndex [
0
1
2
3
-1
]
}
}
Shape {
appearance USE COL_FrontColor
geometry IndexedFaceSet {
convex FALSE
solid TRUE
coord Coordinate {
point [
0.001 0.019 0,
0.003 0.013 0,
0.003 0.013 0.118,
0.001 0.019 0.118,
]
}
coordIndex [
0
1
2
3
-1
]
}
}
Shape {
appearance USE COL_BackColor
geometry IndexedFaceSet {
convex FALSE
solid TRUE
coord Coordinate {
point [
0.001 0.019 0.118,
0.003 0.013 0.118,
0.003 0.013 0,
0.001 0.019 0,
]
}
coordIndex [
0
1
2
3
-1
]
}
}
Shape {
appearance USE COL_FrontColor
geometry IndexedFaceSet {
convex FALSE
solid TRUE
coord Coordinate {
point [
0 0.026 0,
0.001 0.019 0,
0.001 0.019 0.118,
0 0.026 0.118,
]
}
coordIndex [
0
1
2
3
-1
]
}
}
Shape {
appearance USE COL_BackColor
geometry IndexedFaceSet {
convex FALSE
solid TRUE
coord Coordinate {
point [
0 0.026 0.118,
0.001 0.019 0.118,
0.001 0.019 0,
0 0.026 0,
]
}
coordIndex [
0
1
2
3
-1
]
}
}
Shape {
appearance USE COL_FrontColor
geometry IndexedFaceSet {
convex FALSE
solid TRUE
coord Coordinate {
point [
0.001 0.032 0,
0 0.026 0,
0 0.026 0.118,
0.001 0.032 0.118,
]
}
coordIndex [
0
1
2
3
-1
]
}
}
Shape {
appearance USE COL_BackColor
geometry IndexedFaceSet {
convex FALSE
solid TRUE
coord Coordinate {
point [
0.001 0.032 0.118,
0 0.026 0.118,
0 0.026 0,
0.001 0.032 0,
]
}
coordIndex [
0
1
2
3
-1
]
}
}
Shape {
appearance DEF COL_ForegroundColor Appearance {
material Material { diffuseColor 0 0 0
}
}
geometry IndexedLineSet {
coord Coordinate {
point [ 0.007 0.044 0,
0.013 0.048 0,
]
}
coordIndex [ 0 1 -1]
}
}
Shape {
appearance USE COL_ForegroundColor
geometry IndexedLineSet {
coord Coordinate {
point [ 0.003 0.038 0,
0.007 0.044 0,
]
}
coordIndex [ 0 1 -1]
}
}
Shape {
appearance USE COL_ForegroundColor
geometry IndexedLineSet {
coord Coordinate {
point [ 0.001 0.032 0,
0.003 0.038 0,
]
}
coordIndex [ 0 1 -1]
}
}
Shape {
appearance USE COL_ForegroundColor
geometry IndexedLineSet {
coord Coordinate {
point [ 0 0.026 0,
0.001 0.032 0,
]
}
coordIndex [ 0 1 -1]
}
}
Shape {
appearance USE COL_ForegroundColor
geometry IndexedLineSet {
coord Coordinate {
point [ 0.001 0.019 0,
0 0.026 0,
]
}
coordIndex [ 0 1 -1]
}
}
Shape {
appearance USE COL_ForegroundColor
geometry IndexedLineSet {
coord Coordinate {
point [ 0.003 0.013 0,
0.001 0.019 0,
]
}
coordIndex [ 0 1 -1]
}
}
Shape {
appearance USE COL_ForegroundColor
geometry IndexedLineSet {
coord Coordinate {
point [ 0.007 0.007 0,
0.003 0.013 0,
]
}
coordIndex [ 0 1 -1]
}
}
Shape {
appearance USE COL_ForegroundColor
geometry IndexedLineSet {
coord Coordinate {
point [ 0.013 0.003 0,
0.007 0.007 0,
]
}
coordIndex [ 0 1 -1]
}
}
Shape {
appearance USE COL_ForegroundColor
geometry IndexedLineSet {
coord Coordinate {
point [ 0.019 0.001 0,
0.013 0.003 0,
]
}
coordIndex [ 0 1 -1]
}
}
Shape {
appearance USE COL_ForegroundColor
geometry IndexedLineSet {
coord Coordinate {
point [ 0.026 0 0,
0.019 0.001 0,
]
}
coordIndex [ 0 1 -1]
}
}
Shape {
appearance USE COL_ForegroundColor
geometry IndexedLineSet {
coord Coordinate {
point [ 0.032 0.001 0,
0.026 0 0,
]
}
coordIndex [ 0 1 -1]
}
}
Shape {
appearance USE COL_ForegroundColor
geometry IndexedLineSet {
coord Coordinate {
point [ 0.038 0.003 0,
0.032 0.001 0,
]
}
coordIndex [ 0 1 -1]
}
}
Shape {
appearance USE COL_ForegroundColor
geometry IndexedLineSet {
coord Coordinate {
point [ 0.044 0.007 0,
0.038 0.003 0,
]
}
coordIndex [ 0 1 -1]
}
}
Shape {
appearance USE COL_ForegroundColor
geometry IndexedLineSet {
coord Coordinate {
point [ 0.048 0.013 0,
0.044 0.007 0,
]
}
coordIndex [ 0 1 -1]
}
}
Shape {
appearance USE COL_ForegroundColor
geometry IndexedLineSet {
coord Coordinate {
point [ 0.05 0.019 0,
0.048 0.013 0,
]
}
coordIndex [ 0 1 -1]
}
}
Shape {
appearance USE COL_ForegroundColor
geometry IndexedLineSet {
coord Coordinate {
point [ 0.051 0.026 0,
0.05 0.019 0,
]
}
coordIndex [ 0 1 -1]
}
}
Shape {
appearance USE COL_ForegroundColor
geometry IndexedLineSet {
coord Coordinate {
point [ 0.05 0.032 0,
0.051 0.026 0,
]
}
coordIndex [ 0 1 -1]
}
}
Shape {
appearance USE COL_ForegroundColor
geometry IndexedLineSet {
coord Coordinate {
point [ 0.048 0.038 0,
0.05 0.032 0,
]
}
coordIndex [ 0 1 -1]
}
}
Shape {
appearance USE COL_ForegroundColor
geometry IndexedLineSet {
coord Coordinate {
point [ 0.044 0.044 0,
0.048 0.038 0,
]
}
coordIndex [ 0 1 -1]
}
}
Shape {
appearance USE COL_ForegroundColor
geometry IndexedLineSet {
coord Coordinate {
point [ 0.038 0.048 0,
0.044 0.044 0,
]
}
coordIndex [ 0 1 -1]
}
}
Shape {
appearance USE COL_ForegroundColor
geometry IndexedLineSet {
coord Coordinate {
point [ 0.032 0.05 0,
0.038 0.048 0,
]
}
coordIndex [ 0 1 -1]
}
}
Shape {
appearance USE COL_ForegroundColor
geometry IndexedLineSet {
coord Coordinate {
point [ 0.026 0.051 0,
0.032 0.05 0,
]
}
coordIndex [ 0 1 -1]
}
}
Shape {
appearance USE COL_ForegroundColor
geometry IndexedLineSet {
coord Coordinate {
point [ 0.019 0.05 0,
0.026 0.051 0,
]
}
coordIndex [ 0 1 -1]
}
}
Shape {
appearance USE COL_ForegroundColor
geometry IndexedLineSet {
coord Coordinate {
point [ 0.013 0.048 0,
0.019 0.05 0,
]
}
coordIndex [ 0 1 -1]
}
}
Shape {
appearance USE COL_ForegroundColor
geometry IndexedLineSet {
coord Coordinate {
point [ 0.007 0.044 0.118,
0.013 0.048 0.118,
]
}
coordIndex [ 0 1 -1]
}
}
Shape {
appearance USE COL_ForegroundColor
geometry IndexedLineSet {
coord Coordinate {
point [ 0.003 0.038 0.118,
0.007 0.044 0.118,
]
}
coordIndex [ 0 1 -1]
}
}
Shape {
appearance USE COL_ForegroundColor
geometry IndexedLineSet {
coord Coordinate {
point [ 0.001 0.032 0.118,
0.003 0.038 0.118,
]
}
coordIndex [ 0 1 -1]
}
}
Shape {
appearance USE COL_ForegroundColor
geometry IndexedLineSet {
coord Coordinate {
point [ 0 0.026 0.118,
0.001 0.032 0.118,
]
}
coordIndex [ 0 1 -1]
}
}
Shape {
appearance USE COL_ForegroundColor
geometry IndexedLineSet {
coord Coordinate {
point [ 0.001 0.019 0.118,
0 0.026 0.118,
]
}
coordIndex [ 0 1 -1]
}
}
Shape {
appearance USE COL_ForegroundColor
geometry IndexedLineSet {
coord Coordinate {
point [ 0.003 0.013 0.118,
0.001 0.019 0.118,
]
}
coordIndex [ 0 1 -1]
}
}
Shape {
appearance USE COL_ForegroundColor
geometry IndexedLineSet {
coord Coordinate {
point [ 0.007 0.007 0.118,
0.003 0.013 0.118,
]
}
coordIndex [ 0 1 -1]
}
}
Shape {
appearance USE COL_ForegroundColor
geometry IndexedLineSet {
coord Coordinate {
point [ 0.013 0.003 0.118,
0.007 0.007 0.118,
]
}
coordIndex [ 0 1 -1]
}
}
Shape {
appearance USE COL_ForegroundColor
geometry IndexedLineSet {
coord Coordinate {
point [ 0.019 0.001 0.118,
0.013 0.003 0.118,
]
}
coordIndex [ 0 1 -1]
}
}
Shape {
appearance USE COL_ForegroundColor
geometry IndexedLineSet {
coord Coordinate {
point [ 0.026 0 0.118,
0.019 0.001 0.118,
]
}
coordIndex [ 0 1 -1]
}
}
Shape {
appearance USE COL_ForegroundColor
geometry IndexedLineSet {
coord Coordinate {
point [ 0.032 0.001 0.118,
0.026 0 0.118,
]
}
coordIndex [ 0 1 -1]
}
}
Shape {
appearance USE COL_ForegroundColor
geometry IndexedLineSet {
coord Coordinate {
point [ 0.038 0.003 0.118,
0.032 0.001 0.118,
]
}
coordIndex [ 0 1 -1]
}
}
Shape {
appearance USE COL_ForegroundColor
geometry IndexedLineSet {
coord Coordinate {
point [ 0.044 0.007 0.118,
0.038 0.003 0.118,
]
}
coordIndex [ 0 1 -1]
}
}
Shape {
appearance USE COL_ForegroundColor
geometry IndexedLineSet {
coord Coordinate {
point [ 0.048 0.013 0.118,
0.044 0.007 0.118,
]
}
coordIndex [ 0 1 -1]
}
}
Shape {
appearance USE COL_ForegroundColor
geometry IndexedLineSet {
coord Coordinate {
point [ 0.05 0.019 0.118,
0.048 0.013 0.118,
]
}
coordIndex [ 0 1 -1]
}
}
Shape {
appearance USE COL_ForegroundColor
geometry IndexedLineSet {
coord Coordinate {
point [ 0.051 0.026 0.118,
0.05 0.019 0.118,
]
}
coordIndex [ 0 1 -1]
}
}
Shape {
appearance USE COL_ForegroundColor
geometry IndexedLineSet {
coord Coordinate {
point [ 0.05 0.032 0.118,
0.051 0.026 0.118,
]
}
coordIndex [ 0 1 -1]
}
}
Shape {
appearance USE COL_ForegroundColor
geometry IndexedLineSet {
coord Coordinate {
point [ 0.048 0.038 0.118,
0.05 0.032 0.118,
]
}
coordIndex [ 0 1 -1]
}
}
Shape {
appearance USE COL_ForegroundColor
geometry IndexedLineSet {
coord Coordinate {
point [ 0.044 0.044 0.118,
0.048 0.038 0.118,
]
}
coordIndex [ 0 1 -1]
}
}
Shape {
appearance USE COL_ForegroundColor
geometry IndexedLineSet {
coord Coordinate {
point [ 0.038 0.048 0.118,
0.044 0.044 0.118,
]
}
coordIndex [ 0 1 -1]
}
}
Shape {
appearance USE COL_ForegroundColor
geometry IndexedLineSet {
coord Coordinate {
point [ 0.032 0.05 0.118,
0.038 0.048 0.118,
]
}
coordIndex [ 0 1 -1]
}
}
Shape {
appearance USE COL_ForegroundColor
geometry IndexedLineSet {
coord Coordinate {
point [ 0.026 0.051 0.118,
0.032 0.05 0.118,
]
}
coordIndex [ 0 1 -1]
}
}
Shape {
appearance USE COL_ForegroundColor
geometry IndexedLineSet {
coord Coordinate {
point [ 0.019 0.05 0.118,
0.026 0.051 0.118,
]
}
coordIndex [ 0 1 -1]
}
}
Shape {
appearance USE COL_ForegroundColor
geometry IndexedLineSet {
coord Coordinate {
point [ 0.013 0.048 0.118,
0.019 0.05 0.118,
]
}
coordIndex [ 0 1 -1]
}
}
]
}
]
}
Transform {
translation 0.073 1.016 0.63
scale 1 1 1
children [USE CMP_Component_2
]
}
Transform {
translation 0.376 0.229 0.63
scale 1 1 1
children [USE CMP_Component_2
]
}
Transform {
translation 0.073 0.229 0.63
scale 1 1 1
children [USE CMP_Component_2
]
}
Transform {
translation 0.073 0.426 0.63
scale 1 1 1
children [USE CMP_Component_2
]
}
Group {
children [DEF CMP_Component_1 Group {
children [
Shape {
appearance USE COL_FrontColor
geometry IndexedFaceSet {
solid TRUE
coord Coordinate {
point [
0 0 0,
0 1.142 0,
0.5 1.142 0,
0.5 0 0,
]
}
coordIndex [
0
1
2
3
-1
]
}
}
Shape {
appearance USE COL_BackColor
geometry IndexedFaceSet {
solid TRUE
coord Coordinate {
point [
0.5 0 0,
0.5 1.142 0,
0 1.142 0,
0 0 0,
]
}
coordIndex [
0
1
2
3
-1
]
}
}
Shape {
appearance USE COL_FrontColor
geometry IndexedFaceSet {
solid TRUE
coord Coordinate {
point [
0.5 0 0,
0.5 1.142 0,
0.5 1.142 0.63,
0.5 0 0.63,
]
}
coordIndex [
0
1
2
3
-1
]
}
}
Shape {
appearance USE COL_BackColor
geometry IndexedFaceSet {
solid TRUE
coord Coordinate {
point [
0.5 0 0.63,
0.5 1.142 0.63,
0.5 1.142 0,
0.5 0 0,
]
}
coordIndex [
0
1
2
3
-1
]
}
}
Shape {
appearance USE COL_FrontColor
geometry IndexedFaceSet {
solid TRUE
coord Coordinate {
point [
0 1.142 0.63,
0 0 0.63,
0.5 0 0.63,
0.5 1.142 0.63,
]
}
coordIndex [
0
1
2
3
-1
]
}
}
Shape {
appearance USE COL_BackColor
geometry IndexedFaceSet {
solid TRUE
coord Coordinate {
point [
0.5 1.142 0.63,
0.5 0 0.63,
0 0 0.63,
0 1.142 0.63,
]
}
coordIndex [
0
1
2
3
-1
]
}
}
Shape {
appearance USE COL_FrontColor
geometry IndexedFaceSet {
solid TRUE
coord Coordinate {
point [
0 0 0,
0.5 0 0,
0.5 0 0.63,
0 0 0.63,
]
}
coordIndex [
0
1
2
3
-1
]
}
}
Shape {
appearance USE COL_BackColor
geometry IndexedFaceSet {
solid TRUE
coord Coordinate {
point [
0 0 0.63,
0.5 0 0.63,
0.5 0 0,
0 0 0,
]
}
coordIndex [
0
1
2
3
-1
]
}
}
Shape {
appearance USE COL_FrontColor
geometry IndexedFaceSet {
solid TRUE
coord Coordinate {
point [
0 1.142 0,
0 0 0,
0 0 0.63,
0 1.142 0.63,
]
}
coordIndex [
0
1
2
3
-1
]
}
}
Shape {
appearance USE COL_BackColor
geometry IndexedFaceSet {
solid TRUE
coord Coordinate {
point [
0 1.142 0.63,
0 0 0.63,
0 0 0,
0 1.142 0,
]
}
coordIndex [
0
1
2
3
-1
]
}
}
Shape {
appearance USE COL_FrontColor
geometry IndexedFaceSet {
solid TRUE
coord Coordinate {
point [
0.5 1.142 0,
0 1.142 0,
0 1.142 0.63,
0.5 1.142 0.63,
]
}
coordIndex [
0
1
2
3
-1
]
}
}
Shape {
appearance USE COL_BackColor
geometry IndexedFaceSet {
solid TRUE
coord Coordinate {
point [
0.5 1.142 0.63,
0 1.142 0.63,
0 1.142 0,
0.5 1.142 0,
]
}
coordIndex [
0
1
2
3
-1
]
}
}
Shape {
appearance USE COL_ForegroundColor
geometry IndexedLineSet {
coord Coordinate {
point [ 0 1.142 0,
0 0 0,
]
}
coordIndex [ 0 1 -1]
}
}
Shape {
appearance USE COL_ForegroundColor
geometry IndexedLineSet {
coord Coordinate {
point [ 0.5 1.142 0,
0 1.142 0,
]
}
coordIndex [ 0 1 -1]
}
}
Shape {
appearance USE COL_ForegroundColor
geometry IndexedLineSet {
coord Coordinate {
point [ 0.5 0 0,
0.5 1.142 0,
]
}
coordIndex [ 0 1 -1]
}
}
Shape {
appearance USE COL_ForegroundColor
geometry IndexedLineSet {
coord Coordinate {
point [ 0 0 0,
0.5 0 0,
]
}
coordIndex [ 0 1 -1]
}
}
Shape {
appearance USE COL_ForegroundColor
geometry IndexedLineSet {
coord Coordinate {
point [ 0 0 0,
0 0 0.63,
]
}
coordIndex [ 0 1 -1]
}
}
Shape {
appearance USE COL_ForegroundColor
geometry IndexedLineSet {
coord Coordinate {
point [ 0 0 0.63,
0.5 0 0.63,
]
}
coordIndex [ 0 1 -1]
}
}
Shape {
appearance USE COL_ForegroundColor
geometry IndexedLineSet {
coord Coordinate {
point [ 0 1.142 0.63,
0 0 0.63,
]
}
coordIndex [ 0 1 -1]
}
}
Shape {
appearance USE COL_ForegroundColor
geometry IndexedLineSet {
coord Coordinate {
point [ 0 1.142 0,
0 1.142 0.63,
]
}
coordIndex [ 0 1 -1]
}
}
Shape {
appearance USE COL_ForegroundColor
geometry IndexedLineSet {
coord Coordinate {
point [ 0.5 1.142 0.63,
0 1.142 0.63,
]
}
coordIndex [ 0 1 -1]
}
}
Shape {
appearance USE COL_ForegroundColor
geometry IndexedLineSet {
coord Coordinate {
point [ 0.5 0 0.63,
0.5 1.142 0.63,
]
}
coordIndex [ 0 1 -1]
}
}
Shape {
appearance USE COL_ForegroundColor
geometry IndexedLineSet {
coord Coordinate {
point [ 0.5 0 0,
0.5 0 0.63,
]
}
coordIndex [ 0 1 -1]
}
}
Shape {
appearance USE COL_ForegroundColor
geometry IndexedLineSet {
coord Coordinate {
point [ 0.5 1.142 0,
0.5 1.142 0.63,
]
}
coordIndex [ 0 1 -1]
}
}
]
}
]
}
Transform {
translation 0.376 1.016 0.63
scale 1 1 1
children [USE CMP_Component_2
]
}
Transform {
translation 0.376 0.032 0.63
scale 1 1 1
children [USE CMP_Component_2
]
}
Transform {
translation 0.376 0.426 0.63
scale 1 1 1
children [USE CMP_Component_2
]
}
Transform {
translation 0.073 0.229 0.63
scale 1 1 1
children [USE CMP_Component_2
]
}
Transform {
translation 0.073 0.426 0.63
scale 1 1 1
children [USE CMP_Component_2
]
}
Transform {
translation 0.376 0.426 0.63
scale 1 1 1
children [USE CMP_Component_2
]
}
Group {
children [USE CMP_Component_1
]
}
Transform {
translation 0.376 0.032 0.63
scale 1 1 1
children [USE CMP_Component_2
]
}
Transform {
translation 0.376 0.229 0.63
scale 1 1 1
children [USE CMP_Component_2
]
}
Transform {
translation 0.376 1.016 0.63
scale 1 1 1
children [USE CMP_Component_2
]
}
Transform {
translation 0.073 0.032 0.63
scale 1 1 1
children [USE CMP_Component_2
]
}
Transform {
translation 0.073 1.016 0.63
scale 1 1 1
children [USE CMP_Component_2
]
}
]
}
]
}
Viewpoint {
position -0.787 0.919 2.429
orientation 0.175865 -0.255371 -0.950714 1.982215
fieldOfView 0.61087
description "Camera"
jump FALSE
}
