#VRML V2.0 utf8
Transform {
translation 1.26 -2.362 0
scale 1 1 1
children [DEF CMP_Component_2 Group {
children [
Shape {
appearance DEF COL_Color_M03 Appearance {
material Material { diffuseColor 0.667 0.667 0.667 }
}
geometry IndexedFaceSet {
solid TRUE
coord Coordinate {
point [
0.11 0.089 0,
0.101 0.101 0,
0.101 0.101 1.181,
0.11 0.089 1.181,
]
}
coordIndex [
0
1
2
3
-1
]
}
}
Shape {
appearance DEF COL_BackColor Appearance {
material Material { diffuseColor 0.643 0.698 0.733 }
}
geometry IndexedFaceSet {
solid TRUE
coord Coordinate {
point [
0.11 0.089 1.181,
0.101 0.101 1.181,
0.101 0.101 0,
0.11 0.089 0,
]
}
coordIndex [
0
1
2
3
-1
]
}
}
Shape {
appearance USE COL_Color_M03
geometry IndexedFaceSet {
convex FALSE
solid TRUE
coord Coordinate {
point [
0.101 0.101 1.181,
0.089 0.11 1.181,
0.074 0.116 1.181,
0.059 0.118 1.181,
0.044 0.116 1.181,
0.03 0.11 1.181,
0.017 0.101 1.181,
0.008 0.089 1.181,
0.002 0.074 1.181,
0 0.059 1.181,
0.002 0.044 1.181,
0.008 0.03 1.181,
0.017 0.017 1.181,
0.03 0.008 1.181,
0.044 0.002 1.181,
0.059 0 1.181,
0.074 0.002 1.181,
0.089 0.008 1.181,
0.101 0.017 1.181,
0.11 0.03 1.181,
0.116 0.044 1.181,
0.118 0.059 1.181,
0.116 0.074 1.181,
0.11 0.089 1.181,
]
}
coordIndex [
0
1
2
3
4
5
6
7
8
9
10
11
12
13
14
15
16
17
18
19
20
21
22
23
-1
]
}
}
Shape {
appearance USE COL_Color_M03
geometry IndexedFaceSet {
solid TRUE
coord Coordinate {
point [
0.101 0.101 0,
0.089 0.11 0,
0.089 0.11 1.181,
0.101 0.101 1.181,
]
}
coordIndex [
0
1
2
3
-1
]
}
}
Shape {
appearance USE COL_BackColor
geometry IndexedFaceSet {
solid TRUE
coord Coordinate {
point [
0.101 0.101 1.181,
0.089 0.11 1.181,
0.089 0.11 0,
0.101 0.101 0,
]
}
coordIndex [
0
1
2
3
-1
]
}
}
Shape {
appearance USE COL_BackColor
geometry IndexedFaceSet {
convex FALSE
solid TRUE
coord Coordinate {
point [
0.11 0.089 1.181,
0.116 0.074 1.181,
0.118 0.059 1.181,
0.116 0.044 1.181,
0.11 0.03 1.181,
0.101 0.017 1.181,
0.089 0.008 1.181,
0.074 0.002 1.181,
0.059 0 1.181,
0.044 0.002 1.181,
0.03 0.008 1.181,
0.017 0.017 1.181,
0.008 0.03 1.181,
0.002 0.044 1.181,
0 0.059 1.181,
0.002 0.074 1.181,
0.008 0.089 1.181,
0.017 0.101 1.181,
0.03 0.11 1.181,
0.044 0.116 1.181,
0.059 0.118 1.181,
0.074 0.116 1.181,
0.089 0.11 1.181,
0.101 0.101 1.181,
]
}
coordIndex [
0
1
2
3
4
5
6
7
8
9
10
11
12
13
14
15
16
17
18
19
20
21
22
23
-1
]
}
}
Shape {
appearance USE COL_Color_M03
geometry IndexedFaceSet {
solid TRUE
coord Coordinate {
point [
0.116 0.074 0,
0.11 0.089 0,
0.11 0.089 1.181,
0.116 0.074 1.181,
]
}
coordIndex [
0
1
2
3
-1
]
}
}
Shape {
appearance USE COL_BackColor
geometry IndexedFaceSet {
solid TRUE
coord Coordinate {
point [
0.116 0.074 1.181,
0.11 0.089 1.181,
0.11 0.089 0,
0.116 0.074 0,
]
}
coordIndex [
0
1
2
3
-1
]
}
}
Shape {
appearance USE COL_Color_M03
geometry IndexedFaceSet {
solid TRUE
coord Coordinate {
point [
0.118 0.059 0,
0.116 0.074 0,
0.116 0.074 1.181,
0.118 0.059 1.181,
]
}
coordIndex [
0
1
2
3
-1
]
}
}
Shape {
appearance USE COL_BackColor
geometry IndexedFaceSet {
solid TRUE
coord Coordinate {
point [
0.118 0.059 1.181,
0.116 0.074 1.181,
0.116 0.074 0,
0.118 0.059 0,
]
}
coordIndex [
0
1
2
3
-1
]
}
}
Shape {
appearance USE COL_Color_M03
geometry IndexedFaceSet {
solid TRUE
coord Coordinate {
point [
0.116 0.044 0,
0.118 0.059 0,
0.118 0.059 1.181,
0.116 0.044 1.181,
]
}
coordIndex [
0
1
2
3
-1
]
}
}
Shape {
appearance USE COL_BackColor
geometry IndexedFaceSet {
solid TRUE
coord Coordinate {
point [
0.116 0.044 1.181,
0.118 0.059 1.181,
0.118 0.059 0,
0.116 0.044 0,
]
}
coordIndex [
0
1
2
3
-1
]
}
}
Shape {
appearance USE COL_Color_M03
geometry IndexedFaceSet {
solid TRUE
coord Coordinate {
point [
0.11 0.03 0,
0.116 0.044 0,
0.116 0.044 1.181,
0.11 0.03 1.181,
]
}
coordIndex [
0
1
2
3
-1
]
}
}
Shape {
appearance USE COL_BackColor
geometry IndexedFaceSet {
solid TRUE
coord Coordinate {
point [
0.11 0.03 1.181,
0.116 0.044 1.181,
0.116 0.044 0,
0.11 0.03 0,
]
}
coordIndex [
0
1
2
3
-1
]
}
}
Shape {
appearance USE COL_Color_M03
geometry IndexedFaceSet {
solid TRUE
coord Coordinate {
point [
0.101 0.017 0,
0.11 0.03 0,
0.11 0.03 1.181,
0.101 0.017 1.181,
]
}
coordIndex [
0
1
2
3
-1
]
}
}
Shape {
appearance USE COL_BackColor
geometry IndexedFaceSet {
solid TRUE
coord Coordinate {
point [
0.101 0.017 1.181,
0.11 0.03 1.181,
0.11 0.03 0,
0.101 0.017 0,
]
}
coordIndex [
0
1
2
3
-1
]
}
}
Shape {
appearance USE COL_Color_M03
geometry IndexedFaceSet {
solid TRUE
coord Coordinate {
point [
0.089 0.008 0,
0.101 0.017 0,
0.101 0.017 1.181,
0.089 0.008 1.181,
]
}
coordIndex [
0
1
2
3
-1
]
}
}
Shape {
appearance USE COL_BackColor
geometry IndexedFaceSet {
solid TRUE
coord Coordinate {
point [
0.089 0.008 1.181,
0.101 0.017 1.181,
0.101 0.017 0,
0.089 0.008 0,
]
}
coordIndex [
0
1
2
3
-1
]
}
}
Shape {
appearance USE COL_Color_M03
geometry IndexedFaceSet {
solid TRUE
coord Coordinate {
point [
0.074 0.002 0,
0.089 0.008 0,
0.089 0.008 1.181,
0.074 0.002 1.181,
]
}
coordIndex [
0
1
2
3
-1
]
}
}
Shape {
appearance USE COL_BackColor
geometry IndexedFaceSet {
solid TRUE
coord Coordinate {
point [
0.074 0.002 1.181,
0.089 0.008 1.181,
0.089 0.008 0,
0.074 0.002 0,
]
}
coordIndex [
0
1
2
3
-1
]
}
}
Shape {
appearance USE COL_Color_M03
geometry IndexedFaceSet {
solid TRUE
coord Coordinate {
point [
0.059 0 0,
0.074 0.002 0,
0.074 0.002 1.181,
0.059 0 1.181,
]
}
coordIndex [
0
1
2
3
-1
]
}
}
Shape {
appearance USE COL_BackColor
geometry IndexedFaceSet {
solid TRUE
coord Coordinate {
point [
0.059 0 1.181,
0.074 0.002 1.181,
0.074 0.002 0,
0.059 0 0,
]
}
coordIndex [
0
1
2
3
-1
]
}
}
Shape {
appearance USE COL_Color_M03
geometry IndexedFaceSet {
solid TRUE
coord Coordinate {
point [
0.044 0.002 0,
0.059 0 0,
0.059 0 1.181,
0.044 0.002 1.181,
]
}
coordIndex [
0
1
2
3
-1
]
}
}
Shape {
appearance USE COL_BackColor
geometry IndexedFaceSet {
solid TRUE
coord Coordinate {
point [
0.044 0.002 1.181,
0.059 0 1.181,
0.059 0 0,
0.044 0.002 0,
]
}
coordIndex [
0
1
2
3
-1
]
}
}
Shape {
appearance USE COL_Color_M03
geometry IndexedFaceSet {
solid TRUE
coord Coordinate {
point [
0.03 0.008 0,
0.044 0.002 0,
0.044 0.002 1.181,
0.03 0.008 1.181,
]
}
coordIndex [
0
1
2
3
-1
]
}
}
Shape {
appearance USE COL_BackColor
geometry IndexedFaceSet {
solid TRUE
coord Coordinate {
point [
0.03 0.008 1.181,
0.044 0.002 1.181,
0.044 0.002 0,
0.03 0.008 0,
]
}
coordIndex [
0
1
2
3
-1
]
}
}
Shape {
appearance USE COL_Color_M03
geometry IndexedFaceSet {
solid TRUE
coord Coordinate {
point [
0.017 0.017 0,
0.03 0.008 0,
0.03 0.008 1.181,
0.017 0.017 1.181,
]
}
coordIndex [
0
1
2
3
-1
]
}
}
Shape {
appearance USE COL_BackColor
geometry IndexedFaceSet {
solid TRUE
coord Coordinate {
point [
0.017 0.017 1.181,
0.03 0.008 1.181,
0.03 0.008 0,
0.017 0.017 0,
]
}
coordIndex [
0
1
2
3
-1
]
}
}
Shape {
appearance USE COL_Color_M03
geometry IndexedFaceSet {
solid TRUE
coord Coordinate {
point [
0.008 0.03 0,
0.017 0.017 0,
0.017 0.017 1.181,
0.008 0.03 1.181,
]
}
coordIndex [
0
1
2
3
-1
]
}
}
Shape {
appearance USE COL_BackColor
geometry IndexedFaceSet {
solid TRUE
coord Coordinate {
point [
0.008 0.03 1.181,
0.017 0.017 1.181,
0.017 0.017 0,
0.008 0.03 0,
]
}
coordIndex [
0
1
2
3
-1
]
}
}
Shape {
appearance USE COL_Color_M03
geometry IndexedFaceSet {
solid TRUE
coord Coordinate {
point [
0.002 0.044 0,
0.008 0.03 0,
0.008 0.03 1.181,
0.002 0.044 1.181,
]
}
coordIndex [
0
1
2
3
-1
]
}
}
Shape {
appearance USE COL_BackColor
geometry IndexedFaceSet {
solid TRUE
coord Coordinate {
point [
0.002 0.044 1.181,
0.008 0.03 1.181,
0.008 0.03 0,
0.002 0.044 0,
]
}
coordIndex [
0
1
2
3
-1
]
}
}
Shape {
appearance USE COL_Color_M03
geometry IndexedFaceSet {
solid TRUE
coord Coordinate {
point [
0 0.059 0,
0.002 0.044 0,
0.002 0.044 1.181,
0 0.059 1.181,
]
}
coordIndex [
0
1
2
3
-1
]
}
}
Shape {
appearance USE COL_BackColor
geometry IndexedFaceSet {
solid TRUE
coord Coordinate {
point [
0 0.059 1.181,
0.002 0.044 1.181,
0.002 0.044 0,
0 0.059 0,
]
}
coordIndex [
0
1
2
3
-1
]
}
}
Shape {
appearance USE COL_Color_M03
geometry IndexedFaceSet {
solid TRUE
coord Coordinate {
point [
0.002 0.074 0,
0 0.059 0,
0 0.059 1.181,
0.002 0.074 1.181,
]
}
coordIndex [
0
1
2
3
-1
]
}
}
Shape {
appearance USE COL_BackColor
geometry IndexedFaceSet {
solid TRUE
coord Coordinate {
point [
0.002 0.074 1.181,
0 0.059 1.181,
0 0.059 0,
0.002 0.074 0,
]
}
coordIndex [
0
1
2
3
-1
]
}
}
Shape {
appearance USE COL_Color_M03
geometry IndexedFaceSet {
solid TRUE
coord Coordinate {
point [
0.008 0.089 0,
0.002 0.074 0,
0.002 0.074 1.181,
0.008 0.089 1.181,
]
}
coordIndex [
0
1
2
3
-1
]
}
}
Shape {
appearance USE COL_BackColor
geometry IndexedFaceSet {
solid TRUE
coord Coordinate {
point [
0.008 0.089 1.181,
0.002 0.074 1.181,
0.002 0.074 0,
0.008 0.089 0,
]
}
coordIndex [
0
1
2
3
-1
]
}
}
Shape {
appearance USE COL_Color_M03
geometry IndexedFaceSet {
solid TRUE
coord Coordinate {
point [
0.017 0.101 0,
0.008 0.089 0,
0.008 0.089 1.181,
0.017 0.101 1.181,
]
}
coordIndex [
0
1
2
3
-1
]
}
}
Shape {
appearance USE COL_BackColor
geometry IndexedFaceSet {
solid TRUE
coord Coordinate {
point [
0.017 0.101 1.181,
0.008 0.089 1.181,
0.008 0.089 0,
0.017 0.101 0,
]
}
coordIndex [
0
1
2
3
-1
]
}
}
Shape {
appearance USE COL_Color_M03
geometry IndexedFaceSet {
solid TRUE
coord Coordinate {
point [
0.03 0.11 0,
0.017 0.101 0,
0.017 0.101 1.181,
0.03 0.11 1.181,
]
}
coordIndex [
0
1
2
3
-1
]
}
}
Shape {
appearance USE COL_BackColor
geometry IndexedFaceSet {
solid TRUE
coord Coordinate {
point [
0.03 0.11 1.181,
0.017 0.101 1.181,
0.017 0.101 0,
0.03 0.11 0,
]
}
coordIndex [
0
1
2
3
-1
]
}
}
Shape {
appearance USE COL_Color_M03
geometry IndexedFaceSet {
solid TRUE
coord Coordinate {
point [
0.044 0.116 0,
0.03 0.11 0,
0.03 0.11 1.181,
0.044 0.116 1.181,
]
}
coordIndex [
0
1
2
3
-1
]
}
}
Shape {
appearance USE COL_BackColor
geometry IndexedFaceSet {
solid TRUE
coord Coordinate {
point [
0.044 0.116 1.181,
0.03 0.11 1.181,
0.03 0.11 0,
0.044 0.116 0,
]
}
coordIndex [
0
1
2
3
-1
]
}
}
Shape {
appearance USE COL_Color_M03
geometry IndexedFaceSet {
solid TRUE
coord Coordinate {
point [
0.059 0.118 0,
0.044 0.116 0,
0.044 0.116 1.181,
0.059 0.118 1.181,
]
}
coordIndex [
0
1
2
3
-1
]
}
}
Shape {
appearance USE COL_BackColor
geometry IndexedFaceSet {
solid TRUE
coord Coordinate {
point [
0.059 0.118 1.181,
0.044 0.116 1.181,
0.044 0.116 0,
0.059 0.118 0,
]
}
coordIndex [
0
1
2
3
-1
]
}
}
Shape {
appearance USE COL_Color_M03
geometry IndexedFaceSet {
solid TRUE
coord Coordinate {
point [
0.074 0.116 0,
0.059 0.118 0,
0.059 0.118 1.181,
0.074 0.116 1.181,
]
}
coordIndex [
0
1
2
3
-1
]
}
}
Shape {
appearance USE COL_BackColor
geometry IndexedFaceSet {
solid TRUE
coord Coordinate {
point [
0.074 0.116 1.181,
0.059 0.118 1.181,
0.059 0.118 0,
0.074 0.116 0,
]
}
coordIndex [
0
1
2
3
-1
]
}
}
Shape {
appearance USE COL_Color_M03
geometry IndexedFaceSet {
solid TRUE
coord Coordinate {
point [
0.089 0.11 0,
0.074 0.116 0,
0.074 0.116 1.181,
0.089 0.11 1.181,
]
}
coordIndex [
0
1
2
3
-1
]
}
}
Shape {
appearance USE COL_BackColor
geometry IndexedFaceSet {
solid TRUE
coord Coordinate {
point [
0.089 0.11 1.181,
0.074 0.116 1.181,
0.074 0.116 0,
0.089 0.11 0,
]
}
coordIndex [
0
1
2
3
-1
]
}
}
Shape {
appearance DEF COL_ForegroundColor Appearance {
material Material { diffuseColor 0 0 0
}
}
geometry IndexedLineSet {
coord Coordinate {
point [ 0.101 0.101 0,
0.11 0.089 0,
]
}
coordIndex [ 0 1 -1]
}
}
Shape {
appearance USE COL_ForegroundColor
geometry IndexedLineSet {
coord Coordinate {
point [ 0.089 0.11 0,
0.101 0.101 0,
]
}
coordIndex [ 0 1 -1]
}
}
Shape {
appearance USE COL_ForegroundColor
geometry IndexedLineSet {
coord Coordinate {
point [ 0.074 0.116 0,
0.089 0.11 0,
]
}
coordIndex [ 0 1 -1]
}
}
Shape {
appearance USE COL_ForegroundColor
geometry IndexedLineSet {
coord Coordinate {
point [ 0.059 0.118 0,
0.074 0.116 0,
]
}
coordIndex [ 0 1 -1]
}
}
Shape {
appearance USE COL_ForegroundColor
geometry IndexedLineSet {
coord Coordinate {
point [ 0.044 0.116 0,
0.059 0.118 0,
]
}
coordIndex [ 0 1 -1]
}
}
Shape {
appearance USE COL_ForegroundColor
geometry IndexedLineSet {
coord Coordinate {
point [ 0.03 0.11 0,
0.044 0.116 0,
]
}
coordIndex [ 0 1 -1]
}
}
Shape {
appearance USE COL_ForegroundColor
geometry IndexedLineSet {
coord Coordinate {
point [ 0.017 0.101 0,
0.03 0.11 0,
]
}
coordIndex [ 0 1 -1]
}
}
Shape {
appearance USE COL_ForegroundColor
geometry IndexedLineSet {
coord Coordinate {
point [ 0.008 0.089 0,
0.017 0.101 0,
]
}
coordIndex [ 0 1 -1]
}
}
Shape {
appearance USE COL_ForegroundColor
geometry IndexedLineSet {
coord Coordinate {
point [ 0.002 0.074 0,
0.008 0.089 0,
]
}
coordIndex [ 0 1 -1]
}
}
Shape {
appearance USE COL_ForegroundColor
geometry IndexedLineSet {
coord Coordinate {
point [ 0 0.059 0,
0.002 0.074 0,
]
}
coordIndex [ 0 1 -1]
}
}
Shape {
appearance USE COL_ForegroundColor
geometry IndexedLineSet {
coord Coordinate {
point [ 0.002 0.044 0,
0 0.059 0,
]
}
coordIndex [ 0 1 -1]
}
}
Shape {
appearance USE COL_ForegroundColor
geometry IndexedLineSet {
coord Coordinate {
point [ 0.008 0.03 0,
0.002 0.044 0,
]
}
coordIndex [ 0 1 -1]
}
}
Shape {
appearance USE COL_ForegroundColor
geometry IndexedLineSet {
coord Coordinate {
point [ 0.017 0.017 0,
0.008 0.03 0,
]
}
coordIndex [ 0 1 -1]
}
}
Shape {
appearance USE COL_ForegroundColor
geometry IndexedLineSet {
coord Coordinate {
point [ 0.03 0.008 0,
0.017 0.017 0,
]
}
coordIndex [ 0 1 -1]
}
}
Shape {
appearance USE COL_ForegroundColor
geometry IndexedLineSet {
coord Coordinate {
point [ 0.044 0.002 0,
0.03 0.008 0,
]
}
coordIndex [ 0 1 -1]
}
}
Shape {
appearance USE COL_ForegroundColor
geometry IndexedLineSet {
coord Coordinate {
point [ 0.059 0 0,
0.044 0.002 0,
]
}
coordIndex [ 0 1 -1]
}
}
Shape {
appearance USE COL_ForegroundColor
geometry IndexedLineSet {
coord Coordinate {
point [ 0.074 0.002 0,
0.059 0 0,
]
}
coordIndex [ 0 1 -1]
}
}
Shape {
appearance USE COL_ForegroundColor
geometry IndexedLineSet {
coord Coordinate {
point [ 0.089 0.008 0,
0.074 0.002 0,
]
}
coordIndex [ 0 1 -1]
}
}
Shape {
appearance USE COL_ForegroundColor
geometry IndexedLineSet {
coord Coordinate {
point [ 0.101 0.017 0,
0.089 0.008 0,
]
}
coordIndex [ 0 1 -1]
}
}
Shape {
appearance USE COL_ForegroundColor
geometry IndexedLineSet {
coord Coordinate {
point [ 0.11 0.03 0,
0.101 0.017 0,
]
}
coordIndex [ 0 1 -1]
}
}
Shape {
appearance USE COL_ForegroundColor
geometry IndexedLineSet {
coord Coordinate {
point [ 0.116 0.044 0,
0.11 0.03 0,
]
}
coordIndex [ 0 1 -1]
}
}
Shape {
appearance USE COL_ForegroundColor
geometry IndexedLineSet {
coord Coordinate {
point [ 0.118 0.059 0,
0.116 0.044 0,
]
}
coordIndex [ 0 1 -1]
}
}
Shape {
appearance USE COL_ForegroundColor
geometry IndexedLineSet {
coord Coordinate {
point [ 0.116 0.074 0,
0.118 0.059 0,
]
}
coordIndex [ 0 1 -1]
}
}
Shape {
appearance USE COL_ForegroundColor
geometry IndexedLineSet {
coord Coordinate {
point [ 0.11 0.089 0,
0.116 0.074 0,
]
}
coordIndex [ 0 1 -1]
}
}
Shape {
appearance USE COL_ForegroundColor
geometry IndexedLineSet {
coord Coordinate {
point [ 0.101 0.101 1.181,
0.11 0.089 1.181,
]
}
coordIndex [ 0 1 -1]
}
}
Shape {
appearance USE COL_ForegroundColor
geometry IndexedLineSet {
coord Coordinate {
point [ 0.089 0.11 1.181,
0.101 0.101 1.181,
]
}
coordIndex [ 0 1 -1]
}
}
Shape {
appearance USE COL_ForegroundColor
geometry IndexedLineSet {
coord Coordinate {
point [ 0.074 0.116 1.181,
0.089 0.11 1.181,
]
}
coordIndex [ 0 1 -1]
}
}
Shape {
appearance USE COL_ForegroundColor
geometry IndexedLineSet {
coord Coordinate {
point [ 0.059 0.118 1.181,
0.074 0.116 1.181,
]
}
coordIndex [ 0 1 -1]
}
}
Shape {
appearance USE COL_ForegroundColor
geometry IndexedLineSet {
coord Coordinate {
point [ 0.044 0.116 1.181,
0.059 0.118 1.181,
]
}
coordIndex [ 0 1 -1]
}
}
Shape {
appearance USE COL_ForegroundColor
geometry IndexedLineSet {
coord Coordinate {
point [ 0.03 0.11 1.181,
0.044 0.116 1.181,
]
}
coordIndex [ 0 1 -1]
}
}
Shape {
appearance USE COL_ForegroundColor
geometry IndexedLineSet {
coord Coordinate {
point [ 0.017 0.101 1.181,
0.03 0.11 1.181,
]
}
coordIndex [ 0 1 -1]
}
}
Shape {
appearance USE COL_ForegroundColor
geometry IndexedLineSet {
coord Coordinate {
point [ 0.008 0.089 1.181,
0.017 0.101 1.181,
]
}
coordIndex [ 0 1 -1]
}
}
Shape {
appearance USE COL_ForegroundColor
geometry IndexedLineSet {
coord Coordinate {
point [ 0.002 0.074 1.181,
0.008 0.089 1.181,
]
}
coordIndex [ 0 1 -1]
}
}
Shape {
appearance USE COL_ForegroundColor
geometry IndexedLineSet {
coord Coordinate {
point [ 0 0.059 1.181,
0.002 0.074 1.181,
]
}
coordIndex [ 0 1 -1]
}
}
Shape {
appearance USE COL_ForegroundColor
geometry IndexedLineSet {
coord Coordinate {
point [ 0.002 0.044 1.181,
0 0.059 1.181,
]
}
coordIndex [ 0 1 -1]
}
}
Shape {
appearance USE COL_ForegroundColor
geometry IndexedLineSet {
coord Coordinate {
point [ 0.008 0.03 1.181,
0.002 0.044 1.181,
]
}
coordIndex [ 0 1 -1]
}
}
Shape {
appearance USE COL_ForegroundColor
geometry IndexedLineSet {
coord Coordinate {
point [ 0.017 0.017 1.181,
0.008 0.03 1.181,
]
}
coordIndex [ 0 1 -1]
}
}
Shape {
appearance USE COL_ForegroundColor
geometry IndexedLineSet {
coord Coordinate {
point [ 0.03 0.008 1.181,
0.017 0.017 1.181,
]
}
coordIndex [ 0 1 -1]
}
}
Shape {
appearance USE COL_ForegroundColor
geometry IndexedLineSet {
coord Coordinate {
point [ 0.044 0.002 1.181,
0.03 0.008 1.181,
]
}
coordIndex [ 0 1 -1]
}
}
Shape {
appearance USE COL_ForegroundColor
geometry IndexedLineSet {
coord Coordinate {
point [ 0.059 0 1.181,
0.044 0.002 1.181,
]
}
coordIndex [ 0 1 -1]
}
}
Shape {
appearance USE COL_ForegroundColor
geometry IndexedLineSet {
coord Coordinate {
point [ 0.074 0.002 1.181,
0.059 0 1.181,
]
}
coordIndex [ 0 1 -1]
}
}
Shape {
appearance USE COL_ForegroundColor
geometry IndexedLineSet {
coord Coordinate {
point [ 0.089 0.008 1.181,
0.074 0.002 1.181,
]
}
coordIndex [ 0 1 -1]
}
}
Shape {
appearance USE COL_ForegroundColor
geometry IndexedLineSet {
coord Coordinate {
point [ 0.101 0.017 1.181,
0.089 0.008 1.181,
]
}
coordIndex [ 0 1 -1]
}
}
Shape {
appearance USE COL_ForegroundColor
geometry IndexedLineSet {
coord Coordinate {
point [ 0.11 0.03 1.181,
0.101 0.017 1.181,
]
}
coordIndex [ 0 1 -1]
}
}
Shape {
appearance USE COL_ForegroundColor
geometry IndexedLineSet {
coord Coordinate {
point [ 0.116 0.044 1.181,
0.11 0.03 1.181,
]
}
coordIndex [ 0 1 -1]
}
}
Shape {
appearance USE COL_ForegroundColor
geometry IndexedLineSet {
coord Coordinate {
point [ 0.118 0.059 1.181,
0.116 0.044 1.181,
]
}
coordIndex [ 0 1 -1]
}
}
Shape {
appearance USE COL_ForegroundColor
geometry IndexedLineSet {
coord Coordinate {
point [ 0.116 0.074 1.181,
0.118 0.059 1.181,
]
}
coordIndex [ 0 1 -1]
}
}
Shape {
appearance USE COL_ForegroundColor
geometry IndexedLineSet {
coord Coordinate {
point [ 0.11 0.089 1.181,
0.116 0.074 1.181,
]
}
coordIndex [ 0 1 -1]
}
}
]
}
]
}
Transform {
translation 1.26 -0.394 -0
scale 1 1 1
children [USE CMP_Component_2
]
}
Transform {
translation 2.244 -1.378 -0
scale 1 1 1
children [USE CMP_Component_2
]
}
Shape {
appearance DEF COL_Color_I04 Appearance {
material Material { diffuseColor 0.196 0.196 1 }
}
geometry IndexedFaceSet {
solid TRUE
coord Coordinate {
point [
0 -2.638 0,
1.268 -2.333 0,
0 0 0,
]
}
coordIndex [
0
1
2
-1
]
}
}
Shape {
appearance USE COL_Color_I04
geometry IndexedFaceSet {
solid TRUE
coord Coordinate {
point [
1.268 -2.333 0,
0 -2.638 0,
1.277 -2.345 0,
]
}
coordIndex [
0
1
2
-1
]
}
}
Shape {
appearance USE COL_BackColor
geometry IndexedFaceSet {
solid TRUE
coord Coordinate {
point [
0 0 0,
1.268 -2.333 0,
0 -2.638 0,
]
}
coordIndex [
0
1
2
-1
]
}
}
Shape {
appearance USE COL_Color_I04
geometry IndexedFaceSet {
solid TRUE
coord Coordinate {
point [
0 0 0,
1.268 -2.333 0,
1.262 -2.318 0,
]
}
coordIndex [
0
1
2
-1
]
}
}
Shape {
appearance USE COL_BackColor
geometry IndexedFaceSet {
solid TRUE
coord Coordinate {
point [
1.262 -2.318 0,
1.268 -2.333 0,
0 0 0,
]
}
coordIndex [
0
1
2
-1
]
}
}
Shape {
appearance USE COL_Color_I04
geometry IndexedFaceSet {
solid TRUE
coord Coordinate {
point [
0 0 0,
1.262 -2.318 0,
1.26 -2.303 0,
]
}
coordIndex [
0
1
2
-1
]
}
}
Shape {
appearance USE COL_BackColor
geometry IndexedFaceSet {
solid TRUE
coord Coordinate {
point [
1.26 -2.303 0,
1.262 -2.318 0,
0 0 0,
]
}
coordIndex [
0
1
2
-1
]
}
}
Shape {
appearance USE COL_Color_I04
geometry IndexedFaceSet {
solid TRUE
coord Coordinate {
point [
1.26 -0.335 0,
0 0 0,
1.26 -2.303 0,
]
}
coordIndex [
0
1
2
-1
]
}
}
Shape {
appearance USE COL_Color_I04
geometry IndexedFaceSet {
solid TRUE
coord Coordinate {
point [
1.262 -0.319 0,
0 0 0,
1.26 -0.335 0,
]
}
coordIndex [
0
1
2
-1
]
}
}
Shape {
appearance USE COL_Color_I04
geometry IndexedFaceSet {
solid TRUE
coord Coordinate {
point [
1.268 -0.305 0,
0 0 0,
1.262 -0.319 0,
]
}
coordIndex [
0
1
2
-1
]
}
}
Shape {
appearance USE COL_Color_I04
geometry IndexedFaceSet {
solid TRUE
coord Coordinate {
point [
1.277 -0.293 0,
0 0 0,
1.268 -0.305 0,
]
}
coordIndex [
0
1
2
-1
]
}
}
Shape {
appearance USE COL_Color_I04
geometry IndexedFaceSet {
solid TRUE
coord Coordinate {
point [
1.289 -0.284 0,
0 0 0,
1.277 -0.293 0,
]
}
coordIndex [
0
1
2
-1
]
}
}
Shape {
appearance USE COL_Color_I04
geometry IndexedFaceSet {
solid TRUE
coord Coordinate {
point [
1.304 -0.278 0,
0 0 0,
1.289 -0.284 0,
]
}
coordIndex [
0
1
2
-1
]
}
}
Shape {
appearance USE COL_Color_I04
geometry IndexedFaceSet {
solid TRUE
coord Coordinate {
point [
0 0 0,
1.304 -0.278 0,
2.638 0 0,
]
}
coordIndex [
0
1
2
-1
]
}
}
Shape {
appearance USE COL_BackColor
geometry IndexedFaceSet {
solid TRUE
coord Coordinate {
point [
2.638 0 0,
1.304 -0.278 0,
0 0 0,
]
}
coordIndex [
0
1
2
-1
]
}
}
Shape {
appearance USE COL_Color_I04
geometry IndexedFaceSet {
solid TRUE
coord Coordinate {
point [
2.638 0 0,
1.304 -0.278 0,
1.319 -0.276 0,
]
}
coordIndex [
0
1
2
-1
]
}
}
Shape {
appearance USE COL_BackColor
geometry IndexedFaceSet {
solid TRUE
coord Coordinate {
point [
1.319 -0.276 0,
1.304 -0.278 0,
2.638 0 0,
]
}
coordIndex [
0
1
2
-1
]
}
}
Shape {
appearance USE COL_Color_I04
geometry IndexedFaceSet {
solid TRUE
coord Coordinate {
point [
2.638 0 0,
1.319 -0.276 0,
1.334 -0.278 0,
]
}
coordIndex [
0
1
2
-1
]
}
}
Shape {
appearance USE COL_BackColor
geometry IndexedFaceSet {
solid TRUE
coord Coordinate {
point [
1.334 -0.278 0,
1.319 -0.276 0,
2.638 0 0,
]
}
coordIndex [
0
1
2
-1
]
}
}
Shape {
appearance USE COL_Color_I04
geometry IndexedFaceSet {
solid TRUE
coord Coordinate {
point [
2.638 0 0,
1.334 -0.278 0,
1.348 -0.284 0,
]
}
coordIndex [
0
1
2
-1
]
}
}
Shape {
appearance USE COL_BackColor
geometry IndexedFaceSet {
solid TRUE
coord Coordinate {
point [
1.348 -0.284 0,
1.334 -0.278 0,
2.638 0 0,
]
}
coordIndex [
0
1
2
-1
]
}
}
Shape {
appearance USE COL_Color_I04
geometry IndexedFaceSet {
solid TRUE
coord Coordinate {
point [
2.638 0 0,
1.348 -0.284 0,
1.361 -0.293 0,
]
}
coordIndex [
0
1
2
-1
]
}
}
Shape {
appearance USE COL_BackColor
geometry IndexedFaceSet {
solid TRUE
coord Coordinate {
point [
1.361 -0.293 0,
1.348 -0.284 0,
2.638 0 0,
]
}
coordIndex [
0
1
2
-1
]
}
}
Shape {
appearance USE COL_Color_I04
geometry IndexedFaceSet {
solid TRUE
coord Coordinate {
point [
2.638 0 0,
1.361 -0.293 0,
1.37 -0.305 0,
]
}
coordIndex [
0
1
2
-1
]
}
}
Shape {
appearance USE COL_BackColor
geometry IndexedFaceSet {
solid TRUE
coord Coordinate {
point [
1.37 -0.305 0,
1.361 -0.293 0,
2.638 0 0,
]
}
coordIndex [
0
1
2
-1
]
}
}
Shape {
appearance USE COL_Color_I04
geometry IndexedFaceSet {
solid TRUE
coord Coordinate {
point [
2.638 0 0,
1.37 -0.305 0,
1.376 -0.319 0,
]
}
coordIndex [
0
1
2
-1
]
}
}
Shape {
appearance USE COL_BackColor
geometry IndexedFaceSet {
solid TRUE
coord Coordinate {
point [
1.376 -0.319 0,
1.37 -0.305 0,
2.638 0 0,
]
}
coordIndex [
0
1
2
-1
]
}
}
Shape {
appearance USE COL_Color_I04
geometry IndexedFaceSet {
solid TRUE
coord Coordinate {
point [
2.638 0 0,
1.376 -0.319 0,
1.378 -0.335 0,
]
}
coordIndex [
0
1
2
-1
]
}
}
Shape {
appearance USE COL_BackColor
geometry IndexedFaceSet {
solid TRUE
coord Coordinate {
point [
1.378 -0.335 0,
1.376 -0.319 0,
2.638 0 0,
]
}
coordIndex [
0
1
2
-1
]
}
}
Shape {
appearance USE COL_Color_I04
geometry IndexedFaceSet {
solid TRUE
coord Coordinate {
point [
2.638 0 0,
1.378 -0.335 0,
2.246 -1.304 0,
]
}
coordIndex [
0
1
2
-1
]
}
}
Shape {
appearance USE COL_BackColor
geometry IndexedFaceSet {
solid TRUE
coord Coordinate {
point [
2.246 -1.304 0,
1.378 -0.335 0,
2.638 0 0,
]
}
coordIndex [
0
1
2
-1
]
}
}
Shape {
appearance USE COL_Color_I04
geometry IndexedFaceSet {
solid TRUE
coord Coordinate {
point [
2.246 -1.304 0,
1.378 -0.335 0,
2.244 -1.319 0,
]
}
coordIndex [
0
1
2
-1
]
}
}
Shape {
appearance USE COL_BackColor
geometry IndexedFaceSet {
solid TRUE
coord Coordinate {
point [
2.244 -1.319 0,
1.378 -0.335 0,
2.246 -1.304 0,
]
}
coordIndex [
0
1
2
-1
]
}
}
Shape {
appearance USE COL_Color_I04
geometry IndexedFaceSet {
solid TRUE
coord Coordinate {
point [
1.378 -0.335 0,
2.246 -1.334 0,
2.244 -1.319 0,
]
}
coordIndex [
0
1
2
-1
]
}
}
Shape {
appearance USE COL_Color_I04
geometry IndexedFaceSet {
solid TRUE
coord Coordinate {
point [
1.378 -0.335 0,
2.638 -2.638 0,
2.246 -1.334 0,
]
}
coordIndex [
0
1
2
-1
]
}
}
Shape {
appearance USE COL_Color_I04
geometry IndexedFaceSet {
solid TRUE
coord Coordinate {
point [
1.378 -2.303 0,
2.638 -2.638 0,
1.378 -0.335 0,
]
}
coordIndex [
0
1
2
-1
]
}
}
Shape {
appearance USE COL_Color_I04
geometry IndexedFaceSet {
solid TRUE
coord Coordinate {
point [
1.376 -2.318 0,
2.638 -2.638 0,
1.378 -2.303 0,
]
}
coordIndex [
0
1
2
-1
]
}
}
Shape {
appearance USE COL_Color_I04
geometry IndexedFaceSet {
solid TRUE
coord Coordinate {
point [
1.37 -2.333 0,
2.638 -2.638 0,
1.376 -2.318 0,
]
}
coordIndex [
0
1
2
-1
]
}
}
Shape {
appearance USE COL_Color_I04
geometry IndexedFaceSet {
solid TRUE
coord Coordinate {
point [
1.361 -2.345 0,
2.638 -2.638 0,
1.37 -2.333 0,
]
}
coordIndex [
0
1
2
-1
]
}
}
Shape {
appearance USE COL_Color_I04
geometry IndexedFaceSet {
solid TRUE
coord Coordinate {
point [
1.348 -2.354 0,
2.638 -2.638 0,
1.361 -2.345 0,
]
}
coordIndex [
0
1
2
-1
]
}
}
Shape {
appearance USE COL_Color_I04
geometry IndexedFaceSet {
solid TRUE
coord Coordinate {
point [
1.334 -2.36 0,
2.638 -2.638 0,
1.348 -2.354 0,
]
}
coordIndex [
0
1
2
-1
]
}
}
Shape {
appearance USE COL_Color_I04
geometry IndexedFaceSet {
solid TRUE
coord Coordinate {
point [
1.319 -2.362 0,
2.638 -2.638 0,
1.334 -2.36 0,
]
}
coordIndex [
0
1
2
-1
]
}
}
Shape {
appearance USE COL_Color_I04
geometry IndexedFaceSet {
solid TRUE
coord Coordinate {
point [
1.304 -2.36 0,
2.638 -2.638 0,
1.319 -2.362 0,
]
}
coordIndex [
0
1
2
-1
]
}
}
Shape {
appearance USE COL_Color_I04
geometry IndexedFaceSet {
solid TRUE
coord Coordinate {
point [
1.304 -2.36 0,
0 -2.638 0,
2.638 -2.638 0,
]
}
coordIndex [
0
1
2
-1
]
}
}
Shape {
appearance USE COL_Color_I04
geometry IndexedFaceSet {
solid TRUE
coord Coordinate {
point [
1.289 -2.354 0,
0 -2.638 0,
1.304 -2.36 0,
]
}
coordIndex [
0
1
2
-1
]
}
}
Shape {
appearance USE COL_Color_I04
geometry IndexedFaceSet {
solid TRUE
coord Coordinate {
point [
1.277 -2.345 0,
0 -2.638 0,
1.289 -2.354 0,
]
}
coordIndex [
0
1
2
-1
]
}
}
Shape {
appearance USE COL_BackColor
geometry IndexedFaceSet {
solid TRUE
coord Coordinate {
point [
1.277 -2.345 0,
0 -2.638 0,
1.268 -2.333 0,
]
}
coordIndex [
0
1
2
-1
]
}
}
Shape {
appearance USE COL_BackColor
geometry IndexedFaceSet {
solid TRUE
coord Coordinate {
point [
1.289 -2.354 0,
0 -2.638 0,
1.277 -2.345 0,
]
}
coordIndex [
0
1
2
-1
]
}
}
Shape {
appearance USE COL_BackColor
geometry IndexedFaceSet {
solid TRUE
coord Coordinate {
point [
1.304 -2.36 0,
0 -2.638 0,
1.289 -2.354 0,
]
}
coordIndex [
0
1
2
-1
]
}
}
Shape {
appearance USE COL_BackColor
geometry IndexedFaceSet {
solid TRUE
coord Coordinate {
point [
2.638 -2.638 0,
0 -2.638 0,
1.304 -2.36 0,
]
}
coordIndex [
0
1
2
-1
]
}
}
Shape {
appearance USE COL_Color_I04
geometry IndexedFaceSet {
solid TRUE
coord Coordinate {
point [
2.638 -2.638 0,
0 -2.638 0,
0 -2.638 -1.969,
2.638 -2.638 -1.969,
]
}
coordIndex [
0
1
2
3
-1
]
}
}
Shape {
appearance USE COL_BackColor
geometry IndexedFaceSet {
solid TRUE
coord Coordinate {
point [
2.638 -2.638 -1.969,
0 -2.638 -1.969,
0 -2.638 0,
2.638 -2.638 0,
]
}
coordIndex [
0
1
2
3
-1
]
}
}
Shape {
appearance USE COL_Color_I04
geometry IndexedFaceSet {
solid TRUE
coord Coordinate {
point [
0 -2.638 -1.969,
1.092 -2.165 -1.969,
2.638 -2.638 -1.969,
]
}
coordIndex [
0
1
2
-1
]
}
}
Shape {
appearance USE COL_Color_I04
geometry IndexedFaceSet {
solid TRUE
coord Coordinate {
point [
1.092 -2.165 -1.969,
0 -2.638 -1.969,
0.881 -2.078 -1.969,
]
}
coordIndex [
0
1
2
-1
]
}
}
Shape {
appearance USE COL_BackColor
geometry IndexedFaceSet {
solid TRUE
coord Coordinate {
point [
2.638 -2.638 -1.969,
1.092 -2.165 -1.969,
0 -2.638 -1.969,
]
}
coordIndex [
0
1
2
-1
]
}
}
Shape {
appearance USE COL_Color_I04
geometry IndexedFaceSet {
solid TRUE
coord Coordinate {
point [
2.638 -2.638 -1.969,
1.092 -2.165 -1.969,
1.319 -2.195 -1.969,
]
}
coordIndex [
0
1
2
-1
]
}
}
Shape {
appearance USE COL_BackColor
geometry IndexedFaceSet {
solid TRUE
coord Coordinate {
point [
1.319 -2.195 -1.969,
1.092 -2.165 -1.969,
2.638 -2.638 -1.969,
]
}
coordIndex [
0
1
2
-1
]
}
}
Shape {
appearance DEF COL_Color_M00 Appearance {
material Material { diffuseColor 1 1 1 }
}
geometry IndexedFaceSet {
solid TRUE
coord Coordinate {
point [
0.881 -2.078 -1.969,
0.699 -1.938 -1.969,
0.56 -1.757 -1.969,
0.473 -1.546 -1.969,
0.443 -1.319 -1.969,
0.473 -1.092 -1.969,
0.56 -0.881 -1.969,
0.699 -0.699 -1.969,
0.881 -0.56 -1.969,
1.092 -0.473 -1.969,
1.319 -0.443 -1.969,
1.546 -0.473 -1.969,
1.757 -0.56 -1.969,
1.938 -0.699 -1.969,
2.078 -0.881 -1.969,
2.165 -1.092 -1.969,
2.195 -1.319 -1.969,
2.165 -1.546 -1.969,
2.078 -1.757 -1.969,
1.938 -1.938 -1.969,
1.757 -2.078 -1.969,
1.546 -2.165 -1.969,
1.319 -2.195 -1.969,
1.092 -2.165 -1.969,
]
}
coordIndex [
0
1
2
3
4
5
6
7
8
9
10
11
12
13
14
15
16
17
18
19
20
21
22
23
-1
]
}
}
Shape {
appearance USE COL_Color_I04
geometry IndexedFaceSet {
solid TRUE
coord Coordinate {
point [
0.881 -2.078 -1.969,
0 -2.638 -1.969,
0.699 -1.938 -1.969,
]
}
coordIndex [
0
1
2
-1
]
}
}
Shape {
appearance USE COL_BackColor
geometry IndexedFaceSet {
solid TRUE
coord Coordinate {
point [
0.881 -2.078 -1.969,
0 -2.638 -1.969,
1.092 -2.165 -1.969,
]
}
coordIndex [
0
1
2
-1
]
}
}
Shape {
appearance USE COL_BackColor
geometry IndexedFaceSet {
solid TRUE
coord Coordinate {
point [
0.699 -1.938 -1.969,
0 -2.638 -1.969,
0.881 -2.078 -1.969,
]
}
coordIndex [
0
1
2
-1
]
}
}
Shape {
appearance USE COL_Color_I04
geometry IndexedFaceSet {
solid TRUE
coord Coordinate {
point [
0.699 -1.938 -1.969,
0 -2.638 -1.969,
0.56 -1.757 -1.969,
]
}
coordIndex [
0
1
2
-1
]
}
}
Shape {
appearance USE COL_BackColor
geometry IndexedFaceSet {
solid TRUE
coord Coordinate {
point [
0.56 -1.757 -1.969,
0 -2.638 -1.969,
0.699 -1.938 -1.969,
]
}
coordIndex [
0
1
2
-1
]
}
}
Shape {
appearance USE COL_Color_I04
geometry IndexedFaceSet {
solid TRUE
coord Coordinate {
point [
0.56 -1.757 -1.969,
0 -2.638 -1.969,
0.473 -1.546 -1.969,
]
}
coordIndex [
0
1
2
-1
]
}
}
Shape {
appearance USE COL_BackColor
geometry IndexedFaceSet {
solid TRUE
coord Coordinate {
point [
0.473 -1.546 -1.969,
0 -2.638 -1.969,
0.56 -1.757 -1.969,
]
}
coordIndex [
0
1
2
-1
]
}
}
Shape {
appearance USE COL_Color_I04
geometry IndexedFaceSet {
solid TRUE
coord Coordinate {
point [
0.473 -1.546 -1.969,
0 -2.638 -1.969,
0.443 -1.319 -1.969,
]
}
coordIndex [
0
1
2
-1
]
}
}
Shape {
appearance USE COL_BackColor
geometry IndexedFaceSet {
solid TRUE
coord Coordinate {
point [
0.443 -1.319 -1.969,
0 -2.638 -1.969,
0.473 -1.546 -1.969,
]
}
coordIndex [
0
1
2
-1
]
}
}
Shape {
appearance USE COL_Color_I04
geometry IndexedFaceSet {
solid TRUE
coord Coordinate {
point [
0 -2.638 -1.969,
0.473 -1.092 -1.969,
0.443 -1.319 -1.969,
]
}
coordIndex [
0
1
2
-1
]
}
}
Shape {
appearance USE COL_Color_I04
geometry IndexedFaceSet {
solid TRUE
coord Coordinate {
point [
0 0 -1.969,
0.473 -1.092 -1.969,
0 -2.638 -1.969,
]
}
coordIndex [
0
1
2
-1
]
}
}
Shape {
appearance USE COL_Color_I04
geometry IndexedFaceSet {
solid TRUE
coord Coordinate {
point [
0.473 -1.092 -1.969,
0 0 -1.969,
0.56 -0.881 -1.969,
]
}
coordIndex [
0
1
2
-1
]
}
}
Shape {
appearance USE COL_BackColor
geometry IndexedFaceSet {
solid TRUE
coord Coordinate {
point [
0 -2.638 -1.969,
0.473 -1.092 -1.969,
0 0 -1.969,
]
}
coordIndex [
0
1
2
-1
]
}
}
Shape {
appearance USE COL_BackColor
geometry IndexedFaceSet {
solid TRUE
coord Coordinate {
point [
0.443 -1.319 -1.969,
0.473 -1.092 -1.969,
0 -2.638 -1.969,
]
}
coordIndex [
0
1
2
-1
]
}
}
Shape {
appearance USE COL_BackColor
geometry IndexedFaceSet {
solid TRUE
coord Coordinate {
point [
1.092 -2.165 -1.969,
1.319 -2.195 -1.969,
1.546 -2.165 -1.969,
1.757 -2.078 -1.969,
1.938 -1.938 -1.969,
2.078 -1.757 -1.969,
2.165 -1.546 -1.969,
2.195 -1.319 -1.969,
2.165 -1.092 -1.969,
2.078 -0.881 -1.969,
1.938 -0.699 -1.969,
1.757 -0.56 -1.969,
1.546 -0.473 -1.969,
1.319 -0.443 -1.969,
1.092 -0.473 -1.969,
0.881 -0.56 -1.969,
0.699 -0.699 -1.969,
0.56 -0.881 -1.969,
0.473 -1.092 -1.969,
0.443 -1.319 -1.969,
0.473 -1.546 -1.969,
0.56 -1.757 -1.969,
0.699 -1.938 -1.969,
0.881 -2.078 -1.969,
]
}
coordIndex [
0
1
2
3
4
5
6
7
8
9
10
11
12
13
14
15
16
17
18
19
20
21
22
23
-1
]
}
}
Shape {
appearance USE COL_Color_I04
geometry IndexedFaceSet {
solid TRUE
coord Coordinate {
point [
2.638 -2.638 -1.969,
1.319 -2.195 -1.969,
1.546 -2.165 -1.969,
]
}
coordIndex [
0
1
2
-1
]
}
}
Shape {
appearance USE COL_BackColor
geometry IndexedFaceSet {
solid TRUE
coord Coordinate {
point [
1.546 -2.165 -1.969,
1.319 -2.195 -1.969,
2.638 -2.638 -1.969,
]
}
coordIndex [
0
1
2
-1
]
}
}
Shape {
appearance USE COL_Color_I04
geometry IndexedFaceSet {
solid TRUE
coord Coordinate {
point [
2.638 -2.638 -1.969,
1.546 -2.165 -1.969,
1.757 -2.078 -1.969,
]
}
coordIndex [
0
1
2
-1
]
}
}
Shape {
appearance USE COL_BackColor
geometry IndexedFaceSet {
solid TRUE
coord Coordinate {
point [
1.757 -2.078 -1.969,
1.546 -2.165 -1.969,
2.638 -2.638 -1.969,
]
}
coordIndex [
0
1
2
-1
]
}
}
Shape {
appearance USE COL_Color_I04
geometry IndexedFaceSet {
solid TRUE
coord Coordinate {
point [
2.638 -2.638 -1.969,
1.757 -2.078 -1.969,
1.938 -1.938 -1.969,
]
}
coordIndex [
0
1
2
-1
]
}
}
Shape {
appearance USE COL_BackColor
geometry IndexedFaceSet {
solid TRUE
coord Coordinate {
point [
1.938 -1.938 -1.969,
1.757 -2.078 -1.969,
2.638 -2.638 -1.969,
]
}
coordIndex [
0
1
2
-1
]
}
}
Shape {
appearance USE COL_Color_I04
geometry IndexedFaceSet {
solid TRUE
coord Coordinate {
point [
2.638 -2.638 -1.969,
1.938 -1.938 -1.969,
2.078 -1.757 -1.969,
]
}
coordIndex [
0
1
2
-1
]
}
}
Shape {
appearance USE COL_BackColor
geometry IndexedFaceSet {
solid TRUE
coord Coordinate {
point [
2.078 -1.757 -1.969,
1.938 -1.938 -1.969,
2.638 -2.638 -1.969,
]
}
coordIndex [
0
1
2
-1
]
}
}
Shape {
appearance USE COL_Color_I04
geometry IndexedFaceSet {
solid TRUE
coord Coordinate {
point [
2.638 -2.638 -1.969,
2.078 -1.757 -1.969,
2.165 -1.546 -1.969,
]
}
coordIndex [
0
1
2
-1
]
}
}
Shape {
appearance USE COL_BackColor
geometry IndexedFaceSet {
solid TRUE
coord Coordinate {
point [
2.165 -1.546 -1.969,
2.078 -1.757 -1.969,
2.638 -2.638 -1.969,
]
}
coordIndex [
0
1
2
-1
]
}
}
Shape {
appearance USE COL_Color_I04
geometry IndexedFaceSet {
solid TRUE
coord Coordinate {
point [
2.638 -2.638 -1.969,
2.165 -1.546 -1.969,
2.195 -1.319 -1.969,
]
}
coordIndex [
0
1
2
-1
]
}
}
Shape {
appearance USE COL_BackColor
geometry IndexedFaceSet {
solid TRUE
coord Coordinate {
point [
2.195 -1.319 -1.969,
2.165 -1.546 -1.969,
2.638 -2.638 -1.969,
]
}
coordIndex [
0
1
2
-1
]
}
}
Shape {
appearance USE COL_Color_I04
geometry IndexedFaceSet {
solid TRUE
coord Coordinate {
point [
2.638 -2.638 -1.969,
2.195 -1.319 -1.969,
2.638 0 -1.969,
]
}
coordIndex [
0
1
2
-1
]
}
}
Shape {
appearance USE COL_BackColor
geometry IndexedFaceSet {
solid TRUE
coord Coordinate {
point [
2.638 0 -1.969,
2.195 -1.319 -1.969,
2.638 -2.638 -1.969,
]
}
coordIndex [
0
1
2
-1
]
}
}
Shape {
appearance USE COL_Color_I04
geometry IndexedFaceSet {
solid TRUE
coord Coordinate {
point [
2.165 -1.092 -1.969,
2.638 0 -1.969,
2.195 -1.319 -1.969,
]
}
coordIndex [
0
1
2
-1
]
}
}
Shape {
appearance USE COL_Color_I04
geometry IndexedFaceSet {
solid TRUE
coord Coordinate {
point [
2.078 -0.881 -1.969,
2.638 0 -1.969,
2.165 -1.092 -1.969,
]
}
coordIndex [
0
1
2
-1
]
}
}
Shape {
appearance USE COL_Color_I04
geometry IndexedFaceSet {
solid TRUE
coord Coordinate {
point [
1.938 -0.699 -1.969,
2.638 0 -1.969,
2.078 -0.881 -1.969,
]
}
coordIndex [
0
1
2
-1
]
}
}
Shape {
appearance USE COL_Color_I04
geometry IndexedFaceSet {
solid TRUE
coord Coordinate {
point [
1.757 -0.56 -1.969,
2.638 0 -1.969,
1.938 -0.699 -1.969,
]
}
coordIndex [
0
1
2
-1
]
}
}
Shape {
appearance USE COL_Color_I04
geometry IndexedFaceSet {
solid TRUE
coord Coordinate {
point [
1.546 -0.473 -1.969,
2.638 0 -1.969,
1.757 -0.56 -1.969,
]
}
coordIndex [
0
1
2
-1
]
}
}
Shape {
appearance USE COL_Color_I04
geometry IndexedFaceSet {
solid TRUE
coord Coordinate {
point [
1.319 -0.443 -1.969,
2.638 0 -1.969,
1.546 -0.473 -1.969,
]
}
coordIndex [
0
1
2
-1
]
}
}
Shape {
appearance USE COL_Color_I04
geometry IndexedFaceSet {
solid TRUE
coord Coordinate {
point [
1.092 -0.473 -1.969,
2.638 0 -1.969,
1.319 -0.443 -1.969,
]
}
coordIndex [
0
1
2
-1
]
}
}
Shape {
appearance USE COL_Color_I04
geometry IndexedFaceSet {
solid TRUE
coord Coordinate {
point [
1.092 -0.473 -1.969,
0 0 -1.969,
2.638 0 -1.969,
]
}
coordIndex [
0
1
2
-1
]
}
}
Shape {
appearance USE COL_Color_I04
geometry IndexedFaceSet {
solid TRUE
coord Coordinate {
point [
0.881 -0.56 -1.969,
0 0 -1.969,
1.092 -0.473 -1.969,
]
}
coordIndex [
0
1
2
-1
]
}
}
Shape {
appearance USE COL_Color_I04
geometry IndexedFaceSet {
solid TRUE
coord Coordinate {
point [
0.699 -0.699 -1.969,
0 0 -1.969,
0.881 -0.56 -1.969,
]
}
coordIndex [
0
1
2
-1
]
}
}
Shape {
appearance USE COL_Color_I04
geometry IndexedFaceSet {
solid TRUE
coord Coordinate {
point [
0.56 -0.881 -1.969,
0 0 -1.969,
0.699 -0.699 -1.969,
]
}
coordIndex [
0
1
2
-1
]
}
}
Shape {
appearance USE COL_BackColor
geometry IndexedFaceSet {
solid TRUE
coord Coordinate {
point [
0.56 -0.881 -1.969,
0 0 -1.969,
0.473 -1.092 -1.969,
]
}
coordIndex [
0
1
2
-1
]
}
}
Shape {
appearance USE COL_BackColor
geometry IndexedFaceSet {
solid TRUE
coord Coordinate {
point [
0.699 -0.699 -1.969,
0 0 -1.969,
0.56 -0.881 -1.969,
]
}
coordIndex [
0
1
2
-1
]
}
}
Shape {
appearance USE COL_BackColor
geometry IndexedFaceSet {
solid TRUE
coord Coordinate {
point [
0.881 -0.56 -1.969,
0 0 -1.969,
0.699 -0.699 -1.969,
]
}
coordIndex [
0
1
2
-1
]
}
}
Shape {
appearance USE COL_BackColor
geometry IndexedFaceSet {
solid TRUE
coord Coordinate {
point [
1.092 -0.473 -1.969,
0 0 -1.969,
0.881 -0.56 -1.969,
]
}
coordIndex [
0
1
2
-1
]
}
}
Shape {
appearance USE COL_BackColor
geometry IndexedFaceSet {
solid TRUE
coord Coordinate {
point [
2.638 0 -1.969,
0 0 -1.969,
1.092 -0.473 -1.969,
]
}
coordIndex [
0
1
2
-1
]
}
}
Shape {
appearance USE COL_Color_I04
geometry IndexedFaceSet {
solid TRUE
coord Coordinate {
point [
0 0 0,
2.638 0 0,
2.638 0 -1.969,
0 0 -1.969,
]
}
coordIndex [
0
1
2
3
-1
]
}
}
Shape {
appearance USE COL_BackColor
geometry IndexedFaceSet {
solid TRUE
coord Coordinate {
point [
0 0 -1.969,
2.638 0 -1.969,
2.638 0 0,
0 0 0,
]
}
coordIndex [
0
1
2
3
-1
]
}
}
Shape {
appearance USE COL_Color_I04
geometry IndexedFaceSet {
solid TRUE
coord Coordinate {
point [
2.638 0 0,
2.638 -2.638 0,
2.638 -2.638 -1.969,
2.638 0 -1.969,
]
}
coordIndex [
0
1
2
3
-1
]
}
}
Shape {
appearance USE COL_Color_I04
geometry IndexedFaceSet {
solid TRUE
coord Coordinate {
point [
2.638 0 0,
2.362 -1.319 0,
2.638 -2.638 0,
]
}
coordIndex [
0
1
2
-1
]
}
}
Shape {
appearance USE COL_Color_I04
geometry IndexedFaceSet {
solid TRUE
coord Coordinate {
point [
2.638 0 0,
2.36 -1.304 0,
2.362 -1.319 0,
]
}
coordIndex [
0
1
2
-1
]
}
}
Shape {
appearance USE COL_Color_I04
geometry IndexedFaceSet {
solid TRUE
coord Coordinate {
point [
2.638 0 0,
2.354 -1.289 0,
2.36 -1.304 0,
]
}
coordIndex [
0
1
2
-1
]
}
}
Shape {
appearance USE COL_Color_I04
geometry IndexedFaceSet {
solid TRUE
coord Coordinate {
point [
2.638 0 0,
2.345 -1.277 0,
2.354 -1.289 0,
]
}
coordIndex [
0
1
2
-1
]
}
}
Shape {
appearance USE COL_Color_I04
geometry IndexedFaceSet {
solid TRUE
coord Coordinate {
point [
2.638 0 0,
2.333 -1.268 0,
2.345 -1.277 0,
]
}
coordIndex [
0
1
2
-1
]
}
}
Shape {
appearance USE COL_Color_I04
geometry IndexedFaceSet {
solid TRUE
coord Coordinate {
point [
2.638 0 0,
2.318 -1.262 0,
2.333 -1.268 0,
]
}
coordIndex [
0
1
2
-1
]
}
}
Shape {
appearance USE COL_Color_I04
geometry IndexedFaceSet {
solid TRUE
coord Coordinate {
point [
2.638 0 0,
2.303 -1.26 0,
2.318 -1.262 0,
]
}
coordIndex [
0
1
2
-1
]
}
}
Shape {
appearance USE COL_Color_I04
geometry IndexedFaceSet {
solid TRUE
coord Coordinate {
point [
2.638 0 0,
2.288 -1.262 0,
2.303 -1.26 0,
]
}
coordIndex [
0
1
2
-1
]
}
}
Shape {
appearance USE COL_Color_I04
geometry IndexedFaceSet {
solid TRUE
coord Coordinate {
point [
2.638 0 0,
2.274 -1.268 0,
2.288 -1.262 0,
]
}
coordIndex [
0
1
2
-1
]
}
}
Shape {
appearance USE COL_Color_I04
geometry IndexedFaceSet {
solid TRUE
coord Coordinate {
point [
2.638 0 0,
2.261 -1.277 0,
2.274 -1.268 0,
]
}
coordIndex [
0
1
2
-1
]
}
}
Shape {
appearance USE COL_Color_I04
geometry IndexedFaceSet {
solid TRUE
coord Coordinate {
point [
2.638 0 0,
2.252 -1.289 0,
2.261 -1.277 0,
]
}
coordIndex [
0
1
2
-1
]
}
}
Shape {
appearance USE COL_Color_I04
geometry IndexedFaceSet {
solid TRUE
coord Coordinate {
point [
2.638 0 0,
2.246 -1.304 0,
2.252 -1.289 0,
]
}
coordIndex [
0
1
2
-1
]
}
}
Shape {
appearance USE COL_BackColor
geometry IndexedFaceSet {
solid TRUE
coord Coordinate {
point [
2.252 -1.289 0,
2.246 -1.304 0,
2.638 0 0,
]
}
coordIndex [
0
1
2
-1
]
}
}
Shape {
appearance USE COL_BackColor
geometry IndexedFaceSet {
solid TRUE
coord Coordinate {
point [
2.261 -1.277 0,
2.252 -1.289 0,
2.638 0 0,
]
}
coordIndex [
0
1
2
-1
]
}
}
Shape {
appearance USE COL_BackColor
geometry IndexedFaceSet {
solid TRUE
coord Coordinate {
point [
2.274 -1.268 0,
2.261 -1.277 0,
2.638 0 0,
]
}
coordIndex [
0
1
2
-1
]
}
}
Shape {
appearance USE COL_BackColor
geometry IndexedFaceSet {
solid TRUE
coord Coordinate {
point [
2.288 -1.262 0,
2.274 -1.268 0,
2.638 0 0,
]
}
coordIndex [
0
1
2
-1
]
}
}
Shape {
appearance USE COL_BackColor
geometry IndexedFaceSet {
solid TRUE
coord Coordinate {
point [
2.303 -1.26 0,
2.288 -1.262 0,
2.638 0 0,
]
}
coordIndex [
0
1
2
-1
]
}
}
Shape {
appearance USE COL_BackColor
geometry IndexedFaceSet {
solid TRUE
coord Coordinate {
point [
2.318 -1.262 0,
2.303 -1.26 0,
2.638 0 0,
]
}
coordIndex [
0
1
2
-1
]
}
}
Shape {
appearance USE COL_BackColor
geometry IndexedFaceSet {
solid TRUE
coord Coordinate {
point [
2.333 -1.268 0,
2.318 -1.262 0,
2.638 0 0,
]
}
coordIndex [
0
1
2
-1
]
}
}
Shape {
appearance USE COL_BackColor
geometry IndexedFaceSet {
solid TRUE
coord Coordinate {
point [
2.345 -1.277 0,
2.333 -1.268 0,
2.638 0 0,
]
}
coordIndex [
0
1
2
-1
]
}
}
Shape {
appearance USE COL_BackColor
geometry IndexedFaceSet {
solid TRUE
coord Coordinate {
point [
2.354 -1.289 0,
2.345 -1.277 0,
2.638 0 0,
]
}
coordIndex [
0
1
2
-1
]
}
}
Shape {
appearance USE COL_BackColor
geometry IndexedFaceSet {
solid TRUE
coord Coordinate {
point [
2.36 -1.304 0,
2.354 -1.289 0,
2.638 0 0,
]
}
coordIndex [
0
1
2
-1
]
}
}
Shape {
appearance USE COL_BackColor
geometry IndexedFaceSet {
solid TRUE
coord Coordinate {
point [
2.362 -1.319 0,
2.36 -1.304 0,
2.638 0 0,
]
}
coordIndex [
0
1
2
-1
]
}
}
Shape {
appearance USE COL_BackColor
geometry IndexedFaceSet {
solid TRUE
coord Coordinate {
point [
2.638 -2.638 0,
2.362 -1.319 0,
2.638 0 0,
]
}
coordIndex [
0
1
2
-1
]
}
}
Shape {
appearance USE COL_Color_I04
geometry IndexedFaceSet {
solid TRUE
coord Coordinate {
point [
2.36 -1.334 0,
2.638 -2.638 0,
2.362 -1.319 0,
]
}
coordIndex [
0
1
2
-1
]
}
}
Shape {
appearance USE COL_Color_I04
geometry IndexedFaceSet {
solid TRUE
coord Coordinate {
point [
2.354 -1.348 0,
2.638 -2.638 0,
2.36 -1.334 0,
]
}
coordIndex [
0
1
2
-1
]
}
}
Shape {
appearance USE COL_Color_I04
geometry IndexedFaceSet {
solid TRUE
coord Coordinate {
point [
2.345 -1.361 0,
2.638 -2.638 0,
2.354 -1.348 0,
]
}
coordIndex [
0
1
2
-1
]
}
}
Shape {
appearance USE COL_Color_I04
geometry IndexedFaceSet {
solid TRUE
coord Coordinate {
point [
2.333 -1.37 0,
2.638 -2.638 0,
2.345 -1.361 0,
]
}
coordIndex [
0
1
2
-1
]
}
}
Shape {
appearance USE COL_Color_I04
geometry IndexedFaceSet {
solid TRUE
coord Coordinate {
point [
2.318 -1.376 0,
2.638 -2.638 0,
2.333 -1.37 0,
]
}
coordIndex [
0
1
2
-1
]
}
}
Shape {
appearance USE COL_Color_I04
geometry IndexedFaceSet {
solid TRUE
coord Coordinate {
point [
2.303 -1.378 0,
2.638 -2.638 0,
2.318 -1.376 0,
]
}
coordIndex [
0
1
2
-1
]
}
}
Shape {
appearance USE COL_Color_I04
geometry IndexedFaceSet {
solid TRUE
coord Coordinate {
point [
2.288 -1.376 0,
2.638 -2.638 0,
2.303 -1.378 0,
]
}
coordIndex [
0
1
2
-1
]
}
}
Shape {
appearance USE COL_Color_I04
geometry IndexedFaceSet {
solid TRUE
coord Coordinate {
point [
2.274 -1.37 0,
2.638 -2.638 0,
2.288 -1.376 0,
]
}
coordIndex [
0
1
2
-1
]
}
}
Shape {
appearance USE COL_Color_I04
geometry IndexedFaceSet {
solid TRUE
coord Coordinate {
point [
2.261 -1.361 0,
2.638 -2.638 0,
2.274 -1.37 0,
]
}
coordIndex [
0
1
2
-1
]
}
}
Shape {
appearance USE COL_Color_I04
geometry IndexedFaceSet {
solid TRUE
coord Coordinate {
point [
2.252 -1.348 0,
2.638 -2.638 0,
2.261 -1.361 0,
]
}
coordIndex [
0
1
2
-1
]
}
}
Shape {
appearance USE COL_Color_I04
geometry IndexedFaceSet {
solid TRUE
coord Coordinate {
point [
2.246 -1.334 0,
2.638 -2.638 0,
2.252 -1.348 0,
]
}
coordIndex [
0
1
2
-1
]
}
}
Shape {
appearance USE COL_BackColor
geometry IndexedFaceSet {
solid TRUE
coord Coordinate {
point [
2.246 -1.334 0,
2.638 -2.638 0,
1.378 -0.335 0,
]
}
coordIndex [
0
1
2
-1
]
}
}
Shape {
appearance USE COL_BackColor
geometry IndexedFaceSet {
solid TRUE
coord Coordinate {
point [
2.252 -1.348 0,
2.638 -2.638 0,
2.246 -1.334 0,
]
}
coordIndex [
0
1
2
-1
]
}
}
Shape {
appearance USE COL_BackColor
geometry IndexedFaceSet {
solid TRUE
coord Coordinate {
point [
2.261 -1.361 0,
2.638 -2.638 0,
2.252 -1.348 0,
]
}
coordIndex [
0
1
2
-1
]
}
}
Shape {
appearance USE COL_BackColor
geometry IndexedFaceSet {
solid TRUE
coord Coordinate {
point [
2.274 -1.37 0,
2.638 -2.638 0,
2.261 -1.361 0,
]
}
coordIndex [
0
1
2
-1
]
}
}
Shape {
appearance USE COL_BackColor
geometry IndexedFaceSet {
solid TRUE
coord Coordinate {
point [
2.288 -1.376 0,
2.638 -2.638 0,
2.274 -1.37 0,
]
}
coordIndex [
0
1
2
-1
]
}
}
Shape {
appearance USE COL_BackColor
geometry IndexedFaceSet {
solid TRUE
coord Coordinate {
point [
2.303 -1.378 0,
2.638 -2.638 0,
2.288 -1.376 0,
]
}
coordIndex [
0
1
2
-1
]
}
}
Shape {
appearance USE COL_BackColor
geometry IndexedFaceSet {
solid TRUE
coord Coordinate {
point [
2.318 -1.376 0,
2.638 -2.638 0,
2.303 -1.378 0,
]
}
coordIndex [
0
1
2
-1
]
}
}
Shape {
appearance USE COL_BackColor
geometry IndexedFaceSet {
solid TRUE
coord Coordinate {
point [
2.333 -1.37 0,
2.638 -2.638 0,
2.318 -1.376 0,
]
}
coordIndex [
0
1
2
-1
]
}
}
Shape {
appearance USE COL_BackColor
geometry IndexedFaceSet {
solid TRUE
coord Coordinate {
point [
2.345 -1.361 0,
2.638 -2.638 0,
2.333 -1.37 0,
]
}
coordIndex [
0
1
2
-1
]
}
}
Shape {
appearance USE COL_BackColor
geometry IndexedFaceSet {
solid TRUE
coord Coordinate {
point [
2.354 -1.348 0,
2.638 -2.638 0,
2.345 -1.361 0,
]
}
coordIndex [
0
1
2
-1
]
}
}
Shape {
appearance USE COL_BackColor
geometry IndexedFaceSet {
solid TRUE
coord Coordinate {
point [
2.36 -1.334 0,
2.638 -2.638 0,
2.354 -1.348 0,
]
}
coordIndex [
0
1
2
-1
]
}
}
Shape {
appearance USE COL_BackColor
geometry IndexedFaceSet {
solid TRUE
coord Coordinate {
point [
2.362 -1.319 0,
2.638 -2.638 0,
2.36 -1.334 0,
]
}
coordIndex [
0
1
2
-1
]
}
}
Shape {
appearance USE COL_BackColor
geometry IndexedFaceSet {
solid TRUE
coord Coordinate {
point [
1.378 -0.335 0,
2.638 -2.638 0,
1.378 -2.303 0,
]
}
coordIndex [
0
1
2
-1
]
}
}
Shape {
appearance USE COL_BackColor
geometry IndexedFaceSet {
solid TRUE
coord Coordinate {
point [
1.378 -2.303 0,
2.638 -2.638 0,
1.376 -2.318 0,
]
}
coordIndex [
0
1
2
-1
]
}
}
Shape {
appearance USE COL_BackColor
geometry IndexedFaceSet {
solid TRUE
coord Coordinate {
point [
1.376 -2.318 0,
2.638 -2.638 0,
1.37 -2.333 0,
]
}
coordIndex [
0
1
2
-1
]
}
}
Shape {
appearance USE COL_BackColor
geometry IndexedFaceSet {
solid TRUE
coord Coordinate {
point [
1.37 -2.333 0,
2.638 -2.638 0,
1.361 -2.345 0,
]
}
coordIndex [
0
1
2
-1
]
}
}
Shape {
appearance USE COL_BackColor
geometry IndexedFaceSet {
solid TRUE
coord Coordinate {
point [
1.361 -2.345 0,
2.638 -2.638 0,
1.348 -2.354 0,
]
}
coordIndex [
0
1
2
-1
]
}
}
Shape {
appearance USE COL_BackColor
geometry IndexedFaceSet {
solid TRUE
coord Coordinate {
point [
1.348 -2.354 0,
2.638 -2.638 0,
1.334 -2.36 0,
]
}
coordIndex [
0
1
2
-1
]
}
}
Shape {
appearance USE COL_BackColor
geometry IndexedFaceSet {
solid TRUE
coord Coordinate {
point [
1.334 -2.36 0,
2.638 -2.638 0,
1.319 -2.362 0,
]
}
coordIndex [
0
1
2
-1
]
}
}
Shape {
appearance USE COL_BackColor
geometry IndexedFaceSet {
solid TRUE
coord Coordinate {
point [
1.319 -2.362 0,
2.638 -2.638 0,
1.304 -2.36 0,
]
}
coordIndex [
0
1
2
-1
]
}
}
Shape {
appearance USE COL_Color_I04
geometry IndexedFaceSet {
solid TRUE
coord Coordinate {
point [
1.376 -0.35 0,
1.378 -2.303 0,
1.378 -0.335 0,
]
}
coordIndex [
0
1
2
-1
]
}
}
Shape {
appearance USE COL_Color_I04
geometry IndexedFaceSet {
solid TRUE
coord Coordinate {
point [
1.376 -0.35 0,
1.376 -2.288 0,
1.378 -2.303 0,
]
}
coordIndex [
0
1
2
-1
]
}
}
Shape {
appearance USE COL_Color_I04
geometry IndexedFaceSet {
solid TRUE
coord Coordinate {
point [
1.37 -0.364 0,
1.376 -2.288 0,
1.376 -0.35 0,
]
}
coordIndex [
0
1
2
-1
]
}
}
Shape {
appearance USE COL_Color_I04
geometry IndexedFaceSet {
solid TRUE
coord Coordinate {
point [
1.37 -0.364 0,
1.37 -2.274 0,
1.376 -2.288 0,
]
}
coordIndex [
0
1
2
-1
]
}
}
Shape {
appearance USE COL_Color_I04
geometry IndexedFaceSet {
solid TRUE
coord Coordinate {
point [
1.361 -0.376 0,
1.37 -2.274 0,
1.37 -0.364 0,
]
}
coordIndex [
0
1
2
-1
]
}
}
Shape {
appearance USE COL_Color_I04
geometry IndexedFaceSet {
solid TRUE
coord Coordinate {
point [
1.361 -0.376 0,
1.361 -2.261 0,
1.37 -2.274 0,
]
}
coordIndex [
0
1
2
-1
]
}
}
Shape {
appearance USE COL_Color_I04
geometry IndexedFaceSet {
solid TRUE
coord Coordinate {
point [
1.348 -0.386 0,
1.361 -2.261 0,
1.361 -0.376 0,
]
}
coordIndex [
0
1
2
-1
]
}
}
Shape {
appearance USE COL_Color_I04
geometry IndexedFaceSet {
solid TRUE
coord Coordinate {
point [
1.348 -0.386 0,
1.348 -2.252 0,
1.361 -2.261 0,
]
}
coordIndex [
0
1
2
-1
]
}
}
Shape {
appearance USE COL_Color_I04
geometry IndexedFaceSet {
solid TRUE
coord Coordinate {
point [
1.334 -0.392 0,
1.348 -2.252 0,
1.348 -0.386 0,
]
}
coordIndex [
0
1
2
-1
]
}
}
Shape {
appearance USE COL_Color_I04
geometry IndexedFaceSet {
solid TRUE
coord Coordinate {
point [
1.334 -0.392 0,
1.334 -2.246 0,
1.348 -2.252 0,
]
}
coordIndex [
0
1
2
-1
]
}
}
Shape {
appearance USE COL_Color_I04
geometry IndexedFaceSet {
solid TRUE
coord Coordinate {
point [
1.319 -0.394 0,
1.334 -2.246 0,
1.334 -0.392 0,
]
}
coordIndex [
0
1
2
-1
]
}
}
Shape {
appearance USE COL_Color_I04
geometry IndexedFaceSet {
solid TRUE
coord Coordinate {
point [
1.319 -0.394 0,
1.319 -2.244 0,
1.334 -2.246 0,
]
}
coordIndex [
0
1
2
-1
]
}
}
Shape {
appearance USE COL_Color_I04
geometry IndexedFaceSet {
solid TRUE
coord Coordinate {
point [
1.304 -0.392 0,
1.319 -2.244 0,
1.319 -0.394 0,
]
}
coordIndex [
0
1
2
-1
]
}
}
Shape {
appearance USE COL_Color_I04
geometry IndexedFaceSet {
solid TRUE
coord Coordinate {
point [
1.304 -0.392 0,
1.304 -2.246 0,
1.319 -2.244 0,
]
}
coordIndex [
0
1
2
-1
]
}
}
Shape {
appearance USE COL_Color_I04
geometry IndexedFaceSet {
solid TRUE
coord Coordinate {
point [
1.289 -0.386 0,
1.304 -2.246 0,
1.304 -0.392 0,
]
}
coordIndex [
0
1
2
-1
]
}
}
Shape {
appearance USE COL_Color_I04
geometry IndexedFaceSet {
solid TRUE
coord Coordinate {
point [
1.289 -0.386 0,
1.289 -2.252 0,
1.304 -2.246 0,
]
}
coordIndex [
0
1
2
-1
]
}
}
Shape {
appearance USE COL_Color_I04
geometry IndexedFaceSet {
solid TRUE
coord Coordinate {
point [
1.277 -0.376 0,
1.289 -2.252 0,
1.289 -0.386 0,
]
}
coordIndex [
0
1
2
-1
]
}
}
Shape {
appearance USE COL_Color_I04
geometry IndexedFaceSet {
solid TRUE
coord Coordinate {
point [
1.277 -0.376 0,
1.277 -2.261 0,
1.289 -2.252 0,
]
}
coordIndex [
0
1
2
-1
]
}
}
Shape {
appearance USE COL_Color_I04
geometry IndexedFaceSet {
solid TRUE
coord Coordinate {
point [
1.268 -0.364 0,
1.277 -2.261 0,
1.277 -0.376 0,
]
}
coordIndex [
0
1
2
-1
]
}
}
Shape {
appearance USE COL_Color_I04
geometry IndexedFaceSet {
solid TRUE
coord Coordinate {
point [
1.268 -0.364 0,
1.268 -2.274 0,
1.277 -2.261 0,
]
}
coordIndex [
0
1
2
-1
]
}
}
Shape {
appearance USE COL_Color_I04
geometry IndexedFaceSet {
solid TRUE
coord Coordinate {
point [
1.262 -0.35 0,
1.268 -2.274 0,
1.268 -0.364 0,
]
}
coordIndex [
0
1
2
-1
]
}
}
Shape {
appearance USE COL_Color_I04
geometry IndexedFaceSet {
solid TRUE
coord Coordinate {
point [
1.262 -0.35 0,
1.262 -2.288 0,
1.268 -2.274 0,
]
}
coordIndex [
0
1
2
-1
]
}
}
Shape {
appearance USE COL_Color_I04
geometry IndexedFaceSet {
solid TRUE
coord Coordinate {
point [
1.26 -0.335 0,
1.262 -2.288 0,
1.262 -0.35 0,
]
}
coordIndex [
0
1
2
-1
]
}
}
Shape {
appearance USE COL_Color_I04
geometry IndexedFaceSet {
solid TRUE
coord Coordinate {
point [
1.262 -2.288 0,
1.26 -0.335 0,
1.26 -2.303 0,
]
}
coordIndex [
0
1
2
-1
]
}
}
Shape {
appearance USE COL_BackColor
geometry IndexedFaceSet {
solid TRUE
coord Coordinate {
point [
1.26 -2.303 0,
1.26 -0.335 0,
1.262 -2.288 0,
]
}
coordIndex [
0
1
2
-1
]
}
}
Shape {
appearance USE COL_BackColor
geometry IndexedFaceSet {
solid TRUE
coord Coordinate {
point [
1.26 -2.303 0,
0 0 0,
1.26 -0.335 0,
]
}
coordIndex [
0
1
2
-1
]
}
}
Shape {
appearance USE COL_BackColor
geometry IndexedFaceSet {
solid TRUE
coord Coordinate {
point [
1.26 -0.335 0,
0 0 0,
1.262 -0.319 0,
]
}
coordIndex [
0
1
2
-1
]
}
}
Shape {
appearance USE COL_BackColor
geometry IndexedFaceSet {
solid TRUE
coord Coordinate {
point [
1.262 -0.319 0,
0 0 0,
1.268 -0.305 0,
]
}
coordIndex [
0
1
2
-1
]
}
}
Shape {
appearance USE COL_BackColor
geometry IndexedFaceSet {
solid TRUE
coord Coordinate {
point [
1.268 -0.305 0,
0 0 0,
1.277 -0.293 0,
]
}
coordIndex [
0
1
2
-1
]
}
}
Shape {
appearance USE COL_BackColor
geometry IndexedFaceSet {
solid TRUE
coord Coordinate {
point [
1.277 -0.293 0,
0 0 0,
1.289 -0.284 0,
]
}
coordIndex [
0
1
2
-1
]
}
}
Shape {
appearance USE COL_BackColor
geometry IndexedFaceSet {
solid TRUE
coord Coordinate {
point [
1.289 -0.284 0,
0 0 0,
1.304 -0.278 0,
]
}
coordIndex [
0
1
2
-1
]
}
}
Shape {
appearance USE COL_BackColor
geometry IndexedFaceSet {
solid TRUE
coord Coordinate {
point [
1.262 -0.35 0,
1.262 -2.288 0,
1.26 -0.335 0,
]
}
coordIndex [
0
1
2
-1
]
}
}
Shape {
appearance USE COL_BackColor
geometry IndexedFaceSet {
solid TRUE
coord Coordinate {
point [
1.268 -2.274 0,
1.262 -2.288 0,
1.262 -0.35 0,
]
}
coordIndex [
0
1
2
-1
]
}
}
Shape {
appearance USE COL_BackColor
geometry IndexedFaceSet {
solid TRUE
coord Coordinate {
point [
1.268 -0.364 0,
1.268 -2.274 0,
1.262 -0.35 0,
]
}
coordIndex [
0
1
2
-1
]
}
}
Shape {
appearance USE COL_BackColor
geometry IndexedFaceSet {
solid TRUE
coord Coordinate {
point [
1.277 -2.261 0,
1.268 -2.274 0,
1.268 -0.364 0,
]
}
coordIndex [
0
1
2
-1
]
}
}
Shape {
appearance USE COL_BackColor
geometry IndexedFaceSet {
solid TRUE
coord Coordinate {
point [
1.277 -0.376 0,
1.277 -2.261 0,
1.268 -0.364 0,
]
}
coordIndex [
0
1
2
-1
]
}
}
Shape {
appearance USE COL_BackColor
geometry IndexedFaceSet {
solid TRUE
coord Coordinate {
point [
1.289 -2.252 0,
1.277 -2.261 0,
1.277 -0.376 0,
]
}
coordIndex [
0
1
2
-1
]
}
}
Shape {
appearance USE COL_BackColor
geometry IndexedFaceSet {
solid TRUE
coord Coordinate {
point [
1.289 -0.386 0,
1.289 -2.252 0,
1.277 -0.376 0,
]
}
coordIndex [
0
1
2
-1
]
}
}
Shape {
appearance USE COL_BackColor
geometry IndexedFaceSet {
solid TRUE
coord Coordinate {
point [
1.304 -2.246 0,
1.289 -2.252 0,
1.289 -0.386 0,
]
}
coordIndex [
0
1
2
-1
]
}
}
Shape {
appearance USE COL_BackColor
geometry IndexedFaceSet {
solid TRUE
coord Coordinate {
point [
1.304 -0.392 0,
1.304 -2.246 0,
1.289 -0.386 0,
]
}
coordIndex [
0
1
2
-1
]
}
}
Shape {
appearance USE COL_BackColor
geometry IndexedFaceSet {
solid TRUE
coord Coordinate {
point [
1.319 -2.244 0,
1.304 -2.246 0,
1.304 -0.392 0,
]
}
coordIndex [
0
1
2
-1
]
}
}
Shape {
appearance USE COL_BackColor
geometry IndexedFaceSet {
solid TRUE
coord Coordinate {
point [
1.319 -0.394 0,
1.319 -2.244 0,
1.304 -0.392 0,
]
}
coordIndex [
0
1
2
-1
]
}
}
Shape {
appearance USE COL_BackColor
geometry IndexedFaceSet {
solid TRUE
coord Coordinate {
point [
1.334 -2.246 0,
1.319 -2.244 0,
1.319 -0.394 0,
]
}
coordIndex [
0
1
2
-1
]
}
}
Shape {
appearance USE COL_BackColor
geometry IndexedFaceSet {
solid TRUE
coord Coordinate {
point [
1.334 -0.392 0,
1.334 -2.246 0,
1.319 -0.394 0,
]
}
coordIndex [
0
1
2
-1
]
}
}
Shape {
appearance USE COL_BackColor
geometry IndexedFaceSet {
solid TRUE
coord Coordinate {
point [
1.348 -2.252 0,
1.334 -2.246 0,
1.334 -0.392 0,
]
}
coordIndex [
0
1
2
-1
]
}
}
Shape {
appearance USE COL_BackColor
geometry IndexedFaceSet {
solid TRUE
coord Coordinate {
point [
1.348 -0.386 0,
1.348 -2.252 0,
1.334 -0.392 0,
]
}
coordIndex [
0
1
2
-1
]
}
}
Shape {
appearance USE COL_BackColor
geometry IndexedFaceSet {
solid TRUE
coord Coordinate {
point [
1.361 -2.261 0,
1.348 -2.252 0,
1.348 -0.386 0,
]
}
coordIndex [
0
1
2
-1
]
}
}
Shape {
appearance USE COL_BackColor
geometry IndexedFaceSet {
solid TRUE
coord Coordinate {
point [
1.361 -0.376 0,
1.361 -2.261 0,
1.348 -0.386 0,
]
}
coordIndex [
0
1
2
-1
]
}
}
Shape {
appearance USE COL_BackColor
geometry IndexedFaceSet {
solid TRUE
coord Coordinate {
point [
1.37 -2.274 0,
1.361 -2.261 0,
1.361 -0.376 0,
]
}
coordIndex [
0
1
2
-1
]
}
}
Shape {
appearance USE COL_BackColor
geometry IndexedFaceSet {
solid TRUE
coord Coordinate {
point [
1.37 -0.364 0,
1.37 -2.274 0,
1.361 -0.376 0,
]
}
coordIndex [
0
1
2
-1
]
}
}
Shape {
appearance USE COL_BackColor
geometry IndexedFaceSet {
solid TRUE
coord Coordinate {
point [
1.376 -2.288 0,
1.37 -2.274 0,
1.37 -0.364 0,
]
}
coordIndex [
0
1
2
-1
]
}
}
Shape {
appearance USE COL_BackColor
geometry IndexedFaceSet {
solid TRUE
coord Coordinate {
point [
1.376 -0.35 0,
1.376 -2.288 0,
1.37 -0.364 0,
]
}
coordIndex [
0
1
2
-1
]
}
}
Shape {
appearance USE COL_BackColor
geometry IndexedFaceSet {
solid TRUE
coord Coordinate {
point [
1.378 -2.303 0,
1.376 -2.288 0,
1.376 -0.35 0,
]
}
coordIndex [
0
1
2
-1
]
}
}
Shape {
appearance USE COL_BackColor
geometry IndexedFaceSet {
solid TRUE
coord Coordinate {
point [
1.378 -0.335 0,
1.378 -2.303 0,
1.376 -0.35 0,
]
}
coordIndex [
0
1
2
-1
]
}
}
Shape {
appearance USE COL_BackColor
geometry IndexedFaceSet {
solid TRUE
coord Coordinate {
point [
2.244 -1.319 0,
2.246 -1.334 0,
1.378 -0.335 0,
]
}
coordIndex [
0
1
2
-1
]
}
}
Shape {
appearance USE COL_BackColor
geometry IndexedFaceSet {
solid TRUE
coord Coordinate {
point [
2.638 0 -1.969,
2.638 -2.638 -1.969,
2.638 -2.638 0,
2.638 0 0,
]
}
coordIndex [
0
1
2
3
-1
]
}
}
Shape {
appearance USE COL_Color_I04
geometry IndexedFaceSet {
solid TRUE
coord Coordinate {
point [
0 -2.638 0,
0 0 0,
0 0 -1.969,
0 -2.638 -1.969,
]
}
coordIndex [
0
1
2
3
-1
]
}
}
Shape {
appearance USE COL_BackColor
geometry IndexedFaceSet {
solid TRUE
coord Coordinate {
point [
0 -2.638 -1.969,
0 0 -1.969,
0 0 0,
0 -2.638 0,
]
}
coordIndex [
0
1
2
3
-1
]
}
}
Shape {
appearance USE COL_BackColor
geometry IndexedFaceSet {
solid TRUE
coord Coordinate {
point [
1.319 -0.443 -1.969,
2.638 0 -1.969,
1.092 -0.473 -1.969,
]
}
coordIndex [
0
1
2
-1
]
}
}
Shape {
appearance USE COL_BackColor
geometry IndexedFaceSet {
solid TRUE
coord Coordinate {
point [
1.546 -0.473 -1.969,
2.638 0 -1.969,
1.319 -0.443 -1.969,
]
}
coordIndex [
0
1
2
-1
]
}
}
Shape {
appearance USE COL_BackColor
geometry IndexedFaceSet {
solid TRUE
coord Coordinate {
point [
1.757 -0.56 -1.969,
2.638 0 -1.969,
1.546 -0.473 -1.969,
]
}
coordIndex [
0
1
2
-1
]
}
}
Shape {
appearance USE COL_BackColor
geometry IndexedFaceSet {
solid TRUE
coord Coordinate {
point [
1.938 -0.699 -1.969,
2.638 0 -1.969,
1.757 -0.56 -1.969,
]
}
coordIndex [
0
1
2
-1
]
}
}
Shape {
appearance USE COL_BackColor
geometry IndexedFaceSet {
solid TRUE
coord Coordinate {
point [
2.078 -0.881 -1.969,
2.638 0 -1.969,
1.938 -0.699 -1.969,
]
}
coordIndex [
0
1
2
-1
]
}
}
Shape {
appearance USE COL_BackColor
geometry IndexedFaceSet {
solid TRUE
coord Coordinate {
point [
2.165 -1.092 -1.969,
2.638 0 -1.969,
2.078 -0.881 -1.969,
]
}
coordIndex [
0
1
2
-1
]
}
}
Shape {
appearance USE COL_BackColor
geometry IndexedFaceSet {
solid TRUE
coord Coordinate {
point [
2.195 -1.319 -1.969,
2.638 0 -1.969,
2.165 -1.092 -1.969,
]
}
coordIndex [
0
1
2
-1
]
}
}
Shape {
appearance USE COL_ForegroundColor
geometry IndexedLineSet {
coord Coordinate {
point [ 0 -2.638 0,
0 0 0,
]
}
coordIndex [ 0 1 -1]
}
}
Shape {
appearance USE COL_ForegroundColor
geometry IndexedLineSet {
coord Coordinate {
point [ 2.638 -2.638 0,
0 -2.638 0,
]
}
coordIndex [ 0 1 -1]
}
}
Shape {
appearance USE COL_ForegroundColor
geometry IndexedLineSet {
coord Coordinate {
point [ 2.638 0 0,
2.638 -2.638 0,
]
}
coordIndex [ 0 1 -1]
}
}
Shape {
appearance USE COL_ForegroundColor
geometry IndexedLineSet {
coord Coordinate {
point [ 0 0 0,
2.638 0 0,
]
}
coordIndex [ 0 1 -1]
}
}
Shape {
appearance USE COL_ForegroundColor
geometry IndexedLineSet {
coord Coordinate {
point [ 0 0 0,
0 0 -1.969,
]
}
coordIndex [ 0 1 -1]
}
}
Shape {
appearance USE COL_ForegroundColor
geometry IndexedLineSet {
coord Coordinate {
point [ 0 -2.638 -1.969,
0 0 -1.969,
]
}
coordIndex [ 0 1 -1]
}
}
Shape {
appearance USE COL_ForegroundColor
geometry IndexedLineSet {
coord Coordinate {
point [ 2.638 -2.638 -1.969,
0 -2.638 -1.969,
]
}
coordIndex [ 0 1 -1]
}
}
Shape {
appearance USE COL_ForegroundColor
geometry IndexedLineSet {
coord Coordinate {
point [ 2.638 0 -1.969,
2.638 -2.638 -1.969,
]
}
coordIndex [ 0 1 -1]
}
}
Shape {
appearance USE COL_ForegroundColor
geometry IndexedLineSet {
coord Coordinate {
point [ 0 0 -1.969,
2.638 0 -1.969,
]
}
coordIndex [ 0 1 -1]
}
}
Shape {
appearance USE COL_ForegroundColor
geometry IndexedLineSet {
coord Coordinate {
point [ 2.638 0 0,
2.638 0 -1.969,
]
}
coordIndex [ 0 1 -1]
}
}
Shape {
appearance USE COL_ForegroundColor
geometry IndexedLineSet {
coord Coordinate {
point [ 2.638 -2.638 0,
2.638 -2.638 -1.969,
]
}
coordIndex [ 0 1 -1]
}
}
Shape {
appearance USE COL_ForegroundColor
geometry IndexedLineSet {
coord Coordinate {
point [ 0 -2.638 0,
0 -2.638 -1.969,
]
}
coordIndex [ 0 1 -1]
}
}
Shape {
appearance USE COL_ForegroundColor
geometry IndexedLineSet {
coord Coordinate {
point [ 2.195 -1.319 -1.969,
2.165 -1.092 -1.969,
]
}
coordIndex [ 0 1 -1]
}
}
Shape {
appearance USE COL_ForegroundColor
geometry IndexedLineSet {
coord Coordinate {
point [ 2.165 -1.546 -1.969,
2.195 -1.319 -1.969,
]
}
coordIndex [ 0 1 -1]
}
}
Shape {
appearance USE COL_ForegroundColor
geometry IndexedLineSet {
coord Coordinate {
point [ 2.078 -1.757 -1.969,
2.165 -1.546 -1.969,
]
}
coordIndex [ 0 1 -1]
}
}
Shape {
appearance USE COL_ForegroundColor
geometry IndexedLineSet {
coord Coordinate {
point [ 1.938 -1.938 -1.969,
2.078 -1.757 -1.969,
]
}
coordIndex [ 0 1 -1]
}
}
Shape {
appearance USE COL_ForegroundColor
geometry IndexedLineSet {
coord Coordinate {
point [ 1.757 -2.078 -1.969,
1.938 -1.938 -1.969,
]
}
coordIndex [ 0 1 -1]
}
}
Shape {
appearance USE COL_ForegroundColor
geometry IndexedLineSet {
coord Coordinate {
point [ 1.546 -2.165 -1.969,
1.757 -2.078 -1.969,
]
}
coordIndex [ 0 1 -1]
}
}
Shape {
appearance USE COL_ForegroundColor
geometry IndexedLineSet {
coord Coordinate {
point [ 1.319 -2.195 -1.969,
1.546 -2.165 -1.969,
]
}
coordIndex [ 0 1 -1]
}
}
Shape {
appearance USE COL_ForegroundColor
geometry IndexedLineSet {
coord Coordinate {
point [ 1.092 -2.165 -1.969,
1.319 -2.195 -1.969,
]
}
coordIndex [ 0 1 -1]
}
}
Shape {
appearance USE COL_ForegroundColor
geometry IndexedLineSet {
coord Coordinate {
point [ 0.881 -2.078 -1.969,
1.092 -2.165 -1.969,
]
}
coordIndex [ 0 1 -1]
}
}
Shape {
appearance USE COL_ForegroundColor
geometry IndexedLineSet {
coord Coordinate {
point [ 0.699 -1.938 -1.969,
0.881 -2.078 -1.969,
]
}
coordIndex [ 0 1 -1]
}
}
Shape {
appearance USE COL_ForegroundColor
geometry IndexedLineSet {
coord Coordinate {
point [ 0.56 -1.757 -1.969,
0.699 -1.938 -1.969,
]
}
coordIndex [ 0 1 -1]
}
}
Shape {
appearance USE COL_ForegroundColor
geometry IndexedLineSet {
coord Coordinate {
point [ 0.473 -1.546 -1.969,
0.56 -1.757 -1.969,
]
}
coordIndex [ 0 1 -1]
}
}
Shape {
appearance USE COL_ForegroundColor
geometry IndexedLineSet {
coord Coordinate {
point [ 0.443 -1.319 -1.969,
0.473 -1.546 -1.969,
]
}
coordIndex [ 0 1 -1]
}
}
Shape {
appearance USE COL_ForegroundColor
geometry IndexedLineSet {
coord Coordinate {
point [ 0.473 -1.092 -1.969,
0.443 -1.319 -1.969,
]
}
coordIndex [ 0 1 -1]
}
}
Shape {
appearance USE COL_ForegroundColor
geometry IndexedLineSet {
coord Coordinate {
point [ 0.56 -0.881 -1.969,
0.473 -1.092 -1.969,
]
}
coordIndex [ 0 1 -1]
}
}
Shape {
appearance USE COL_ForegroundColor
geometry IndexedLineSet {
coord Coordinate {
point [ 0.699 -0.699 -1.969,
0.56 -0.881 -1.969,
]
}
coordIndex [ 0 1 -1]
}
}
Shape {
appearance USE COL_ForegroundColor
geometry IndexedLineSet {
coord Coordinate {
point [ 0.881 -0.56 -1.969,
0.699 -0.699 -1.969,
]
}
coordIndex [ 0 1 -1]
}
}
Shape {
appearance USE COL_ForegroundColor
geometry IndexedLineSet {
coord Coordinate {
point [ 1.092 -0.473 -1.969,
0.881 -0.56 -1.969,
]
}
coordIndex [ 0 1 -1]
}
}
Shape {
appearance USE COL_ForegroundColor
geometry IndexedLineSet {
coord Coordinate {
point [ 1.319 -0.443 -1.969,
1.092 -0.473 -1.969,
]
}
coordIndex [ 0 1 -1]
}
}
Shape {
appearance USE COL_ForegroundColor
geometry IndexedLineSet {
coord Coordinate {
point [ 1.546 -0.473 -1.969,
1.319 -0.443 -1.969,
]
}
coordIndex [ 0 1 -1]
}
}
Shape {
appearance USE COL_ForegroundColor
geometry IndexedLineSet {
coord Coordinate {
point [ 1.757 -0.56 -1.969,
1.546 -0.473 -1.969,
]
}
coordIndex [ 0 1 -1]
}
}
Shape {
appearance USE COL_ForegroundColor
geometry IndexedLineSet {
coord Coordinate {
point [ 1.938 -0.699 -1.969,
1.757 -0.56 -1.969,
]
}
coordIndex [ 0 1 -1]
}
}
Shape {
appearance USE COL_ForegroundColor
geometry IndexedLineSet {
coord Coordinate {
point [ 2.078 -0.881 -1.969,
1.938 -0.699 -1.969,
]
}
coordIndex [ 0 1 -1]
}
}
Shape {
appearance USE COL_ForegroundColor
geometry IndexedLineSet {
coord Coordinate {
point [ 2.165 -1.092 -1.969,
2.078 -0.881 -1.969,
]
}
coordIndex [ 0 1 -1]
}
}
Viewpoint {
position 5.054 7.628 -4.464
orientation -0.980019 0.158535 -0.12012 1.864159
fieldOfView 0.61087
description "Camera"
jump FALSE
}
