#VRML V2.0 utf8
Transform {
translation 0.118 0.078 -0.122
scale 1 1 1
children [DEF CMP_Component_3 Group {
children [
Shape {
appearance DEF COL_Color_E01 Appearance {
material Material { diffuseColor 1 1 0.8 }
}
geometry IndexedFaceSet {
convex FALSE
solid TRUE
coord Coordinate {
point [
0.226 0.171 0.004,
0.209 0.197 0.004,
0.185 0.217 0.004,
0.158 0.231 0.004,
0.127 0.237 0.004,
0.096 0.236 0.004,
0.067 0.226 0.004,
0.041 0.209 0.004,
0.02 0.185 0.004,
0.006 0.158 0.004,
0 0.127 0.004,
0.002 0.096 0.004,
0.012 0.067 0.004,
0.029 0.041 0.004,
0.052 0.02 0.004,
0.08 0.006 0.004,
0.11 0 0.004,
0.141 0.002 0.004,
0.171 0.012 0.004,
0.197 0.029 0.004,
0.217 0.052 0.004,
0.231 0.08 0.004,
0.237 0.11 0.004,
0.236 0.141 0.004,
]
}
coordIndex [
0
1
2
3
4
5
6
7
8
9
10
11
12
13
14
15
16
17
18
19
20
21
22
23
-1
]
}
}
Shape {
appearance DEF COL_BackColor Appearance {
material Material { diffuseColor 0.643 0.698 0.733 }
}
geometry IndexedFaceSet {
convex FALSE
solid TRUE
coord Coordinate {
point [
0.236 0.141 0.004,
0.237 0.11 0.004,
0.231 0.08 0.004,
0.217 0.052 0.004,
0.197 0.029 0.004,
0.171 0.012 0.004,
0.141 0.002 0.004,
0.11 0 0.004,
0.08 0.006 0.004,
0.052 0.02 0.004,
0.029 0.041 0.004,
0.012 0.067 0.004,
0.002 0.096 0.004,
0 0.127 0.004,
0.006 0.158 0.004,
0.02 0.185 0.004,
0.041 0.209 0.004,
0.067 0.226 0.004,
0.096 0.236 0.004,
0.127 0.237 0.004,
0.158 0.231 0.004,
0.185 0.217 0.004,
0.209 0.197 0.004,
0.226 0.171 0.004,
]
}
coordIndex [
0
1
2
3
4
5
6
7
8
9
10
11
12
13
14
15
16
17
18
19
20
21
22
23
-1
]
}
}
Shape {
appearance USE COL_Color_E01
geometry IndexedFaceSet {
convex FALSE
solid TRUE
coord Coordinate {
point [
0.236 0.141 0.004,
0.237 0.11 0.004,
0.237 0.11 0,
0.236 0.141 0,
]
}
coordIndex [
0
1
2
3
-1
]
}
}
Shape {
appearance USE COL_BackColor
geometry IndexedFaceSet {
convex FALSE
solid TRUE
coord Coordinate {
point [
0.236 0.141 0,
0.237 0.11 0,
0.237 0.11 0.004,
0.236 0.141 0.004,
]
}
coordIndex [
0
1
2
3
-1
]
}
}
Shape {
appearance USE COL_Color_E01
geometry IndexedFaceSet {
convex FALSE
solid TRUE
coord Coordinate {
point [
0.209 0.197 0,
0.226 0.171 0,
0.236 0.141 0,
0.237 0.11 0,
0.231 0.08 0,
0.217 0.052 0,
0.197 0.029 0,
0.171 0.012 0,
0.141 0.002 0,
0.11 0 0,
0.08 0.006 0,
0.052 0.02 0,
0.029 0.041 0,
0.012 0.067 0,
0.002 0.096 0,
0 0.127 0,
0.006 0.158 0,
0.02 0.185 0,
0.041 0.209 0,
0.067 0.226 0,
0.096 0.236 0,
0.127 0.237 0,
0.158 0.231 0,
0.185 0.217 0,
]
}
coordIndex [
0
1
2
3
4
5
6
7
8
9
10
11
12
13
14
15
16
17
18
19
20
21
22
23
-1
]
}
}
Shape {
appearance USE COL_Color_E01
geometry IndexedFaceSet {
convex FALSE
solid TRUE
coord Coordinate {
point [
0.209 0.197 0.004,
0.226 0.171 0.004,
0.226 0.171 0,
0.209 0.197 0,
]
}
coordIndex [
0
1
2
3
-1
]
}
}
Shape {
appearance USE COL_BackColor
geometry IndexedFaceSet {
convex FALSE
solid TRUE
coord Coordinate {
point [
0.209 0.197 0,
0.226 0.171 0,
0.226 0.171 0.004,
0.209 0.197 0.004,
]
}
coordIndex [
0
1
2
3
-1
]
}
}
Shape {
appearance USE COL_BackColor
geometry IndexedFaceSet {
convex FALSE
solid TRUE
coord Coordinate {
point [
0.185 0.217 0,
0.158 0.231 0,
0.127 0.237 0,
0.096 0.236 0,
0.067 0.226 0,
0.041 0.209 0,
0.02 0.185 0,
0.006 0.158 0,
0 0.127 0,
0.002 0.096 0,
0.012 0.067 0,
0.029 0.041 0,
0.052 0.02 0,
0.08 0.006 0,
0.11 0 0,
0.141 0.002 0,
0.171 0.012 0,
0.197 0.029 0,
0.217 0.052 0,
0.231 0.08 0,
0.237 0.11 0,
0.236 0.141 0,
0.226 0.171 0,
0.209 0.197 0,
]
}
coordIndex [
0
1
2
3
4
5
6
7
8
9
10
11
12
13
14
15
16
17
18
19
20
21
22
23
-1
]
}
}
Shape {
appearance USE COL_Color_E01
geometry IndexedFaceSet {
convex FALSE
solid TRUE
coord Coordinate {
point [
0.158 0.231 0.004,
0.185 0.217 0.004,
0.185 0.217 0,
0.158 0.231 0,
]
}
coordIndex [
0
1
2
3
-1
]
}
}
Shape {
appearance USE COL_BackColor
geometry IndexedFaceSet {
convex FALSE
solid TRUE
coord Coordinate {
point [
0.158 0.231 0,
0.185 0.217 0,
0.185 0.217 0.004,
0.158 0.231 0.004,
]
}
coordIndex [
0
1
2
3
-1
]
}
}
Shape {
appearance USE COL_Color_E01
geometry IndexedFaceSet {
convex FALSE
solid TRUE
coord Coordinate {
point [
0.185 0.217 0.004,
0.209 0.197 0.004,
0.209 0.197 0,
0.185 0.217 0,
]
}
coordIndex [
0
1
2
3
-1
]
}
}
Shape {
appearance USE COL_BackColor
geometry IndexedFaceSet {
convex FALSE
solid TRUE
coord Coordinate {
point [
0.185 0.217 0,
0.209 0.197 0,
0.209 0.197 0.004,
0.185 0.217 0.004,
]
}
coordIndex [
0
1
2
3
-1
]
}
}
Shape {
appearance USE COL_Color_E01
geometry IndexedFaceSet {
convex FALSE
solid TRUE
coord Coordinate {
point [
0.127 0.237 0.004,
0.158 0.231 0.004,
0.158 0.231 0,
0.127 0.237 0,
]
}
coordIndex [
0
1
2
3
-1
]
}
}
Shape {
appearance USE COL_BackColor
geometry IndexedFaceSet {
convex FALSE
solid TRUE
coord Coordinate {
point [
0.127 0.237 0,
0.158 0.231 0,
0.158 0.231 0.004,
0.127 0.237 0.004,
]
}
coordIndex [
0
1
2
3
-1
]
}
}
Shape {
appearance USE COL_Color_E01
geometry IndexedFaceSet {
convex FALSE
solid TRUE
coord Coordinate {
point [
0.096 0.236 0.004,
0.127 0.237 0.004,
0.127 0.237 0,
0.096 0.236 0,
]
}
coordIndex [
0
1
2
3
-1
]
}
}
Shape {
appearance USE COL_BackColor
geometry IndexedFaceSet {
convex FALSE
solid TRUE
coord Coordinate {
point [
0.096 0.236 0,
0.127 0.237 0,
0.127 0.237 0.004,
0.096 0.236 0.004,
]
}
coordIndex [
0
1
2
3
-1
]
}
}
Shape {
appearance USE COL_Color_E01
geometry IndexedFaceSet {
convex FALSE
solid TRUE
coord Coordinate {
point [
0.067 0.226 0.004,
0.096 0.236 0.004,
0.096 0.236 0,
0.067 0.226 0,
]
}
coordIndex [
0
1
2
3
-1
]
}
}
Shape {
appearance USE COL_BackColor
geometry IndexedFaceSet {
convex FALSE
solid TRUE
coord Coordinate {
point [
0.067 0.226 0,
0.096 0.236 0,
0.096 0.236 0.004,
0.067 0.226 0.004,
]
}
coordIndex [
0
1
2
3
-1
]
}
}
Shape {
appearance USE COL_Color_E01
geometry IndexedFaceSet {
convex FALSE
solid TRUE
coord Coordinate {
point [
0.041 0.209 0.004,
0.067 0.226 0.004,
0.067 0.226 0,
0.041 0.209 0,
]
}
coordIndex [
0
1
2
3
-1
]
}
}
Shape {
appearance USE COL_BackColor
geometry IndexedFaceSet {
convex FALSE
solid TRUE
coord Coordinate {
point [
0.041 0.209 0,
0.067 0.226 0,
0.067 0.226 0.004,
0.041 0.209 0.004,
]
}
coordIndex [
0
1
2
3
-1
]
}
}
Shape {
appearance USE COL_Color_E01
geometry IndexedFaceSet {
convex FALSE
solid TRUE
coord Coordinate {
point [
0.02 0.185 0.004,
0.041 0.209 0.004,
0.041 0.209 0,
0.02 0.185 0,
]
}
coordIndex [
0
1
2
3
-1
]
}
}
Shape {
appearance USE COL_BackColor
geometry IndexedFaceSet {
convex FALSE
solid TRUE
coord Coordinate {
point [
0.02 0.185 0,
0.041 0.209 0,
0.041 0.209 0.004,
0.02 0.185 0.004,
]
}
coordIndex [
0
1
2
3
-1
]
}
}
Shape {
appearance USE COL_Color_E01
geometry IndexedFaceSet {
convex FALSE
solid TRUE
coord Coordinate {
point [
0.006 0.158 0.004,
0.02 0.185 0.004,
0.02 0.185 0,
0.006 0.158 0,
]
}
coordIndex [
0
1
2
3
-1
]
}
}
Shape {
appearance USE COL_BackColor
geometry IndexedFaceSet {
convex FALSE
solid TRUE
coord Coordinate {
point [
0.006 0.158 0,
0.02 0.185 0,
0.02 0.185 0.004,
0.006 0.158 0.004,
]
}
coordIndex [
0
1
2
3
-1
]
}
}
Shape {
appearance USE COL_Color_E01
geometry IndexedFaceSet {
convex FALSE
solid TRUE
coord Coordinate {
point [
0 0.127 0.004,
0.006 0.158 0.004,
0.006 0.158 0,
0 0.127 0,
]
}
coordIndex [
0
1
2
3
-1
]
}
}
Shape {
appearance USE COL_BackColor
geometry IndexedFaceSet {
convex FALSE
solid TRUE
coord Coordinate {
point [
0 0.127 0,
0.006 0.158 0,
0.006 0.158 0.004,
0 0.127 0.004,
]
}
coordIndex [
0
1
2
3
-1
]
}
}
Shape {
appearance USE COL_Color_E01
geometry IndexedFaceSet {
convex FALSE
solid TRUE
coord Coordinate {
point [
0.002 0.096 0.004,
0 0.127 0.004,
0 0.127 0,
0.002 0.096 0,
]
}
coordIndex [
0
1
2
3
-1
]
}
}
Shape {
appearance USE COL_BackColor
geometry IndexedFaceSet {
convex FALSE
solid TRUE
coord Coordinate {
point [
0.002 0.096 0,
0 0.127 0,
0 0.127 0.004,
0.002 0.096 0.004,
]
}
coordIndex [
0
1
2
3
-1
]
}
}
Shape {
appearance USE COL_Color_E01
geometry IndexedFaceSet {
convex FALSE
solid TRUE
coord Coordinate {
point [
0.012 0.067 0.004,
0.002 0.096 0.004,
0.002 0.096 0,
0.012 0.067 0,
]
}
coordIndex [
0
1
2
3
-1
]
}
}
Shape {
appearance USE COL_BackColor
geometry IndexedFaceSet {
convex FALSE
solid TRUE
coord Coordinate {
point [
0.012 0.067 0,
0.002 0.096 0,
0.002 0.096 0.004,
0.012 0.067 0.004,
]
}
coordIndex [
0
1
2
3
-1
]
}
}
Shape {
appearance USE COL_Color_E01
geometry IndexedFaceSet {
convex FALSE
solid TRUE
coord Coordinate {
point [
0.029 0.041 0.004,
0.012 0.067 0.004,
0.012 0.067 0,
0.029 0.041 0,
]
}
coordIndex [
0
1
2
3
-1
]
}
}
Shape {
appearance USE COL_BackColor
geometry IndexedFaceSet {
convex FALSE
solid TRUE
coord Coordinate {
point [
0.029 0.041 0,
0.012 0.067 0,
0.012 0.067 0.004,
0.029 0.041 0.004,
]
}
coordIndex [
0
1
2
3
-1
]
}
}
Shape {
appearance USE COL_Color_E01
geometry IndexedFaceSet {
convex FALSE
solid TRUE
coord Coordinate {
point [
0.052 0.02 0.004,
0.029 0.041 0.004,
0.029 0.041 0,
0.052 0.02 0,
]
}
coordIndex [
0
1
2
3
-1
]
}
}
Shape {
appearance USE COL_BackColor
geometry IndexedFaceSet {
convex FALSE
solid TRUE
coord Coordinate {
point [
0.052 0.02 0,
0.029 0.041 0,
0.029 0.041 0.004,
0.052 0.02 0.004,
]
}
coordIndex [
0
1
2
3
-1
]
}
}
Shape {
appearance USE COL_Color_E01
geometry IndexedFaceSet {
convex FALSE
solid TRUE
coord Coordinate {
point [
0.08 0.006 0.004,
0.052 0.02 0.004,
0.052 0.02 0,
0.08 0.006 0,
]
}
coordIndex [
0
1
2
3
-1
]
}
}
Shape {
appearance USE COL_BackColor
geometry IndexedFaceSet {
convex FALSE
solid TRUE
coord Coordinate {
point [
0.08 0.006 0,
0.052 0.02 0,
0.052 0.02 0.004,
0.08 0.006 0.004,
]
}
coordIndex [
0
1
2
3
-1
]
}
}
Shape {
appearance USE COL_Color_E01
geometry IndexedFaceSet {
convex FALSE
solid TRUE
coord Coordinate {
point [
0.11 0 0.004,
0.08 0.006 0.004,
0.08 0.006 0,
0.11 0 0,
]
}
coordIndex [
0
1
2
3
-1
]
}
}
Shape {
appearance USE COL_BackColor
geometry IndexedFaceSet {
convex FALSE
solid TRUE
coord Coordinate {
point [
0.11 0 0,
0.08 0.006 0,
0.08 0.006 0.004,
0.11 0 0.004,
]
}
coordIndex [
0
1
2
3
-1
]
}
}
Shape {
appearance USE COL_Color_E01
geometry IndexedFaceSet {
convex FALSE
solid TRUE
coord Coordinate {
point [
0.141 0.002 0.004,
0.11 0 0.004,
0.11 0 0,
0.141 0.002 0,
]
}
coordIndex [
0
1
2
3
-1
]
}
}
Shape {
appearance USE COL_BackColor
geometry IndexedFaceSet {
convex FALSE
solid TRUE
coord Coordinate {
point [
0.141 0.002 0,
0.11 0 0,
0.11 0 0.004,
0.141 0.002 0.004,
]
}
coordIndex [
0
1
2
3
-1
]
}
}
Shape {
appearance USE COL_Color_E01
geometry IndexedFaceSet {
convex FALSE
solid TRUE
coord Coordinate {
point [
0.171 0.012 0.004,
0.141 0.002 0.004,
0.141 0.002 0,
0.171 0.012 0,
]
}
coordIndex [
0
1
2
3
-1
]
}
}
Shape {
appearance USE COL_BackColor
geometry IndexedFaceSet {
convex FALSE
solid TRUE
coord Coordinate {
point [
0.171 0.012 0,
0.141 0.002 0,
0.141 0.002 0.004,
0.171 0.012 0.004,
]
}
coordIndex [
0
1
2
3
-1
]
}
}
Shape {
appearance USE COL_Color_E01
geometry IndexedFaceSet {
convex FALSE
solid TRUE
coord Coordinate {
point [
0.197 0.029 0.004,
0.171 0.012 0.004,
0.171 0.012 0,
0.197 0.029 0,
]
}
coordIndex [
0
1
2
3
-1
]
}
}
Shape {
appearance USE COL_BackColor
geometry IndexedFaceSet {
convex FALSE
solid TRUE
coord Coordinate {
point [
0.197 0.029 0,
0.171 0.012 0,
0.171 0.012 0.004,
0.197 0.029 0.004,
]
}
coordIndex [
0
1
2
3
-1
]
}
}
Shape {
appearance USE COL_Color_E01
geometry IndexedFaceSet {
convex FALSE
solid TRUE
coord Coordinate {
point [
0.217 0.052 0.004,
0.197 0.029 0.004,
0.197 0.029 0,
0.217 0.052 0,
]
}
coordIndex [
0
1
2
3
-1
]
}
}
Shape {
appearance USE COL_BackColor
geometry IndexedFaceSet {
convex FALSE
solid TRUE
coord Coordinate {
point [
0.217 0.052 0,
0.197 0.029 0,
0.197 0.029 0.004,
0.217 0.052 0.004,
]
}
coordIndex [
0
1
2
3
-1
]
}
}
Shape {
appearance USE COL_Color_E01
geometry IndexedFaceSet {
convex FALSE
solid TRUE
coord Coordinate {
point [
0.231 0.08 0.004,
0.217 0.052 0.004,
0.217 0.052 0,
0.231 0.08 0,
]
}
coordIndex [
0
1
2
3
-1
]
}
}
Shape {
appearance USE COL_BackColor
geometry IndexedFaceSet {
convex FALSE
solid TRUE
coord Coordinate {
point [
0.231 0.08 0,
0.217 0.052 0,
0.217 0.052 0.004,
0.231 0.08 0.004,
]
}
coordIndex [
0
1
2
3
-1
]
}
}
Shape {
appearance USE COL_Color_E01
geometry IndexedFaceSet {
convex FALSE
solid TRUE
coord Coordinate {
point [
0.237 0.11 0.004,
0.231 0.08 0.004,
0.231 0.08 0,
0.237 0.11 0,
]
}
coordIndex [
0
1
2
3
-1
]
}
}
Shape {
appearance USE COL_BackColor
geometry IndexedFaceSet {
convex FALSE
solid TRUE
coord Coordinate {
point [
0.237 0.11 0,
0.231 0.08 0,
0.231 0.08 0.004,
0.237 0.11 0.004,
]
}
coordIndex [
0
1
2
3
-1
]
}
}
Shape {
appearance USE COL_Color_E01
geometry IndexedFaceSet {
convex FALSE
solid TRUE
coord Coordinate {
point [
0.226 0.171 0.004,
0.236 0.141 0.004,
0.236 0.141 0,
0.226 0.171 0,
]
}
coordIndex [
0
1
2
3
-1
]
}
}
Shape {
appearance USE COL_BackColor
geometry IndexedFaceSet {
convex FALSE
solid TRUE
coord Coordinate {
point [
0.226 0.171 0,
0.236 0.141 0,
0.236 0.141 0.004,
0.226 0.171 0.004,
]
}
coordIndex [
0
1
2
3
-1
]
}
}
Shape {
appearance DEF COL_ForegroundColor Appearance {
material Material { diffuseColor 0 0 0
}
}
geometry IndexedLineSet {
coord Coordinate {
point [ 0.226 0.171 0.004,
0.209 0.197 0.004,
]
}
coordIndex [ 0 1 -1]
}
}
Shape {
appearance USE COL_ForegroundColor
geometry IndexedLineSet {
coord Coordinate {
point [ 0.236 0.141 0.004,
0.226 0.171 0.004,
]
}
coordIndex [ 0 1 -1]
}
}
Shape {
appearance USE COL_ForegroundColor
geometry IndexedLineSet {
coord Coordinate {
point [ 0.237 0.11 0.004,
0.236 0.141 0.004,
]
}
coordIndex [ 0 1 -1]
}
}
Shape {
appearance USE COL_ForegroundColor
geometry IndexedLineSet {
coord Coordinate {
point [ 0.231 0.08 0.004,
0.237 0.11 0.004,
]
}
coordIndex [ 0 1 -1]
}
}
Shape {
appearance USE COL_ForegroundColor
geometry IndexedLineSet {
coord Coordinate {
point [ 0.217 0.052 0.004,
0.231 0.08 0.004,
]
}
coordIndex [ 0 1 -1]
}
}
Shape {
appearance USE COL_ForegroundColor
geometry IndexedLineSet {
coord Coordinate {
point [ 0.197 0.029 0.004,
0.217 0.052 0.004,
]
}
coordIndex [ 0 1 -1]
}
}
Shape {
appearance USE COL_ForegroundColor
geometry IndexedLineSet {
coord Coordinate {
point [ 0.171 0.012 0.004,
0.197 0.029 0.004,
]
}
coordIndex [ 0 1 -1]
}
}
Shape {
appearance USE COL_ForegroundColor
geometry IndexedLineSet {
coord Coordinate {
point [ 0.141 0.002 0.004,
0.171 0.012 0.004,
]
}
coordIndex [ 0 1 -1]
}
}
Shape {
appearance USE COL_ForegroundColor
geometry IndexedLineSet {
coord Coordinate {
point [ 0.11 0 0.004,
0.141 0.002 0.004,
]
}
coordIndex [ 0 1 -1]
}
}
Shape {
appearance USE COL_ForegroundColor
geometry IndexedLineSet {
coord Coordinate {
point [ 0.08 0.006 0.004,
0.11 0 0.004,
]
}
coordIndex [ 0 1 -1]
}
}
Shape {
appearance USE COL_ForegroundColor
geometry IndexedLineSet {
coord Coordinate {
point [ 0.052 0.02 0.004,
0.08 0.006 0.004,
]
}
coordIndex [ 0 1 -1]
}
}
Shape {
appearance USE COL_ForegroundColor
geometry IndexedLineSet {
coord Coordinate {
point [ 0.029 0.041 0.004,
0.052 0.02 0.004,
]
}
coordIndex [ 0 1 -1]
}
}
Shape {
appearance USE COL_ForegroundColor
geometry IndexedLineSet {
coord Coordinate {
point [ 0.012 0.067 0.004,
0.029 0.041 0.004,
]
}
coordIndex [ 0 1 -1]
}
}
Shape {
appearance USE COL_ForegroundColor
geometry IndexedLineSet {
coord Coordinate {
point [ 0.002 0.096 0.004,
0.012 0.067 0.004,
]
}
coordIndex [ 0 1 -1]
}
}
Shape {
appearance USE COL_ForegroundColor
geometry IndexedLineSet {
coord Coordinate {
point [ 0 0.127 0.004,
0.002 0.096 0.004,
]
}
coordIndex [ 0 1 -1]
}
}
Shape {
appearance USE COL_ForegroundColor
geometry IndexedLineSet {
coord Coordinate {
point [ 0.006 0.158 0.004,
0 0.127 0.004,
]
}
coordIndex [ 0 1 -1]
}
}
Shape {
appearance USE COL_ForegroundColor
geometry IndexedLineSet {
coord Coordinate {
point [ 0.02 0.185 0.004,
0.006 0.158 0.004,
]
}
coordIndex [ 0 1 -1]
}
}
Shape {
appearance USE COL_ForegroundColor
geometry IndexedLineSet {
coord Coordinate {
point [ 0.041 0.209 0.004,
0.02 0.185 0.004,
]
}
coordIndex [ 0 1 -1]
}
}
Shape {
appearance USE COL_ForegroundColor
geometry IndexedLineSet {
coord Coordinate {
point [ 0.067 0.226 0.004,
0.041 0.209 0.004,
]
}
coordIndex [ 0 1 -1]
}
}
Shape {
appearance USE COL_ForegroundColor
geometry IndexedLineSet {
coord Coordinate {
point [ 0.096 0.236 0.004,
0.067 0.226 0.004,
]
}
coordIndex [ 0 1 -1]
}
}
Shape {
appearance USE COL_ForegroundColor
geometry IndexedLineSet {
coord Coordinate {
point [ 0.127 0.237 0.004,
0.096 0.236 0.004,
]
}
coordIndex [ 0 1 -1]
}
}
Shape {
appearance USE COL_ForegroundColor
geometry IndexedLineSet {
coord Coordinate {
point [ 0.158 0.231 0.004,
0.127 0.237 0.004,
]
}
coordIndex [ 0 1 -1]
}
}
Shape {
appearance USE COL_ForegroundColor
geometry IndexedLineSet {
coord Coordinate {
point [ 0.185 0.217 0.004,
0.158 0.231 0.004,
]
}
coordIndex [ 0 1 -1]
}
}
Shape {
appearance USE COL_ForegroundColor
geometry IndexedLineSet {
coord Coordinate {
point [ 0.209 0.197 0.004,
0.185 0.217 0.004,
]
}
coordIndex [ 0 1 -1]
}
}
Shape {
appearance USE COL_ForegroundColor
geometry IndexedLineSet {
coord Coordinate {
point [ 0.226 0.171 0,
0.209 0.197 0,
]
}
coordIndex [ 0 1 -1]
}
}
Shape {
appearance USE COL_ForegroundColor
geometry IndexedLineSet {
coord Coordinate {
point [ 0.236 0.141 0,
0.226 0.171 0,
]
}
coordIndex [ 0 1 -1]
}
}
Shape {
appearance USE COL_ForegroundColor
geometry IndexedLineSet {
coord Coordinate {
point [ 0.237 0.11 0,
0.236 0.141 0,
]
}
coordIndex [ 0 1 -1]
}
}
Shape {
appearance USE COL_ForegroundColor
geometry IndexedLineSet {
coord Coordinate {
point [ 0.231 0.08 0,
0.237 0.11 0,
]
}
coordIndex [ 0 1 -1]
}
}
Shape {
appearance USE COL_ForegroundColor
geometry IndexedLineSet {
coord Coordinate {
point [ 0.217 0.052 0,
0.231 0.08 0,
]
}
coordIndex [ 0 1 -1]
}
}
Shape {
appearance USE COL_ForegroundColor
geometry IndexedLineSet {
coord Coordinate {
point [ 0.197 0.029 0,
0.217 0.052 0,
]
}
coordIndex [ 0 1 -1]
}
}
Shape {
appearance USE COL_ForegroundColor
geometry IndexedLineSet {
coord Coordinate {
point [ 0.171 0.012 0,
0.197 0.029 0,
]
}
coordIndex [ 0 1 -1]
}
}
Shape {
appearance USE COL_ForegroundColor
geometry IndexedLineSet {
coord Coordinate {
point [ 0.141 0.002 0,
0.171 0.012 0,
]
}
coordIndex [ 0 1 -1]
}
}
Shape {
appearance USE COL_ForegroundColor
geometry IndexedLineSet {
coord Coordinate {
point [ 0.11 0 0,
0.141 0.002 0,
]
}
coordIndex [ 0 1 -1]
}
}
Shape {
appearance USE COL_ForegroundColor
geometry IndexedLineSet {
coord Coordinate {
point [ 0.08 0.006 0,
0.11 0 0,
]
}
coordIndex [ 0 1 -1]
}
}
Shape {
appearance USE COL_ForegroundColor
geometry IndexedLineSet {
coord Coordinate {
point [ 0.052 0.02 0,
0.08 0.006 0,
]
}
coordIndex [ 0 1 -1]
}
}
Shape {
appearance USE COL_ForegroundColor
geometry IndexedLineSet {
coord Coordinate {
point [ 0.029 0.041 0,
0.052 0.02 0,
]
}
coordIndex [ 0 1 -1]
}
}
Shape {
appearance USE COL_ForegroundColor
geometry IndexedLineSet {
coord Coordinate {
point [ 0.012 0.067 0,
0.029 0.041 0,
]
}
coordIndex [ 0 1 -1]
}
}
Shape {
appearance USE COL_ForegroundColor
geometry IndexedLineSet {
coord Coordinate {
point [ 0.002 0.096 0,
0.012 0.067 0,
]
}
coordIndex [ 0 1 -1]
}
}
Shape {
appearance USE COL_ForegroundColor
geometry IndexedLineSet {
coord Coordinate {
point [ 0 0.127 0,
0.002 0.096 0,
]
}
coordIndex [ 0 1 -1]
}
}
Shape {
appearance USE COL_ForegroundColor
geometry IndexedLineSet {
coord Coordinate {
point [ 0.006 0.158 0,
0 0.127 0,
]
}
coordIndex [ 0 1 -1]
}
}
Shape {
appearance USE COL_ForegroundColor
geometry IndexedLineSet {
coord Coordinate {
point [ 0.02 0.185 0,
0.006 0.158 0,
]
}
coordIndex [ 0 1 -1]
}
}
Shape {
appearance USE COL_ForegroundColor
geometry IndexedLineSet {
coord Coordinate {
point [ 0.041 0.209 0,
0.02 0.185 0,
]
}
coordIndex [ 0 1 -1]
}
}
Shape {
appearance USE COL_ForegroundColor
geometry IndexedLineSet {
coord Coordinate {
point [ 0.067 0.226 0,
0.041 0.209 0,
]
}
coordIndex [ 0 1 -1]
}
}
Shape {
appearance USE COL_ForegroundColor
geometry IndexedLineSet {
coord Coordinate {
point [ 0.096 0.236 0,
0.067 0.226 0,
]
}
coordIndex [ 0 1 -1]
}
}
Shape {
appearance USE COL_ForegroundColor
geometry IndexedLineSet {
coord Coordinate {
point [ 0.127 0.237 0,
0.096 0.236 0,
]
}
coordIndex [ 0 1 -1]
}
}
Shape {
appearance USE COL_ForegroundColor
geometry IndexedLineSet {
coord Coordinate {
point [ 0.158 0.231 0,
0.127 0.237 0,
]
}
coordIndex [ 0 1 -1]
}
}
Shape {
appearance USE COL_ForegroundColor
geometry IndexedLineSet {
coord Coordinate {
point [ 0.185 0.217 0,
0.158 0.231 0,
]
}
coordIndex [ 0 1 -1]
}
}
Shape {
appearance USE COL_ForegroundColor
geometry IndexedLineSet {
coord Coordinate {
point [ 0.209 0.197 0,
0.185 0.217 0,
]
}
coordIndex [ 0 1 -1]
}
}
]
}
]
}
Transform {
translation 0.014 0.173 0.079
scale 1 1 1
children [DEF CMP_Component_2 Group {
children [
Shape {
appearance DEF COL_Color_M03 Appearance {
material Material { diffuseColor 0.667 0.667 0.667 }
}
geometry IndexedFaceSet {
convex FALSE
solid TRUE
coord Coordinate {
point [
0.007 0.04 0.118,
0.003 0.035 0.118,
0.001 0.03 0.118,
0 0.024 0.118,
0.001 0.018 0.118,
0.003 0.012 0.118,
0.007 0.007 0.118,
0.012 0.003 0.118,
0.018 0.001 0.118,
0.024 0 0.118,
0.03 0.001 0.118,
0.035 0.003 0.118,
0.04 0.007 0.118,
0.044 0.012 0.118,
0.046 0.018 0.118,
0.047 0.024 0.118,
0.046 0.03 0.118,
0.044 0.035 0.118,
0.04 0.04 0.118,
0.035 0.044 0.118,
0.03 0.046 0.118,
0.024 0.047 0.118,
0.018 0.046 0.118,
0.012 0.044 0.118,
]
}
coordIndex [
0
1
2
3
4
5
6
7
8
9
10
11
12
13
14
15
16
17
18
19
20
21
22
23
-1
]
}
}
Shape {
appearance USE COL_Color_M03
geometry IndexedFaceSet {
convex FALSE
solid TRUE
coord Coordinate {
point [
0.012 0.044 0.118,
0.018 0.046 0.118,
0.024 0.047 0.118,
0.03 0.046 0.118,
0.035 0.044 0.118,
0.04 0.04 0.118,
0.044 0.035 0.118,
0.046 0.03 0.118,
0.047 0.024 0.118,
0.046 0.018 0.118,
0.044 0.012 0.118,
0.04 0.007 0.118,
0.035 0.003 0.118,
0.03 0.001 0.118,
0.024 0 0.118,
0.018 0.001 0.118,
0.012 0.003 0.118,
0.007 0.007 0.118,
0.003 0.012 0.118,
0.001 0.018 0.118,
0 0.024 0.118,
0.001 0.03 0.118,
0.003 0.035 0.118,
0.007 0.04 0.118,
]
}
coordIndex [
0
1
2
3
4
5
6
7
8
9
10
11
12
13
14
15
16
17
18
19
20
21
22
23
-1
]
}
}
Shape {
appearance USE COL_Color_M03
geometry IndexedFaceSet {
convex FALSE
solid TRUE
coord Coordinate {
point [
0.018 0.046 0,
0.012 0.044 0,
0.012 0.044 0.118,
0.018 0.046 0.118,
]
}
coordIndex [
0
1
2
3
-1
]
}
}
Shape {
appearance USE COL_Color_M03
geometry IndexedFaceSet {
convex FALSE
solid TRUE
coord Coordinate {
point [
0.003 0.035 0,
0.007 0.04 0,
0.012 0.044 0,
0.018 0.046 0,
0.024 0.047 0,
0.03 0.046 0,
0.035 0.044 0,
0.04 0.04 0,
0.044 0.035 0,
0.046 0.03 0,
0.047 0.024 0,
0.046 0.018 0,
0.044 0.012 0,
0.04 0.007 0,
0.035 0.003 0,
0.03 0.001 0,
0.024 0 0,
0.018 0.001 0,
0.012 0.003 0,
0.007 0.007 0,
0.003 0.012 0,
0.001 0.018 0,
0 0.024 0,
0.001 0.03 0,
]
}
coordIndex [
0
1
2
3
4
5
6
7
8
9
10
11
12
13
14
15
16
17
18
19
20
21
22
23
-1
]
}
}
Shape {
appearance USE COL_Color_M03
geometry IndexedFaceSet {
convex FALSE
solid TRUE
coord Coordinate {
point [
0.001 0.03 0,
0 0.024 0,
0.001 0.018 0,
0.003 0.012 0,
0.007 0.007 0,
0.012 0.003 0,
0.018 0.001 0,
0.024 0 0,
0.03 0.001 0,
0.035 0.003 0,
0.04 0.007 0,
0.044 0.012 0,
0.046 0.018 0,
0.047 0.024 0,
0.046 0.03 0,
0.044 0.035 0,
0.04 0.04 0,
0.035 0.044 0,
0.03 0.046 0,
0.024 0.047 0,
0.018 0.046 0,
0.012 0.044 0,
0.007 0.04 0,
0.003 0.035 0,
]
}
coordIndex [
0
1
2
3
4
5
6
7
8
9
10
11
12
13
14
15
16
17
18
19
20
21
22
23
-1
]
}
}
Shape {
appearance USE COL_Color_M03
geometry IndexedFaceSet {
convex FALSE
solid TRUE
coord Coordinate {
point [
0.001 0.03 0,
0 0.024 0,
0 0.024 0.118,
0.001 0.03 0.118,
]
}
coordIndex [
0
1
2
3
-1
]
}
}
Shape {
appearance USE COL_Color_M03
geometry IndexedFaceSet {
convex FALSE
solid TRUE
coord Coordinate {
point [
0.001 0.03 0.118,
0 0.024 0.118,
0 0.024 0,
0.001 0.03 0,
]
}
coordIndex [
0
1
2
3
-1
]
}
}
Shape {
appearance USE COL_Color_M03
geometry IndexedFaceSet {
convex FALSE
solid TRUE
coord Coordinate {
point [
0 0.024 0,
0.001 0.018 0,
0.001 0.018 0.118,
0 0.024 0.118,
]
}
coordIndex [
0
1
2
3
-1
]
}
}
Shape {
appearance USE COL_Color_M03
geometry IndexedFaceSet {
convex FALSE
solid TRUE
coord Coordinate {
point [
0 0.024 0.118,
0.001 0.018 0.118,
0.001 0.018 0,
0 0.024 0,
]
}
coordIndex [
0
1
2
3
-1
]
}
}
Shape {
appearance USE COL_Color_M03
geometry IndexedFaceSet {
convex FALSE
solid TRUE
coord Coordinate {
point [
0.001 0.018 0,
0.003 0.012 0,
0.003 0.012 0.118,
0.001 0.018 0.118,
]
}
coordIndex [
0
1
2
3
-1
]
}
}
Shape {
appearance USE COL_Color_M03
geometry IndexedFaceSet {
convex FALSE
solid TRUE
coord Coordinate {
point [
0.001 0.018 0.118,
0.003 0.012 0.118,
0.003 0.012 0,
0.001 0.018 0,
]
}
coordIndex [
0
1
2
3
-1
]
}
}
Shape {
appearance USE COL_Color_M03
geometry IndexedFaceSet {
convex FALSE
solid TRUE
coord Coordinate {
point [
0.003 0.012 0,
0.007 0.007 0,
0.007 0.007 0.118,
0.003 0.012 0.118,
]
}
coordIndex [
0
1
2
3
-1
]
}
}
Shape {
appearance USE COL_Color_M03
geometry IndexedFaceSet {
convex FALSE
solid TRUE
coord Coordinate {
point [
0.003 0.012 0.118,
0.007 0.007 0.118,
0.007 0.007 0,
0.003 0.012 0,
]
}
coordIndex [
0
1
2
3
-1
]
}
}
Shape {
appearance USE COL_Color_M03
geometry IndexedFaceSet {
convex FALSE
solid TRUE
coord Coordinate {
point [
0.007 0.007 0,
0.012 0.003 0,
0.012 0.003 0.118,
0.007 0.007 0.118,
]
}
coordIndex [
0
1
2
3
-1
]
}
}
Shape {
appearance USE COL_Color_M03
geometry IndexedFaceSet {
convex FALSE
solid TRUE
coord Coordinate {
point [
0.007 0.007 0.118,
0.012 0.003 0.118,
0.012 0.003 0,
0.007 0.007 0,
]
}
coordIndex [
0
1
2
3
-1
]
}
}
Shape {
appearance USE COL_Color_M03
geometry IndexedFaceSet {
convex FALSE
solid TRUE
coord Coordinate {
point [
0.012 0.003 0,
0.018 0.001 0,
0.018 0.001 0.118,
0.012 0.003 0.118,
]
}
coordIndex [
0
1
2
3
-1
]
}
}
Shape {
appearance USE COL_Color_M03
geometry IndexedFaceSet {
convex FALSE
solid TRUE
coord Coordinate {
point [
0.012 0.003 0.118,
0.018 0.001 0.118,
0.018 0.001 0,
0.012 0.003 0,
]
}
coordIndex [
0
1
2
3
-1
]
}
}
Shape {
appearance USE COL_Color_M03
geometry IndexedFaceSet {
convex FALSE
solid TRUE
coord Coordinate {
point [
0.018 0.001 0,
0.024 0 0,
0.024 0 0.118,
0.018 0.001 0.118,
]
}
coordIndex [
0
1
2
3
-1
]
}
}
Shape {
appearance USE COL_Color_M03
geometry IndexedFaceSet {
convex FALSE
solid TRUE
coord Coordinate {
point [
0.018 0.001 0.118,
0.024 0 0.118,
0.024 0 0,
0.018 0.001 0,
]
}
coordIndex [
0
1
2
3
-1
]
}
}
Shape {
appearance USE COL_Color_M03
geometry IndexedFaceSet {
convex FALSE
solid TRUE
coord Coordinate {
point [
0.024 0 0,
0.03 0.001 0,
0.03 0.001 0.118,
0.024 0 0.118,
]
}
coordIndex [
0
1
2
3
-1
]
}
}
Shape {
appearance USE COL_Color_M03
geometry IndexedFaceSet {
convex FALSE
solid TRUE
coord Coordinate {
point [
0.024 0 0.118,
0.03 0.001 0.118,
0.03 0.001 0,
0.024 0 0,
]
}
coordIndex [
0
1
2
3
-1
]
}
}
Shape {
appearance USE COL_Color_M03
geometry IndexedFaceSet {
convex FALSE
solid TRUE
coord Coordinate {
point [
0.03 0.001 0,
0.035 0.003 0,
0.035 0.003 0.118,
0.03 0.001 0.118,
]
}
coordIndex [
0
1
2
3
-1
]
}
}
Shape {
appearance USE COL_Color_M03
geometry IndexedFaceSet {
convex FALSE
solid TRUE
coord Coordinate {
point [
0.03 0.001 0.118,
0.035 0.003 0.118,
0.035 0.003 0,
0.03 0.001 0,
]
}
coordIndex [
0
1
2
3
-1
]
}
}
Shape {
appearance USE COL_Color_M03
geometry IndexedFaceSet {
convex FALSE
solid TRUE
coord Coordinate {
point [
0.035 0.003 0,
0.04 0.007 0,
0.04 0.007 0.118,
0.035 0.003 0.118,
]
}
coordIndex [
0
1
2
3
-1
]
}
}
Shape {
appearance USE COL_Color_M03
geometry IndexedFaceSet {
convex FALSE
solid TRUE
coord Coordinate {
point [
0.035 0.003 0.118,
0.04 0.007 0.118,
0.04 0.007 0,
0.035 0.003 0,
]
}
coordIndex [
0
1
2
3
-1
]
}
}
Shape {
appearance USE COL_Color_M03
geometry IndexedFaceSet {
convex FALSE
solid TRUE
coord Coordinate {
point [
0.04 0.007 0,
0.044 0.012 0,
0.044 0.012 0.118,
0.04 0.007 0.118,
]
}
coordIndex [
0
1
2
3
-1
]
}
}
Shape {
appearance USE COL_Color_M03
geometry IndexedFaceSet {
convex FALSE
solid TRUE
coord Coordinate {
point [
0.04 0.007 0.118,
0.044 0.012 0.118,
0.044 0.012 0,
0.04 0.007 0,
]
}
coordIndex [
0
1
2
3
-1
]
}
}
Shape {
appearance USE COL_Color_M03
geometry IndexedFaceSet {
convex FALSE
solid TRUE
coord Coordinate {
point [
0.044 0.012 0,
0.046 0.018 0,
0.046 0.018 0.118,
0.044 0.012 0.118,
]
}
coordIndex [
0
1
2
3
-1
]
}
}
Shape {
appearance USE COL_Color_M03
geometry IndexedFaceSet {
convex FALSE
solid TRUE
coord Coordinate {
point [
0.044 0.012 0.118,
0.046 0.018 0.118,
0.046 0.018 0,
0.044 0.012 0,
]
}
coordIndex [
0
1
2
3
-1
]
}
}
Shape {
appearance USE COL_Color_M03
geometry IndexedFaceSet {
convex FALSE
solid TRUE
coord Coordinate {
point [
0.046 0.018 0,
0.047 0.024 0,
0.047 0.024 0.118,
0.046 0.018 0.118,
]
}
coordIndex [
0
1
2
3
-1
]
}
}
Shape {
appearance USE COL_Color_M03
geometry IndexedFaceSet {
convex FALSE
solid TRUE
coord Coordinate {
point [
0.046 0.018 0.118,
0.047 0.024 0.118,
0.047 0.024 0,
0.046 0.018 0,
]
}
coordIndex [
0
1
2
3
-1
]
}
}
Shape {
appearance USE COL_Color_M03
geometry IndexedFaceSet {
convex FALSE
solid TRUE
coord Coordinate {
point [
0.047 0.024 0,
0.046 0.03 0,
0.046 0.03 0.118,
0.047 0.024 0.118,
]
}
coordIndex [
0
1
2
3
-1
]
}
}
Shape {
appearance USE COL_Color_M03
geometry IndexedFaceSet {
convex FALSE
solid TRUE
coord Coordinate {
point [
0.047 0.024 0.118,
0.046 0.03 0.118,
0.046 0.03 0,
0.047 0.024 0,
]
}
coordIndex [
0
1
2
3
-1
]
}
}
Shape {
appearance USE COL_Color_M03
geometry IndexedFaceSet {
convex FALSE
solid TRUE
coord Coordinate {
point [
0.046 0.03 0,
0.044 0.035 0,
0.044 0.035 0.118,
0.046 0.03 0.118,
]
}
coordIndex [
0
1
2
3
-1
]
}
}
Shape {
appearance USE COL_Color_M03
geometry IndexedFaceSet {
convex FALSE
solid TRUE
coord Coordinate {
point [
0.046 0.03 0.118,
0.044 0.035 0.118,
0.044 0.035 0,
0.046 0.03 0,
]
}
coordIndex [
0
1
2
3
-1
]
}
}
Shape {
appearance USE COL_Color_M03
geometry IndexedFaceSet {
convex FALSE
solid TRUE
coord Coordinate {
point [
0.044 0.035 0,
0.04 0.04 0,
0.04 0.04 0.118,
0.044 0.035 0.118,
]
}
coordIndex [
0
1
2
3
-1
]
}
}
Shape {
appearance USE COL_Color_M03
geometry IndexedFaceSet {
convex FALSE
solid TRUE
coord Coordinate {
point [
0.044 0.035 0.118,
0.04 0.04 0.118,
0.04 0.04 0,
0.044 0.035 0,
]
}
coordIndex [
0
1
2
3
-1
]
}
}
Shape {
appearance USE COL_Color_M03
geometry IndexedFaceSet {
convex FALSE
solid TRUE
coord Coordinate {
point [
0.04 0.04 0,
0.035 0.044 0,
0.035 0.044 0.118,
0.04 0.04 0.118,
]
}
coordIndex [
0
1
2
3
-1
]
}
}
Shape {
appearance USE COL_Color_M03
geometry IndexedFaceSet {
convex FALSE
solid TRUE
coord Coordinate {
point [
0.04 0.04 0.118,
0.035 0.044 0.118,
0.035 0.044 0,
0.04 0.04 0,
]
}
coordIndex [
0
1
2
3
-1
]
}
}
Shape {
appearance USE COL_Color_M03
geometry IndexedFaceSet {
convex FALSE
solid TRUE
coord Coordinate {
point [
0.035 0.044 0,
0.03 0.046 0,
0.03 0.046 0.118,
0.035 0.044 0.118,
]
}
coordIndex [
0
1
2
3
-1
]
}
}
Shape {
appearance USE COL_Color_M03
geometry IndexedFaceSet {
convex FALSE
solid TRUE
coord Coordinate {
point [
0.035 0.044 0.118,
0.03 0.046 0.118,
0.03 0.046 0,
0.035 0.044 0,
]
}
coordIndex [
0
1
2
3
-1
]
}
}
Shape {
appearance USE COL_Color_M03
geometry IndexedFaceSet {
convex FALSE
solid TRUE
coord Coordinate {
point [
0.03 0.046 0,
0.024 0.047 0,
0.024 0.047 0.118,
0.03 0.046 0.118,
]
}
coordIndex [
0
1
2
3
-1
]
}
}
Shape {
appearance USE COL_Color_M03
geometry IndexedFaceSet {
convex FALSE
solid TRUE
coord Coordinate {
point [
0.03 0.046 0.118,
0.024 0.047 0.118,
0.024 0.047 0,
0.03 0.046 0,
]
}
coordIndex [
0
1
2
3
-1
]
}
}
Shape {
appearance USE COL_Color_M03
geometry IndexedFaceSet {
convex FALSE
solid TRUE
coord Coordinate {
point [
0.024 0.047 0,
0.018 0.046 0,
0.018 0.046 0.118,
0.024 0.047 0.118,
]
}
coordIndex [
0
1
2
3
-1
]
}
}
Shape {
appearance USE COL_Color_M03
geometry IndexedFaceSet {
convex FALSE
solid TRUE
coord Coordinate {
point [
0.024 0.047 0.118,
0.018 0.046 0.118,
0.018 0.046 0,
0.024 0.047 0,
]
}
coordIndex [
0
1
2
3
-1
]
}
}
Shape {
appearance USE COL_Color_M03
geometry IndexedFaceSet {
convex FALSE
solid TRUE
coord Coordinate {
point [
0.018 0.046 0.118,
0.012 0.044 0.118,
0.012 0.044 0,
0.018 0.046 0,
]
}
coordIndex [
0
1
2
3
-1
]
}
}
Shape {
appearance USE COL_Color_M03
geometry IndexedFaceSet {
convex FALSE
solid TRUE
coord Coordinate {
point [
0.012 0.044 0,
0.007 0.04 0,
0.007 0.04 0.118,
0.012 0.044 0.118,
]
}
coordIndex [
0
1
2
3
-1
]
}
}
Shape {
appearance USE COL_Color_M03
geometry IndexedFaceSet {
convex FALSE
solid TRUE
coord Coordinate {
point [
0.012 0.044 0.118,
0.007 0.04 0.118,
0.007 0.04 0,
0.012 0.044 0,
]
}
coordIndex [
0
1
2
3
-1
]
}
}
Shape {
appearance USE COL_Color_M03
geometry IndexedFaceSet {
convex FALSE
solid TRUE
coord Coordinate {
point [
0.007 0.04 0,
0.003 0.035 0,
0.003 0.035 0.118,
0.007 0.04 0.118,
]
}
coordIndex [
0
1
2
3
-1
]
}
}
Shape {
appearance USE COL_Color_M03
geometry IndexedFaceSet {
convex FALSE
solid TRUE
coord Coordinate {
point [
0.007 0.04 0.118,
0.003 0.035 0.118,
0.003 0.035 0,
0.007 0.04 0,
]
}
coordIndex [
0
1
2
3
-1
]
}
}
Shape {
appearance USE COL_Color_M03
geometry IndexedFaceSet {
convex FALSE
solid TRUE
coord Coordinate {
point [
0.003 0.035 0,
0.001 0.03 0,
0.001 0.03 0.118,
0.003 0.035 0.118,
]
}
coordIndex [
0
1
2
3
-1
]
}
}
Shape {
appearance USE COL_Color_M03
geometry IndexedFaceSet {
convex FALSE
solid TRUE
coord Coordinate {
point [
0.003 0.035 0.118,
0.001 0.03 0.118,
0.001 0.03 0,
0.003 0.035 0,
]
}
coordIndex [
0
1
2
3
-1
]
}
}
Shape {
appearance USE COL_ForegroundColor
geometry IndexedLineSet {
coord Coordinate {
point [ 0.003 0.035 0.118,
0.007 0.04 0.118,
]
}
coordIndex [ 0 1 -1]
}
}
Shape {
appearance USE COL_ForegroundColor
geometry IndexedLineSet {
coord Coordinate {
point [ 0.001 0.03 0.118,
0.003 0.035 0.118,
]
}
coordIndex [ 0 1 -1]
}
}
Shape {
appearance USE COL_ForegroundColor
geometry IndexedLineSet {
coord Coordinate {
point [ 0 0.024 0.118,
0.001 0.03 0.118,
]
}
coordIndex [ 0 1 -1]
}
}
Shape {
appearance USE COL_ForegroundColor
geometry IndexedLineSet {
coord Coordinate {
point [ 0.001 0.018 0.118,
0 0.024 0.118,
]
}
coordIndex [ 0 1 -1]
}
}
Shape {
appearance USE COL_ForegroundColor
geometry IndexedLineSet {
coord Coordinate {
point [ 0.003 0.012 0.118,
0.001 0.018 0.118,
]
}
coordIndex [ 0 1 -1]
}
}
Shape {
appearance USE COL_ForegroundColor
geometry IndexedLineSet {
coord Coordinate {
point [ 0.007 0.007 0.118,
0.003 0.012 0.118,
]
}
coordIndex [ 0 1 -1]
}
}
Shape {
appearance USE COL_ForegroundColor
geometry IndexedLineSet {
coord Coordinate {
point [ 0.012 0.003 0.118,
0.007 0.007 0.118,
]
}
coordIndex [ 0 1 -1]
}
}
Shape {
appearance USE COL_ForegroundColor
geometry IndexedLineSet {
coord Coordinate {
point [ 0.018 0.001 0.118,
0.012 0.003 0.118,
]
}
coordIndex [ 0 1 -1]
}
}
Shape {
appearance USE COL_ForegroundColor
geometry IndexedLineSet {
coord Coordinate {
point [ 0.024 0 0.118,
0.018 0.001 0.118,
]
}
coordIndex [ 0 1 -1]
}
}
Shape {
appearance USE COL_ForegroundColor
geometry IndexedLineSet {
coord Coordinate {
point [ 0.03 0.001 0.118,
0.024 0 0.118,
]
}
coordIndex [ 0 1 -1]
}
}
Shape {
appearance USE COL_ForegroundColor
geometry IndexedLineSet {
coord Coordinate {
point [ 0.035 0.003 0.118,
0.03 0.001 0.118,
]
}
coordIndex [ 0 1 -1]
}
}
Shape {
appearance USE COL_ForegroundColor
geometry IndexedLineSet {
coord Coordinate {
point [ 0.04 0.007 0.118,
0.035 0.003 0.118,
]
}
coordIndex [ 0 1 -1]
}
}
Shape {
appearance USE COL_ForegroundColor
geometry IndexedLineSet {
coord Coordinate {
point [ 0.044 0.012 0.118,
0.04 0.007 0.118,
]
}
coordIndex [ 0 1 -1]
}
}
Shape {
appearance USE COL_ForegroundColor
geometry IndexedLineSet {
coord Coordinate {
point [ 0.046 0.018 0.118,
0.044 0.012 0.118,
]
}
coordIndex [ 0 1 -1]
}
}
Shape {
appearance USE COL_ForegroundColor
geometry IndexedLineSet {
coord Coordinate {
point [ 0.047 0.024 0.118,
0.046 0.018 0.118,
]
}
coordIndex [ 0 1 -1]
}
}
Shape {
appearance USE COL_ForegroundColor
geometry IndexedLineSet {
coord Coordinate {
point [ 0.046 0.03 0.118,
0.047 0.024 0.118,
]
}
coordIndex [ 0 1 -1]
}
}
Shape {
appearance USE COL_ForegroundColor
geometry IndexedLineSet {
coord Coordinate {
point [ 0.044 0.035 0.118,
0.046 0.03 0.118,
]
}
coordIndex [ 0 1 -1]
}
}
Shape {
appearance USE COL_ForegroundColor
geometry IndexedLineSet {
coord Coordinate {
point [ 0.04 0.04 0.118,
0.044 0.035 0.118,
]
}
coordIndex [ 0 1 -1]
}
}
Shape {
appearance USE COL_ForegroundColor
geometry IndexedLineSet {
coord Coordinate {
point [ 0.035 0.044 0.118,
0.04 0.04 0.118,
]
}
coordIndex [ 0 1 -1]
}
}
Shape {
appearance USE COL_ForegroundColor
geometry IndexedLineSet {
coord Coordinate {
point [ 0.03 0.046 0.118,
0.035 0.044 0.118,
]
}
coordIndex [ 0 1 -1]
}
}
Shape {
appearance USE COL_ForegroundColor
geometry IndexedLineSet {
coord Coordinate {
point [ 0.024 0.047 0.118,
0.03 0.046 0.118,
]
}
coordIndex [ 0 1 -1]
}
}
Shape {
appearance USE COL_ForegroundColor
geometry IndexedLineSet {
coord Coordinate {
point [ 0.018 0.046 0.118,
0.024 0.047 0.118,
]
}
coordIndex [ 0 1 -1]
}
}
Shape {
appearance USE COL_ForegroundColor
geometry IndexedLineSet {
coord Coordinate {
point [ 0.012 0.044 0.118,
0.018 0.046 0.118,
]
}
coordIndex [ 0 1 -1]
}
}
Shape {
appearance USE COL_ForegroundColor
geometry IndexedLineSet {
coord Coordinate {
point [ 0.007 0.04 0.118,
0.012 0.044 0.118,
]
}
coordIndex [ 0 1 -1]
}
}
Shape {
appearance USE COL_ForegroundColor
geometry IndexedLineSet {
coord Coordinate {
point [ 0.003 0.035 0,
0.007 0.04 0,
]
}
coordIndex [ 0 1 -1]
}
}
Shape {
appearance USE COL_ForegroundColor
geometry IndexedLineSet {
coord Coordinate {
point [ 0.001 0.03 0,
0.003 0.035 0,
]
}
coordIndex [ 0 1 -1]
}
}
Shape {
appearance USE COL_ForegroundColor
geometry IndexedLineSet {
coord Coordinate {
point [ 0 0.024 0,
0.001 0.03 0,
]
}
coordIndex [ 0 1 -1]
}
}
Shape {
appearance USE COL_ForegroundColor
geometry IndexedLineSet {
coord Coordinate {
point [ 0.001 0.018 0,
0 0.024 0,
]
}
coordIndex [ 0 1 -1]
}
}
Shape {
appearance USE COL_ForegroundColor
geometry IndexedLineSet {
coord Coordinate {
point [ 0.003 0.012 0,
0.001 0.018 0,
]
}
coordIndex [ 0 1 -1]
}
}
Shape {
appearance USE COL_ForegroundColor
geometry IndexedLineSet {
coord Coordinate {
point [ 0.007 0.007 0,
0.003 0.012 0,
]
}
coordIndex [ 0 1 -1]
}
}
Shape {
appearance USE COL_ForegroundColor
geometry IndexedLineSet {
coord Coordinate {
point [ 0.012 0.003 0,
0.007 0.007 0,
]
}
coordIndex [ 0 1 -1]
}
}
Shape {
appearance USE COL_ForegroundColor
geometry IndexedLineSet {
coord Coordinate {
point [ 0.018 0.001 0,
0.012 0.003 0,
]
}
coordIndex [ 0 1 -1]
}
}
Shape {
appearance USE COL_ForegroundColor
geometry IndexedLineSet {
coord Coordinate {
point [ 0.024 0 0,
0.018 0.001 0,
]
}
coordIndex [ 0 1 -1]
}
}
Shape {
appearance USE COL_ForegroundColor
geometry IndexedLineSet {
coord Coordinate {
point [ 0.03 0.001 0,
0.024 0 0,
]
}
coordIndex [ 0 1 -1]
}
}
Shape {
appearance USE COL_ForegroundColor
geometry IndexedLineSet {
coord Coordinate {
point [ 0.035 0.003 0,
0.03 0.001 0,
]
}
coordIndex [ 0 1 -1]
}
}
Shape {
appearance USE COL_ForegroundColor
geometry IndexedLineSet {
coord Coordinate {
point [ 0.04 0.007 0,
0.035 0.003 0,
]
}
coordIndex [ 0 1 -1]
}
}
Shape {
appearance USE COL_ForegroundColor
geometry IndexedLineSet {
coord Coordinate {
point [ 0.044 0.012 0,
0.04 0.007 0,
]
}
coordIndex [ 0 1 -1]
}
}
Shape {
appearance USE COL_ForegroundColor
geometry IndexedLineSet {
coord Coordinate {
point [ 0.046 0.018 0,
0.044 0.012 0,
]
}
coordIndex [ 0 1 -1]
}
}
Shape {
appearance USE COL_ForegroundColor
geometry IndexedLineSet {
coord Coordinate {
point [ 0.047 0.024 0,
0.046 0.018 0,
]
}
coordIndex [ 0 1 -1]
}
}
Shape {
appearance USE COL_ForegroundColor
geometry IndexedLineSet {
coord Coordinate {
point [ 0.046 0.03 0,
0.047 0.024 0,
]
}
coordIndex [ 0 1 -1]
}
}
Shape {
appearance USE COL_ForegroundColor
geometry IndexedLineSet {
coord Coordinate {
point [ 0.044 0.035 0,
0.046 0.03 0,
]
}
coordIndex [ 0 1 -1]
}
}
Shape {
appearance USE COL_ForegroundColor
geometry IndexedLineSet {
coord Coordinate {
point [ 0.04 0.04 0,
0.044 0.035 0,
]
}
coordIndex [ 0 1 -1]
}
}
Shape {
appearance USE COL_ForegroundColor
geometry IndexedLineSet {
coord Coordinate {
point [ 0.035 0.044 0,
0.04 0.04 0,
]
}
coordIndex [ 0 1 -1]
}
}
Shape {
appearance USE COL_ForegroundColor
geometry IndexedLineSet {
coord Coordinate {
point [ 0.03 0.046 0,
0.035 0.044 0,
]
}
coordIndex [ 0 1 -1]
}
}
Shape {
appearance USE COL_ForegroundColor
geometry IndexedLineSet {
coord Coordinate {
point [ 0.024 0.047 0,
0.03 0.046 0,
]
}
coordIndex [ 0 1 -1]
}
}
Shape {
appearance USE COL_ForegroundColor
geometry IndexedLineSet {
coord Coordinate {
point [ 0.018 0.046 0,
0.024 0.047 0,
]
}
coordIndex [ 0 1 -1]
}
}
Shape {
appearance USE COL_ForegroundColor
geometry IndexedLineSet {
coord Coordinate {
point [ 0.012 0.044 0,
0.018 0.046 0,
]
}
coordIndex [ 0 1 -1]
}
}
Shape {
appearance USE COL_ForegroundColor
geometry IndexedLineSet {
coord Coordinate {
point [ 0.007 0.04 0,
0.012 0.044 0,
]
}
coordIndex [ 0 1 -1]
}
}
]
}
]
}
Transform {
translation 0 0 -0.118
scale 1 1 1
children [DEF CMP_Component_1 Group {
children [
Shape {
appearance DEF COL_Color_D08 Appearance {
material Material { diffuseColor 0.4 0.298 0 }
}
geometry IndexedFaceSet {
solid TRUE
coord Coordinate {
point [
0.472 0.394 0,
0 0.394 0,
0 0.394 0.197,
0.472 0.394 0.197,
]
}
coordIndex [
0
1
2
3
-1
]
}
}
Shape {
appearance USE COL_Color_D08
geometry IndexedFaceSet {
solid TRUE
coord Coordinate {
point [
0.472 0.394 0.197,
0 0.394 0.197,
0 0.394 0,
0.472 0.394 0,
]
}
coordIndex [
0
1
2
3
-1
]
}
}
Shape {
appearance USE COL_Color_D08
geometry IndexedFaceSet {
solid TRUE
coord Coordinate {
point [
0.472 0 0.197,
0.472 0.394 0.197,
0 0.394 0.197,
0 0 0.197,
]
}
coordIndex [
0
1
2
3
-1
]
}
}
Shape {
appearance USE COL_Color_D08
geometry IndexedFaceSet {
solid TRUE
coord Coordinate {
point [
0 0 0.197,
0 0.394 0.197,
0.472 0.394 0.197,
0.472 0 0.197,
]
}
coordIndex [
0
1
2
3
-1
]
}
}
Shape {
appearance USE COL_Color_D08
geometry IndexedFaceSet {
solid TRUE
coord Coordinate {
point [
0 0.394 0,
0 0 0,
0 0 0.197,
0 0.394 0.197,
]
}
coordIndex [
0
1
2
3
-1
]
}
}
Shape {
appearance USE COL_Color_D08
geometry IndexedFaceSet {
solid TRUE
coord Coordinate {
point [
0 0.394 0.197,
0 0 0.197,
0 0 0,
0 0.394 0,
]
}
coordIndex [
0
1
2
3
-1
]
}
}
Shape {
appearance USE COL_Color_D08
geometry IndexedFaceSet {
solid TRUE
coord Coordinate {
point [
0 0 0,
0.472 0 0,
0.472 0 0.197,
0 0 0.197,
]
}
coordIndex [
0
1
2
3
-1
]
}
}
Shape {
appearance USE COL_Color_D08
geometry IndexedFaceSet {
solid TRUE
coord Coordinate {
point [
0.472 0.394 0,
0.472 0 0,
0 0 0,
0 0.394 0,
]
}
coordIndex [
0
1
2
3
-1
]
}
}
Shape {
appearance USE COL_Color_D08
geometry IndexedFaceSet {
solid TRUE
coord Coordinate {
point [
0.472 0 0,
0.472 0.394 0,
0.472 0.394 0.197,
0.472 0 0.197,
]
}
coordIndex [
0
1
2
3
-1
]
}
}
Shape {
appearance USE COL_Color_D08
geometry IndexedFaceSet {
solid TRUE
coord Coordinate {
point [
0.472 0 0.197,
0.472 0.394 0.197,
0.472 0.394 0,
0.472 0 0,
]
}
coordIndex [
0
1
2
3
-1
]
}
}
Shape {
appearance USE COL_Color_D08
geometry IndexedFaceSet {
solid TRUE
coord Coordinate {
point [
0 0.394 0,
0 0 0,
0.472 0 0,
0.472 0.394 0,
]
}
coordIndex [
0
1
2
3
-1
]
}
}
Shape {
appearance USE COL_Color_D08
geometry IndexedFaceSet {
solid TRUE
coord Coordinate {
point [
0 0 0.197,
0.472 0 0.197,
0.472 0 0,
0 0 0,
]
}
coordIndex [
0
1
2
3
-1
]
}
}
Shape {
appearance USE COL_ForegroundColor
geometry IndexedLineSet {
coord Coordinate {
point [ 0.472 0.394 0.197,
0 0.394 0.197,
]
}
coordIndex [ 0 1 -1]
}
}
Shape {
appearance USE COL_ForegroundColor
geometry IndexedLineSet {
coord Coordinate {
point [ 0.472 0.394 0,
0.472 0.394 0.197,
]
}
coordIndex [ 0 1 -1]
}
}
Shape {
appearance USE COL_ForegroundColor
geometry IndexedLineSet {
coord Coordinate {
point [ 0.472 0 0,
0.472 0.394 0,
]
}
coordIndex [ 0 1 -1]
}
}
Shape {
appearance USE COL_ForegroundColor
geometry IndexedLineSet {
coord Coordinate {
point [ 0 0 0,
0.472 0 0,
]
}
coordIndex [ 0 1 -1]
}
}
Shape {
appearance USE COL_ForegroundColor
geometry IndexedLineSet {
coord Coordinate {
point [ 0 0 0,
0 0 0.197,
]
}
coordIndex [ 0 1 -1]
}
}
Shape {
appearance USE COL_ForegroundColor
geometry IndexedLineSet {
coord Coordinate {
point [ 0 0.394 0,
0 0 0,
]
}
coordIndex [ 0 1 -1]
}
}
Shape {
appearance USE COL_ForegroundColor
geometry IndexedLineSet {
coord Coordinate {
point [ 0.472 0.394 0,
0 0.394 0,
]
}
coordIndex [ 0 1 -1]
}
}
Shape {
appearance USE COL_ForegroundColor
geometry IndexedLineSet {
coord Coordinate {
point [ 0 0.394 0,
0 0.394 0.197,
]
}
coordIndex [ 0 1 -1]
}
}
Shape {
appearance USE COL_ForegroundColor
geometry IndexedLineSet {
coord Coordinate {
point [ 0 0.394 0.197,
0 0 0.197,
]
}
coordIndex [ 0 1 -1]
}
}
Shape {
appearance USE COL_ForegroundColor
geometry IndexedLineSet {
coord Coordinate {
point [ 0 0 0.197,
0.472 0 0.197,
]
}
coordIndex [ 0 1 -1]
}
}
Shape {
appearance USE COL_ForegroundColor
geometry IndexedLineSet {
coord Coordinate {
point [ 0.472 0 0.197,
0.472 0.394 0.197,
]
}
coordIndex [ 0 1 -1]
}
}
Shape {
appearance USE COL_ForegroundColor
geometry IndexedLineSet {
coord Coordinate {
point [ 0.472 0 0,
0.472 0 0.197,
]
}
coordIndex [ 0 1 -1]
}
}
]
}
]
}
Transform {
translation 0.408 0.073 0.079
scale 1 1 1
children [USE CMP_Component_2
]
}
Transform {
translation 0.408 0.272 0.079
scale 1 1 1
children [USE CMP_Component_2
]
}
Viewpoint {
position 0.264 1.592 -1.144
orientation -0.999869 0.014316 -0.007573 2.168628
fieldOfView 0.61087
description "Camera"
jump FALSE
}
