(module C_Radial_D8.0mm_H7.0mm_P4.0mm (layer F.Cu) (tedit 5CADD307)
  (descr "C, Radial series, Radial, pin pitch=3.50mm, diameter=8mm, height=7mm, Non-Polar Electrolytic Capacitor")
  (tags "C Radial series Radial pin pitch 3.50mm diameter 8mm height 7mm Non-Polar Electrolytic Capacitor")
  (fp_text reference REF** (at 1.75 -5.25) (layer F.SilkS)
    (effects (font (size 1 1) (thickness 0.15)))
  )
  (fp_text value C_Radial_D8.0mm_H7.0mm_P4.0mm (at 1.75 5.25) (layer F.Fab)
    (effects (font (size 1 1) (thickness 0.15)))
  )
  (fp_circle (center 1.75 0) (end 5.75 0) (layer F.Fab) (width 0.1))
  (fp_circle (center 1.75 0) (end 5.87 0) (layer F.SilkS) (width 0.12))
  (fp_circle (center 1.75 0) (end 6 0) (layer F.CrtYd) (width 0.05))
  (fp_text user %R (at 1.75 0) (layer F.Fab)
    (effects (font (size 1 1) (thickness 0.15)))
  )
  (pad 1 thru_hole circle (at -0.25 0) (size 1.6 1.6) (drill 0.8) (layers *.Cu *.Mask))
  (pad 2 thru_hole circle (at 3.75 0) (size 1.6 1.6) (drill 0.8) (layers *.Cu *.Mask))
  (model ${KISYS3DMOD}/Capacitor_THT.3dshapes/C_Radial_D8.0mm_H7.0mm_P3.50mm.wrl
    (at (xyz 0 0 0))
    (scale (xyz 1 1 1))
    (rotate (xyz 0 0 0))
  )
)
