(module Capasitor_D4.0mm_P2.00mm (layer F.Cu) (tedit 5C8616F8)
  (descr "CP, Radial series, Radial, pin pitch=2.00mm, , diameter=4mm, Electrolytic Capacitor")
  (tags "CP Radial series Radial pin pitch 2.00mm  diameter 4mm Electrolytic Capacitor")
  (fp_text reference C4 (at -2.2098 0.0254) (layer F.SilkS)
    (effects (font (size 1 1) (thickness 0.15)))
  )
  (fp_text value 33uF (at 1 3.25) (layer F.Fab)
    (effects (font (size 1 1) (thickness 0.15)))
  )
  (fp_circle (center 1.016 0) (end 3.016 0) (layer F.Fab) (width 0.1))
  (fp_circle (center 1 0) (end 3.12 0) (layer F.SilkS) (width 0.12))
  (fp_circle (center 1 0) (end 3.25 0) (layer F.CrtYd) (width 0.05))
  (fp_line (start -0.3556 -1.016) (end 0.0944 -1.016) (layer F.Fab) (width 0.1))
  (fp_line (start 1 -2.08) (end 1 2.08) (layer F.SilkS) (width 0.12))
  (fp_line (start 1.04 -2.08) (end 1.04 2.08) (layer F.SilkS) (width 0.12))
  (fp_line (start 1.08 -2.079) (end 1.08 2.079) (layer F.SilkS) (width 0.12))
  (fp_line (start 1.12 -2.077) (end 1.12 2.077) (layer F.SilkS) (width 0.12))
  (fp_line (start 1.16 -2.074) (end 1.16 2.074) (layer F.SilkS) (width 0.12))
  (fp_line (start 1.2 -2.071) (end 1.2 -0.84) (layer F.SilkS) (width 0.12))
  (fp_line (start 1.2 0.84) (end 1.2 2.071) (layer F.SilkS) (width 0.12))
  (fp_line (start 1.24 -2.067) (end 1.24 -0.84) (layer F.SilkS) (width 0.12))
  (fp_line (start 1.24 0.84) (end 1.24 2.067) (layer F.SilkS) (width 0.12))
  (fp_line (start 1.28 -2.062) (end 1.28 -0.84) (layer F.SilkS) (width 0.12))
  (fp_line (start 1.28 0.84) (end 1.28 2.062) (layer F.SilkS) (width 0.12))
  (fp_line (start 1.32 -2.056) (end 1.32 -0.84) (layer F.SilkS) (width 0.12))
  (fp_line (start 1.32 0.84) (end 1.32 2.056) (layer F.SilkS) (width 0.12))
  (fp_line (start 1.36 -2.05) (end 1.36 -0.84) (layer F.SilkS) (width 0.12))
  (fp_line (start 1.36 0.84) (end 1.36 2.05) (layer F.SilkS) (width 0.12))
  (fp_line (start 1.4 -2.042) (end 1.4 -0.84) (layer F.SilkS) (width 0.12))
  (fp_line (start 1.4 0.84) (end 1.4 2.042) (layer F.SilkS) (width 0.12))
  (fp_line (start 1.44 -2.034) (end 1.44 -0.84) (layer F.SilkS) (width 0.12))
  (fp_line (start 1.44 0.84) (end 1.44 2.034) (layer F.SilkS) (width 0.12))
  (fp_line (start 1.48 -2.025) (end 1.48 -0.84) (layer F.SilkS) (width 0.12))
  (fp_line (start 1.48 0.84) (end 1.48 2.025) (layer F.SilkS) (width 0.12))
  (fp_line (start 1.52 -2.016) (end 1.52 -0.84) (layer F.SilkS) (width 0.12))
  (fp_line (start 1.52 0.84) (end 1.52 2.016) (layer F.SilkS) (width 0.12))
  (fp_line (start 1.56 -2.005) (end 1.56 -0.84) (layer F.SilkS) (width 0.12))
  (fp_line (start 1.56 0.84) (end 1.56 2.005) (layer F.SilkS) (width 0.12))
  (fp_line (start 1.6 -1.994) (end 1.6 -0.84) (layer F.SilkS) (width 0.12))
  (fp_line (start 1.6 0.84) (end 1.6 1.994) (layer F.SilkS) (width 0.12))
  (fp_line (start 1.64 -1.982) (end 1.64 -0.84) (layer F.SilkS) (width 0.12))
  (fp_line (start 1.64 0.84) (end 1.64 1.982) (layer F.SilkS) (width 0.12))
  (fp_line (start 1.68 -1.968) (end 1.68 -0.84) (layer F.SilkS) (width 0.12))
  (fp_line (start 1.68 0.84) (end 1.68 1.968) (layer F.SilkS) (width 0.12))
  (fp_line (start 1.721 -1.954) (end 1.721 -0.84) (layer F.SilkS) (width 0.12))
  (fp_line (start 1.721 0.84) (end 1.721 1.954) (layer F.SilkS) (width 0.12))
  (fp_line (start 1.761 -1.94) (end 1.761 -0.84) (layer F.SilkS) (width 0.12))
  (fp_line (start 1.761 0.84) (end 1.761 1.94) (layer F.SilkS) (width 0.12))
  (fp_line (start 1.801 -1.924) (end 1.801 -0.84) (layer F.SilkS) (width 0.12))
  (fp_line (start 1.801 0.84) (end 1.801 1.924) (layer F.SilkS) (width 0.12))
  (fp_line (start 1.841 -1.907) (end 1.841 -0.84) (layer F.SilkS) (width 0.12))
  (fp_line (start 1.841 0.84) (end 1.841 1.907) (layer F.SilkS) (width 0.12))
  (fp_line (start 1.881 -1.889) (end 1.881 -0.84) (layer F.SilkS) (width 0.12))
  (fp_line (start 1.881 0.84) (end 1.881 1.889) (layer F.SilkS) (width 0.12))
  (fp_line (start 1.921 -1.87) (end 1.921 -0.84) (layer F.SilkS) (width 0.12))
  (fp_line (start 1.921 0.84) (end 1.921 1.87) (layer F.SilkS) (width 0.12))
  (fp_line (start 1.961 -1.851) (end 1.961 -0.84) (layer F.SilkS) (width 0.12))
  (fp_line (start 1.961 0.84) (end 1.961 1.851) (layer F.SilkS) (width 0.12))
  (fp_line (start 2.001 -1.83) (end 2.001 -0.84) (layer F.SilkS) (width 0.12))
  (fp_line (start 2.001 0.84) (end 2.001 1.83) (layer F.SilkS) (width 0.12))
  (fp_line (start 2.041 -1.808) (end 2.041 -0.84) (layer F.SilkS) (width 0.12))
  (fp_line (start 2.041 0.84) (end 2.041 1.808) (layer F.SilkS) (width 0.12))
  (fp_line (start 2.081 -1.785) (end 2.081 -0.84) (layer F.SilkS) (width 0.12))
  (fp_line (start 2.081 0.84) (end 2.081 1.785) (layer F.SilkS) (width 0.12))
  (fp_line (start 2.121 -1.76) (end 2.121 -0.84) (layer F.SilkS) (width 0.12))
  (fp_line (start 2.121 0.84) (end 2.121 1.76) (layer F.SilkS) (width 0.12))
  (fp_line (start 2.161 -1.735) (end 2.161 -0.84) (layer F.SilkS) (width 0.12))
  (fp_line (start 2.161 0.84) (end 2.161 1.735) (layer F.SilkS) (width 0.12))
  (fp_line (start 2.201 -1.708) (end 2.201 -0.84) (layer F.SilkS) (width 0.12))
  (fp_line (start 2.201 0.84) (end 2.201 1.708) (layer F.SilkS) (width 0.12))
  (fp_line (start 2.241 -1.68) (end 2.241 -0.84) (layer F.SilkS) (width 0.12))
  (fp_line (start 2.241 0.84) (end 2.241 1.68) (layer F.SilkS) (width 0.12))
  (fp_line (start 2.281 -1.65) (end 2.281 -0.84) (layer F.SilkS) (width 0.12))
  (fp_line (start 2.281 0.84) (end 2.281 1.65) (layer F.SilkS) (width 0.12))
  (fp_line (start 2.321 -1.619) (end 2.321 -0.84) (layer F.SilkS) (width 0.12))
  (fp_line (start 2.321 0.84) (end 2.321 1.619) (layer F.SilkS) (width 0.12))
  (fp_line (start 2.361 -1.587) (end 2.361 -0.84) (layer F.SilkS) (width 0.12))
  (fp_line (start 2.361 0.84) (end 2.361 1.587) (layer F.SilkS) (width 0.12))
  (fp_line (start 2.401 -1.552) (end 2.401 -0.84) (layer F.SilkS) (width 0.12))
  (fp_line (start 2.401 0.84) (end 2.401 1.552) (layer F.SilkS) (width 0.12))
  (fp_line (start 2.441 -1.516) (end 2.441 -0.84) (layer F.SilkS) (width 0.12))
  (fp_line (start 2.441 0.84) (end 2.441 1.516) (layer F.SilkS) (width 0.12))
  (fp_line (start 2.481 -1.478) (end 2.481 -0.84) (layer F.SilkS) (width 0.12))
  (fp_line (start 2.481 0.84) (end 2.481 1.478) (layer F.SilkS) (width 0.12))
  (fp_line (start 2.521 -1.438) (end 2.521 -0.84) (layer F.SilkS) (width 0.12))
  (fp_line (start 2.521 0.84) (end 2.521 1.438) (layer F.SilkS) (width 0.12))
  (fp_line (start 2.561 -1.396) (end 2.561 -0.84) (layer F.SilkS) (width 0.12))
  (fp_line (start 2.561 0.84) (end 2.561 1.396) (layer F.SilkS) (width 0.12))
  (fp_line (start 2.601 -1.351) (end 2.601 -0.84) (layer F.SilkS) (width 0.12))
  (fp_line (start 2.601 0.84) (end 2.601 1.351) (layer F.SilkS) (width 0.12))
  (fp_line (start 2.641 -1.304) (end 2.641 -0.84) (layer F.SilkS) (width 0.12))
  (fp_line (start 2.641 0.84) (end 2.641 1.304) (layer F.SilkS) (width 0.12))
  (fp_line (start 2.681 -1.254) (end 2.681 -0.84) (layer F.SilkS) (width 0.12))
  (fp_line (start 2.681 0.84) (end 2.681 1.254) (layer F.SilkS) (width 0.12))
  (fp_line (start 2.721 -1.2) (end 2.721 -0.84) (layer F.SilkS) (width 0.12))
  (fp_line (start 2.721 0.84) (end 2.721 1.2) (layer F.SilkS) (width 0.12))
  (fp_line (start 2.761 -1.142) (end 2.761 -0.84) (layer F.SilkS) (width 0.12))
  (fp_line (start 2.761 0.84) (end 2.761 1.142) (layer F.SilkS) (width 0.12))
  (fp_line (start 2.801 -1.08) (end 2.801 -0.84) (layer F.SilkS) (width 0.12))
  (fp_line (start 2.801 0.84) (end 2.801 1.08) (layer F.SilkS) (width 0.12))
  (fp_line (start 2.841 -1.013) (end 2.841 1.013) (layer F.SilkS) (width 0.12))
  (fp_line (start 2.881 -0.94) (end 2.881 0.94) (layer F.SilkS) (width 0.12))
  (fp_line (start 2.921 -0.859) (end 2.921 0.859) (layer F.SilkS) (width 0.12))
  (fp_line (start 2.961 -0.768) (end 2.961 0.768) (layer F.SilkS) (width 0.12))
  (fp_line (start 3.001 -0.664) (end 3.001 0.664) (layer F.SilkS) (width 0.12))
  (fp_line (start 3.041 -0.537) (end 3.041 0.537) (layer F.SilkS) (width 0.12))
  (fp_line (start 3.081 -0.37) (end 3.081 0.37) (layer F.SilkS) (width 0.12))
  (fp_line (start -1.434901 -1.2839) (end -1.034901 -1.2839) (layer F.SilkS) (width 0.12))
  (fp_line (start -1.234901 -1.4839) (end -1.234901 -1.0839) (layer F.SilkS) (width 0.12))
  (fp_text user %R (at 0.9652 -2.8448) (layer F.Fab)
    (effects (font (size 0.8 0.8) (thickness 0.12)))
  )
  (fp_line (start -0.127 -0.7692) (end -0.127 -1.2192) (layer F.Fab) (width 0.1))
  (fp_line (start 1.2192 0.7874) (end 2.7813 0.7874) (layer F.Fab) (width 0.15))
  (fp_line (start 1.2065 0.7366) (end 1.2065 -0.7874) (layer F.Fab) (width 0.15))
  (fp_line (start 1.2065 -0.7874) (end 2.794 -0.7874) (layer F.Fab) (width 0.15))
  (fp_line (start 2.794 -0.7874) (end 2.794 0.7874) (layer F.Fab) (width 0.15))
  (fp_line (start 2.794 0.7874) (end 2.8829 0.508) (layer F.Fab) (width 0.15))
  (fp_line (start 2.8829 0.508) (end 2.8448 -0.5715) (layer F.Fab) (width 0.15))
  (fp_line (start 2.8448 -0.5715) (end 2.9718 -0.1524) (layer F.Fab) (width 0.15))
  (fp_line (start 2.9718 -0.1524) (end 2.9591 0.2413) (layer F.Fab) (width 0.15))
  (fp_line (start 0.9906 1.9558) (end 0.9906 -1.9685) (layer F.Fab) (width 0.15))
  (fp_line (start 0.9906 -1.9685) (end 1.1049 -1.9558) (layer F.Fab) (width 0.15))
  (fp_line (start 1.1049 -1.9558) (end 1.1049 1.9431) (layer F.Fab) (width 0.15))
  (fp_line (start 1.1049 1.9431) (end 2.7432 0.8636) (layer F.Fab) (width 0.15))
  (fp_line (start 2.7432 0.8636) (end 2.5146 0.8382) (layer F.Fab) (width 0.15))
  (fp_line (start 2.5146 0.8382) (end 1.1811 1.8034) (layer F.Fab) (width 0.15))
  (fp_line (start 1.1811 1.8034) (end 1.2065 1.5875) (layer F.Fab) (width 0.15))
  (fp_line (start 1.2192 1.6383) (end 2.3495 0.8636) (layer F.Fab) (width 0.15))
  (fp_line (start 2.3495 0.8636) (end 1.1938 0.9017) (layer F.Fab) (width 0.15))
  (fp_line (start 1.1938 0.9017) (end 1.1684 1.5621) (layer F.Fab) (width 0.15))
  (fp_line (start 1.1684 1.5621) (end 2.0701 0.9525) (layer F.Fab) (width 0.15))
  (fp_line (start 2.0701 0.9525) (end 1.2573 1.0287) (layer F.Fab) (width 0.15))
  (fp_line (start 1.2573 1.0287) (end 1.27 1.397) (layer F.Fab) (width 0.15))
  (fp_line (start 1.27 1.397) (end 1.7526 1.0541) (layer F.Fab) (width 0.15))
  (fp_line (start 1.7526 1.0541) (end 1.3335 1.143) (layer F.Fab) (width 0.15))
  (fp_line (start 1.3335 1.143) (end 1.4097 1.2319) (layer F.Fab) (width 0.15))
  (fp_line (start 1.2827 1.9431) (end 2.6416 1.0287) (layer F.Fab) (width 0.15))
  (fp_line (start 2.6416 1.0287) (end 2.4384 1.3208) (layer F.Fab) (width 0.15))
  (fp_line (start 2.4384 1.3208) (end 1.5367 1.8669) (layer F.Fab) (width 0.15))
  (fp_line (start 1.5367 1.8669) (end 2.159 1.5621) (layer F.Fab) (width 0.15))
  (fp_line (start 1.1684 -0.8763) (end 2.7686 -0.8382) (layer F.Fab) (width 0.15))
  (fp_line (start 2.7686 -0.8382) (end 2.1971 -1.524) (layer F.Fab) (width 0.15))
  (fp_line (start 2.1971 -1.524) (end 1.5367 -1.8542) (layer F.Fab) (width 0.15))
  (fp_line (start 1.5367 -1.8542) (end 1.1557 -1.905) (layer F.Fab) (width 0.15))
  (fp_line (start 1.1557 -1.905) (end 2.2606 -1.3462) (layer F.Fab) (width 0.15))
  (fp_line (start 2.2606 -1.3462) (end 2.6289 -0.8636) (layer F.Fab) (width 0.15))
  (fp_line (start 2.6289 -0.8636) (end 1.6637 -1.6256) (layer F.Fab) (width 0.15))
  (fp_line (start 1.6637 -1.6256) (end 1.2192 -1.7907) (layer F.Fab) (width 0.15))
  (fp_line (start 1.2192 -1.7907) (end 2.4384 -0.9144) (layer F.Fab) (width 0.15))
  (fp_line (start 2.4384 -0.9144) (end 1.1811 -0.9652) (layer F.Fab) (width 0.15))
  (fp_line (start 1.1811 -0.9652) (end 1.1684 -1.7018) (layer F.Fab) (width 0.15))
  (fp_line (start 1.1684 -1.7018) (end 2.159 -1.0033) (layer F.Fab) (width 0.15))
  (fp_line (start 2.159 -1.0033) (end 1.2954 -1.0287) (layer F.Fab) (width 0.15))
  (fp_line (start 1.2954 -1.0287) (end 1.2827 -1.524) (layer F.Fab) (width 0.15))
  (fp_line (start 1.2827 -1.524) (end 1.8923 -1.0922) (layer F.Fab) (width 0.15))
  (fp_line (start 1.8923 -1.0922) (end 1.3335 -1.1176) (layer F.Fab) (width 0.15))
  (fp_line (start 1.3335 -1.1176) (end 1.397 -1.3716) (layer F.Fab) (width 0.15))
  (fp_line (start 1.397 -1.3716) (end 1.6256 -1.1811) (layer F.Fab) (width 0.15))
  (fp_line (start 1.6256 -1.1811) (end 1.4097 -1.2065) (layer F.Fab) (width 0.15))
  (pad 1 thru_hole rect (at 0 0) (size 1.2 1.2) (drill 0.6) (layers *.Cu *.Mask))
  (pad 2 thru_hole circle (at 2 0) (size 1.2 1.2) (drill 0.6) (layers *.Cu *.Mask))
  (model ${KISYS3DMOD}/Capacitor_THT.3dshapes/CP_Radial_D4.0mm_P2.00mm.wrl
    (at (xyz 0 0 0))
    (scale (xyz 1 1 1))
    (rotate (xyz 0 0 0))
  )
)
