(module Diode_7mm (layer F.Cu) (tedit 5B509E9F)
  (descr "D, T-1 series, Axial, Horizontal, pin pitch=5.08mm, , length*diameter=3.2*2.6mm^2, , http://www.diodes.com/_files/packages/T-1.pdf")
  (tags "D T-1 series Axial Horizontal pin pitch 5.08mm  length 3.2mm diameter 2.6mm")
  (fp_text reference REF** (at 2.54 -2.36) (layer F.SilkS)
    (effects (font (size 1 1) (thickness 0.15)))
  )
  (fp_text value 6v3 (at 2.54 2.36) (layer F.Fab)
    (effects (font (size 1 1) (thickness 0.15)))
  )
  (fp_text user "" (at 3.54 0) (layer F.Fab)
    (effects (font (size 1 1) (thickness 0.15)))
  )
  (fp_line (start 1.94 -1.2) (end 1.94 1.2) (layer F.Fab) (width 0.1))
  (fp_line (start 1.94 1.2) (end 5.14 1.2) (layer F.Fab) (width 0.1))
  (fp_line (start 5.14 1.2) (end 5.14 -1.2) (layer F.Fab) (width 0.1))
  (fp_line (start 5.14 -1.2) (end 1.94 -1.2) (layer F.Fab) (width 0.1))
  (fp_line (start 0 0) (end 0.94 0) (layer F.Fab) (width 0.1))
  (fp_line (start 6.08 0) (end 5.14 0) (layer F.Fab) (width 0.1))
  (fp_line (start 2.42 -1) (end 2.42 1) (layer F.Fab) (width 0.1))
  (fp_line (start 1.9 -1.2) (end 5.22 -1.2) (layer F.SilkS) (width 0.12))
  (fp_line (start 1.88 1.2) (end 5.2 1.2) (layer F.SilkS) (width 0.12))
  (fp_line (start 1.9 -1.2) (end 1.9 1.16) (layer F.SilkS) (width 0.12))
  (fp_line (start -1.25 -1.4) (end -1.25 1.4) (layer F.CrtYd) (width 0.05))
  (fp_line (start -1.25 1.4) (end 8.3 1.4) (layer F.CrtYd) (width 0.05))
  (fp_line (start 8.3 1.4) (end 8.3 -1.4) (layer F.CrtYd) (width 0.05))
  (fp_line (start 8.3 -1.4) (end -1.25 -1.4) (layer F.CrtYd) (width 0.05))
  (fp_line (start 1.8 0) (end 0.86 0) (layer F.Fab) (width 0.1))
  (pad 1 thru_hole rect (at 0 0) (size 2 2) (drill 1) (layers *.Cu *.Mask))
  (pad 2 thru_hole oval (at 7.1 0) (size 2 2) (drill 1) (layers *.Cu *.Mask))
  (model ${KISYS3DMOD}/Diodes_THT.3dshapes/D_T-1_P5.08mm_Horizontal.wrl
    (at (xyz 0 0 0))
    (scale (xyz 0.393701 0.393701 0.393701))
    (rotate (xyz 0 0 0))
  )
)
