(module dual12v (layer F.Cu) (tedit 5B7940DE)
  (fp_text reference REF** (at 16.8 3.6) (layer F.SilkS)
    (effects (font (size 1 1) (thickness 0.15)))
  )
  (fp_text value dual12v (at 16.6 6.4) (layer F.Fab)
    (effects (font (size 1 1) (thickness 0.15)))
  )
  (fp_line (start -9.3 -22.8) (end -9.3 51.4) (layer F.SilkS) (width 0.15))
  (fp_line (start -9.8 51.4) (end 37.7 51.4) (layer F.SilkS) (width 0.15))
  (fp_line (start 37.8 -23.2) (end -9.7 -23.2) (layer F.SilkS) (width 0.15))
  (fp_line (start 37.8 -23.4) (end 37.8 50.8) (layer F.SilkS) (width 0.15))
  (pad 7 thru_hole circle (at 0 0) (size 3 3) (drill 0.762) (layers *.Cu *.Mask))
  (pad 6 thru_hole circle (at 0 5) (size 3 3) (drill 0.762) (layers *.Cu *.Mask))
  (pad 2 thru_hole circle (at 0 25) (size 3 3) (drill 0.762) (layers *.Cu *.Mask))
  (pad 1 thru_hole circle (at 0 30) (size 3 3) (drill 0.762) (layers *.Cu *.Mask))
  (pad 9 thru_hole circle (at 30 5) (size 3 3) (drill 0.762) (layers *.Cu *.Mask))
  (pad 8 thru_hole circle (at 30 0) (size 3 3) (drill 0.762) (layers *.Cu *.Mask))
  (pad 13 thru_hole circle (at 30 25) (size 3 3) (drill 0.762) (layers *.Cu *.Mask))
  (pad 14 thru_hole circle (at 30 30) (size 3 3) (drill 0.762) (layers *.Cu *.Mask))
)
