(module Fuseholder5x20_horiz_open_universal_Type-III (layer F.Cu) (tedit 5B7A575F)
  (descr "Fuseholder, 5x20, open, horizontal, Type-III, universal, inline, lateral,")
  (tags "Fuseholder, 5x20, open, horizontal, Type-III, universal, inline, lateral, Sicherungshalter, offen,")
  (fp_text reference REF** (at 0 -5.08) (layer F.SilkS)
    (effects (font (size 1 1) (thickness 0.15)))
  )
  (fp_text value 4a (at -0.635 1.905) (layer F.Fab)
    (effects (font (size 1 1) (thickness 0.15)))
  )
  (fp_line (start -3.2512 0) (end 3.2512 0) (layer F.SilkS) (width 0.15))
  (fp_line (start -3.3401 3.429) (end -6.2611 3.429) (layer F.SilkS) (width 0.15))
  (fp_line (start -12.8651 3.429) (end -9.0551 3.429) (layer F.SilkS) (width 0.15))
  (fp_line (start -12.1031 2.54) (end -9.3091 2.54) (layer F.SilkS) (width 0.15))
  (fp_line (start -3.3401 2.54) (end -6.0071 2.54) (layer F.SilkS) (width 0.15))
  (fp_line (start -12.8651 -3.429) (end -9.0551 -3.429) (layer F.SilkS) (width 0.15))
  (fp_line (start -12.1031 -2.54) (end -9.3091 -2.54) (layer F.SilkS) (width 0.15))
  (fp_line (start -3.3401 -3.429) (end -6.2611 -3.429) (layer F.SilkS) (width 0.15))
  (fp_line (start -3.3401 -2.54) (end -6.0071 -2.54) (layer F.SilkS) (width 0.15))
  (fp_line (start 4.48564 -3.429) (end 7.53364 -3.429) (layer F.SilkS) (width 0.15))
  (fp_line (start 4.48564 -2.54) (end 7.27964 -2.54) (layer F.SilkS) (width 0.15))
  (fp_line (start 4.48564 2.54) (end 7.27964 2.54) (layer F.SilkS) (width 0.15))
  (fp_line (start 4.48564 3.429) (end 7.53364 3.429) (layer F.SilkS) (width 0.15))
  (fp_line (start 14.13764 3.429) (end 10.32764 3.429) (layer F.SilkS) (width 0.15))
  (fp_line (start 13.24864 2.54) (end 10.58164 2.54) (layer F.SilkS) (width 0.15))
  (fp_line (start 14.13764 -3.429) (end 10.32764 -3.429) (layer F.SilkS) (width 0.15))
  (fp_line (start 13.24864 -2.54) (end 10.58164 -2.54) (layer F.SilkS) (width 0.15))
  (fp_line (start 14.13764 -3.429) (end 14.13764 3.429) (layer F.SilkS) (width 0.15))
  (fp_line (start 4.48564 3.429) (end 4.48564 2.54) (layer F.SilkS) (width 0.15))
  (fp_line (start 4.48564 -3.429) (end 4.48564 -2.54) (layer F.SilkS) (width 0.15))
  (fp_line (start -12.86764 -3.429) (end -12.86764 3.429) (layer F.SilkS) (width 0.15))
  (fp_line (start -3.34264 3.429) (end -3.34264 2.54) (layer F.SilkS) (width 0.15))
  (fp_line (start -3.34264 -3.429) (end -3.34264 -2.413) (layer F.SilkS) (width 0.15))
  (fp_line (start 5.715 2.54) (end -5.969 2.54) (layer F.SilkS) (width 0.15))
  (fp_line (start -5.842 -2.54) (end 5.715 -2.54) (layer F.SilkS) (width 0.15))
  (fp_line (start -3.34264 0) (end -3.34264 -2.54) (layer F.SilkS) (width 0.15))
  (fp_line (start -12.10564 -2.54) (end -12.10564 2.54) (layer F.SilkS) (width 0.15))
  (fp_line (start -3.34264 2.54) (end -3.34264 0) (layer F.SilkS) (width 0.15))
  (fp_line (start 4.48564 0) (end 4.48564 -2.54) (layer F.SilkS) (width 0.15))
  (fp_line (start 13.2461 -2.54) (end 13.2461 2.54) (layer F.SilkS) (width 0.15))
  (fp_line (start 4.48564 2.54) (end 4.48564 0) (layer F.SilkS) (width 0.15))
  (pad 2 thru_hole circle (at 6.39064 0) (size 2.3495 2.3495) (drill 1.34874) (layers *.Cu *.Mask F.SilkS))
  (pad 2 thru_hole circle (at 11.47064 0) (size 2.3495 2.3495) (drill 1.34874) (layers *.Cu *.Mask F.SilkS))
  (pad 1 thru_hole circle (at -5.1181 0) (size 2.3495 2.3495) (drill 1.34874) (layers *.Cu *.Mask F.SilkS))
  (pad 1 thru_hole circle (at -10.1981 0) (size 2.3495 2.3495) (drill 1.34874) (layers *.Cu *.Mask F.SilkS))
)
