(module HiLinkTrafo (layer F.Cu) (tedit 5B6940D2)
  (fp_text reference REF** (at 22 -3.5) (layer F.SilkS)
    (effects (font (size 1 1) (thickness 0.15)))
  )
  (fp_text value HiLinkTrafo (at 11.5 -3.5) (layer F.Fab)
    (effects (font (size 1 1) (thickness 0.15)))
  )
  (fp_line (start -2.5 -2.5) (end -2.5 17.5) (layer F.Adhes) (width 0.15))
  (fp_line (start -2.5 -2.5) (end 31.5 -2.5) (layer F.Adhes) (width 0.15))
  (fp_line (start -2.5 17.5) (end 31.5 17.5) (layer F.Adhes) (width 0.15))
  (fp_line (start 31.5 -2.5) (end 31.5 17.5) (layer F.Adhes) (width 0.15))
  (pad 4 thru_hole circle (at 29.4 10.2) (size 1.524 1.524) (drill 0.762) (layers *.Cu *.Mask F.SilkS))
  (pad 3 thru_hole circle (at 29.4 5.2) (size 1.524 1.524) (drill 0.762) (layers *.Cu *.Mask F.SilkS))
  (pad 2 thru_hole circle (at 0 15.4) (size 1.524 1.524) (drill 0.762) (layers *.Cu *.Mask F.SilkS))
  (pad 1 thru_hole circle (at 0 0) (size 1.524 1.524) (drill 0.762) (layers *.Cu *.Mask F.SilkS))
)
