PCBNEW-LibModule-V1  fre 18 dec 2015 07:37:13 CET
# encoding utf-8
Units mm
$INDEX
DIP-28__300
DIP4
Relay
SW_PUSH_SMALL
To92
$EndINDEX
$MODULE DIP-28__300
Po 0 0 0 15 4C0D139B 00000000 ~~
Li DIP-28__300
Cd 28 pins DIL package, round pads, width 300mil
Kw DIL
Sc 0
AR 
Op 0 0 0
T0 -11.43 0 1.524 1.143 0 0.28448 N V 21 N "U1"
T1 10.16 0 1.524 1.143 0 0.28448 N V 21 N "Atmega 328"
DS -19.05 -2.54 19.05 -2.54 0.381 21
DS 19.05 -2.54 19.05 2.54 0.381 21
DS 19.05 2.54 -19.05 2.54 0.381 21
DS -19.05 2.54 -19.05 -2.54 0.381 21
DS -19.05 -1.27 -17.78 -1.27 0.381 21
DS -17.78 -1.27 -17.78 1.27 0.381 21
DS -17.78 1.27 -19.05 1.27 0.381 21
$PAD
Sh "2" C 1.397 1.397 0 0 0
Dr 0.8128 0 0
At STD N 00E0FFFF
Ne 0 ""
Po -13.97 3.81
$EndPAD
$PAD
Sh "3" C 1.397 1.397 0 0 0
Dr 0.8128 0 0
At STD N 00E0FFFF
Ne 0 ""
Po -11.43 3.81
$EndPAD
$PAD
Sh "4" C 1.397 1.397 0 0 0
Dr 0.8128 0 0
At STD N 00E0FFFF
Ne 0 ""
Po -8.89 3.81
$EndPAD
$PAD
Sh "5" C 1.397 1.397 0 0 0
Dr 0.8128 0 0
At STD N 00E0FFFF
Ne 0 ""
Po -6.35 3.81
$EndPAD
$PAD
Sh "6" C 1.397 1.397 0 0 0
Dr 0.8128 0 0
At STD N 00E0FFFF
Ne 0 ""
Po -3.81 3.81
$EndPAD
$PAD
Sh "7" C 1.397 1.397 0 0 0
Dr 0.8128 0 0
At STD N 00E0FFFF
Ne 0 ""
Po -1.27 3.81
$EndPAD
$PAD
Sh "8" C 1.397 1.397 0 0 0
Dr 0.8128 0 0
At STD N 00E0FFFF
Ne 0 ""
Po 1.27 3.81
$EndPAD
$PAD
Sh "9" C 1.397 1.397 0 0 0
Dr 0.8128 0 0
At STD N 00E0FFFF
Ne 0 ""
Po 3.81 3.81
$EndPAD
$PAD
Sh "10" C 1.397 1.397 0 0 0
Dr 0.8128 0 0
At STD N 00E0FFFF
Ne 0 ""
Po 6.35 3.81
$EndPAD
$PAD
Sh "11" C 1.397 1.397 0 0 0
Dr 0.8128 0 0
At STD N 00E0FFFF
Ne 0 ""
Po 8.89 3.81
$EndPAD
$PAD
Sh "12" C 1.397 1.397 0 0 0
Dr 0.8128 0 0
At STD N 00E0FFFF
Ne 0 ""
Po 11.43 3.81
$EndPAD
$PAD
Sh "13" C 1.397 1.397 0 0 0
Dr 0.8128 0 0
At STD N 00E0FFFF
Ne 0 ""
Po 13.97 3.81
$EndPAD
$PAD
Sh "14" C 1.397 1.397 0 0 0
Dr 0.8128 0 0
At STD N 00E0FFFF
Ne 0 ""
Po 16.51 3.81
$EndPAD
$PAD
Sh "1" R 1.397 1.397 0 0 0
Dr 0.8128 0 0
At STD N 00E0FFFF
Ne 0 ""
Po -16.51 3.81
$EndPAD
$PAD
Sh "15" C 1.397 1.397 0 0 0
Dr 0.8128 0 0
At STD N 00E0FFFF
Ne 0 ""
Po 16.51 -3.81
$EndPAD
$PAD
Sh "16" C 1.397 1.397 0 0 0
Dr 0.8128 0 0
At STD N 00E0FFFF
Ne 0 ""
Po 13.97 -3.81
$EndPAD
$PAD
Sh "17" C 1.397 1.397 0 0 0
Dr 0.8128 0 0
At STD N 00E0FFFF
Ne 0 ""
Po 11.43 -3.81
$EndPAD
$PAD
Sh "18" C 1.397 1.397 0 0 0
Dr 0.8128 0 0
At STD N 00E0FFFF
Ne 0 ""
Po 8.89 -3.81
$EndPAD
$PAD
Sh "19" C 1.397 1.397 0 0 0
Dr 0.8128 0 0
At STD N 00E0FFFF
Ne 0 ""
Po 6.35 -3.81
$EndPAD
$PAD
Sh "20" C 1.397 1.397 0 0 0
Dr 0.8128 0 0
At STD N 00E0FFFF
Ne 0 ""
Po 3.81 -3.81
$EndPAD
$PAD
Sh "21" C 1.397 1.397 0 0 0
Dr 0.8128 0 0
At STD N 00E0FFFF
Ne 0 ""
Po 1.27 -3.81
$EndPAD
$PAD
Sh "22" C 1.397 1.397 0 0 0
Dr 0.8128 0 0
At STD N 00E0FFFF
Ne 0 ""
Po -1.27 -3.81
$EndPAD
$PAD
Sh "23" C 1.397 1.397 0 0 0
Dr 0.8128 0 0
At STD N 00E0FFFF
Ne 0 ""
Po -3.81 -3.81
$EndPAD
$PAD
Sh "24" C 1.397 1.397 0 0 0
Dr 0.8128 0 0
At STD N 00E0FFFF
Ne 0 ""
Po -6.35 -3.81
$EndPAD
$PAD
Sh "25" C 1.397 1.397 0 0 0
Dr 0.8128 0 0
At STD N 00E0FFFF
Ne 0 ""
Po -8.89 -3.81
$EndPAD
$PAD
Sh "26" C 1.397 1.397 0 0 0
Dr 0.8128 0 0
At STD N 00E0FFFF
Ne 0 ""
Po -11.43 -3.81
$EndPAD
$PAD
Sh "27" C 1.397 1.397 0 0 0
Dr 0.8128 0 0
At STD N 00E0FFFF
Ne 0 ""
Po -13.97 -3.81
$EndPAD
$PAD
Sh "28" C 1.397 1.397 0 0 0
Dr 0.8128 0 0
At STD N 00E0FFFF
Ne 0 ""
Po -16.51 -3.81
$EndPAD
$SHAPE3D
Na "dil/dil_28-w300.wrl"
Sc 1 1 1
Of 0 0 0
Ro 0 0 0
$EndSHAPE3D
$EndMODULE DIP-28__300
$MODULE DIP4
Po 0 0 0 15 566D5C76 00000000 ~~
Li DIP4
Sc 0
AR 
Op 0 0 0
T0 1 2.5 1 1 0 0.15 N V 21 N "DIP4"
T1 1.5 6 1 1 0 0.15 N V 21 N "VAL**"
DA -2.5 3.5 -1.5 4.5 -900 0.15 21
DS -1.5 -1.5 -1.5 9.5 0.15 21
DS -1.5 9.5 4 9.5 0.15 21
DS 4 9.5 4 -1.5 0.15 21
DS 4 -1.5 -1.5 -1.5 0.15 21
$PAD
Sh "4" C 1.99898 1.99898 0 0 0
Dr 0.79756 0 0
At STD N 00E0FFFF
Ne 0 ""
Po 0 0
$EndPAD
$PAD
Sh "3" C 1.99898 1.99898 0 0 0
Dr 0.79756 0 0
At STD N 00E0FFFF
Ne 0 ""
Po 2.5 0
$EndPAD
$PAD
Sh "1" C 1.99898 1.99898 0 0 0
Dr 0.79756 0 0
At STD N 00E0FFFF
Ne 0 ""
Po 0 8
$EndPAD
$PAD
Sh "2" C 1.99898 1.99898 0 0 0
Dr 0.79756 0 0
At STD N 00E0FFFF
Ne 0 ""
Po 2.5 8
$EndPAD
$EndMODULE DIP4
$MODULE Relay
Po 0 0 0 15 5672E6FC 00000000 ~~
Li Relay
Sc 0
AR 
Op 0 0 0
T0 0 0 1.524 1.524 0 0.3048 N V 21 N "Relay"
T1 0 0 1.524 1.524 0 0.3048 N V 21 N ""
DS -10 -6.49808 12 -6.49808 0.99822 21
DS 12.49756 -6 12.49756 6 0.99822 21
DS -10 6.49808 12 6.49808 0.99822 21
DS -10.49756 -6 -10.49756 6 0.99822 21
$PAD
Sh "1" C 1.99898 1.99898 0 0 0
Dr 0.79756 0 0
At STD N 00E0FFFF
Ne 0 ""
Po -8 4
$EndPAD
$PAD
Sh "2" C 1.99898 1.99898 0 0 0
Dr 0.79756 0 0
At STD N 00E0FFFF
Ne 0 ""
Po 0 3.99796
$EndPAD
$PAD
Sh "3" C 1.99898 1.99898 0 0 0
Dr 0.79756 0 0
At STD N 00E0FFFF
Ne 0 ""
Po 4.99872 3.99796
$EndPAD
$PAD
Sh "4" C 1.99898 1.99898 0 0 0
Dr 0.79756 0 0
At STD N 00E0FFFF
Ne 0 ""
Po 9.99998 3.99796
$EndPAD
$PAD
Sh "8" C 1.99898 1.99898 0 0 0
Dr 0.79756 0 0
At STD N 00E0FFFF
Ne 0 ""
Po -8 -4
$EndPAD
$PAD
Sh "7" C 1.99898 1.99898 0 0 0
Dr 0.79756 0 0
At STD N 00E0FFFF
Ne 0 ""
Po 0 -3.99796
$EndPAD
$PAD
Sh "6" C 1.99898 1.99898 0 0 0
Dr 0.79756 0 0
At STD N 00E0FFFF
Ne 0 ""
Po 4.99872 -3.99796
$EndPAD
$PAD
Sh "5" C 1.99898 1.99898 0 0 0
Dr 0.79756 0 0
At STD N 00E0FFFF
Ne 0 ""
Po 9.99998 -3.99796
$EndPAD
$EndMODULE Relay
$MODULE SW_PUSH_SMALL
Po 0 0 0 15 46544DB3 00000000 ~~
Li SW_PUSH_SMALL
Sc 0
AR 
Op 0 0 0
T0 0 -0.762 1.016 1.016 0 0.2032 N V 21 N "SW_PUSH_SMALL"
T1 0 1.016 1.016 1.016 0 0.2032 N V 21 N "Val**"
DC 0 0 0 -2.54 0.127 21
DS -3.81 -3.81 3.81 -3.81 0.127 21
DS 3.81 -3.81 3.81 3.81 0.127 21
DS 3.81 3.81 -3.81 3.81 0.127 21
DS -3.81 -3.81 -3.81 3.81 0.127 21
$PAD
Sh "1" C 1.397 1.397 0 0 0
Dr 0.8128 0 0
At STD N 00E0FFFF
Ne 0 ""
Po 3.81 -2.54
$EndPAD
$PAD
Sh "2" C 1.397 1.397 0 0 0
Dr 0.8128 0 0
At STD N 00E0FFFF
Ne 0 ""
Po 3.81 2.54
$EndPAD
$PAD
Sh "1" C 1.397 1.397 0 0 0
Dr 0.8128 0 0
At STD N 00E0FFFF
Ne 0 ""
Po -3.81 -2.54
$EndPAD
$PAD
Sh "2" C 1.397 1.397 0 0 0
Dr 0.8128 0 0
At STD N 00E0FFFF
Ne 0 ""
Po -3.81 2.54
$EndPAD
$EndMODULE SW_PUSH_SMALL
$MODULE To92
Po 0 0 0 15 566D431B 00000000 ~~
Li To92
Sc 0
AR 
Op 0 0 0
T0 -2 6 1 1 0 0.15 N V 21 N "To92"
T1 4 6 1 1 0 0.15 N V 21 N "VAL**"
DA 0 2 -3.5 4 2400 0.15 21
DS -3.556 4.064 3.556 4.064 0.15 21
$PAD
Sh "1" C 1.99898 1.99898 0 0 0
Dr 0.79756 0 0
At STD N 00E0FFFF
Ne 0 ""
Po -2.508 2.492
$EndPAD
$PAD
Sh "2" C 1.99898 1.99898 0 0 0
Dr 0.79756 0 0
At STD N 00E0FFFF
Ne 0 ""
Po 2.492 2.492
$EndPAD
$PAD
Sh "3" C 1.99898 1.99898 0 0 0
Dr 0.79756 0 0
At STD N 00E0FFFF
Ne 0 ""
Po 0 0
$EndPAD
$EndMODULE To92
$EndLIBRARY
