(module PBCCONNECTOR (layer F.Cu) (tedit 56EA4E8D)
  (fp_text reference "" (at -3.81 -26.27) (layer F.SilkS) hide
    (effects (font (size 1 1) (thickness 0.15)))
  )
  (fp_text value "" (at -6.35 1.27) (layer F.Fab) hide
    (effects (font (size 1 1) (thickness 0.15)))
  )
  (pad "" connect oval (at 2.5 -7.5 180) (size 0.65024 0.65024) (layers B.Cu B.Mask))
  (pad A5 connect rect (at 0 -7.5 90) (size 0.65024 4.59994) (layers B.Cu B.Mask))
  (pad "" connect oval (at 2.5 -5 180) (size 0.65024 0.65024) (layers B.Cu B.Mask))
  (pad A5 connect rect (at 0 -5 90) (size 0.65024 4.59994) (layers B.Cu B.Mask))
  (pad "" connect oval (at 2.5 -12.5 180) (size 0.65024 0.65024) (layers B.Cu B.Mask))
  (pad A5 connect rect (at 0 -12.5 90) (size 0.65024 4.59994) (layers B.Cu B.Mask))
  (pad "" connect oval (at 2.5 -10 180) (size 0.65024 0.65024) (layers B.Cu B.Mask))
  (pad A5 connect rect (at 0 -10 90) (size 0.65024 4.59994) (layers B.Cu B.Mask))
  (pad "" connect oval (at 2.5 0 180) (size 0.65024 0.65024) (layers B.Cu B.Mask))
  (pad A5 connect rect (at 0 0 90) (size 0.65024 4.59994) (layers B.Cu B.Mask))
  (pad "" connect oval (at 2.5 2.5 180) (size 0.65024 0.65024) (layers B.Cu B.Mask))
  (pad A5 connect rect (at 0 2.5 90) (size 0.65024 4.59994) (layers B.Cu B.Mask))
  (pad "" connect oval (at 2.5 7.5 180) (size 0.65024 0.65024) (layers B.Cu B.Mask))
  (pad A5 connect rect (at 0 7.5 90) (size 0.65024 4.59994) (layers B.Cu B.Mask))
  (pad A5 connect rect (at 0 -22.5 90) (size 0.65024 4.59994) (layers B.Cu B.Mask))
  (pad "" connect oval (at 2.5 -22.5 180) (size 0.65024 0.65024) (layers B.Cu B.Mask))
  (pad "" connect oval (at 2.5 5 180) (size 0.65024 0.65024) (layers B.Cu B.Mask))
  (pad A5 connect rect (at 0 5 90) (size 0.65024 4.59994) (layers B.Cu B.Mask))
  (pad "" connect oval (at 2.5 15 180) (size 0.65024 0.65024) (layers B.Cu B.Mask))
  (pad A5 connect rect (at 0 15 90) (size 0.65024 4.59994) (layers B.Cu B.Mask))
  (pad A5 connect rect (at 0 -15 90) (size 0.65024 4.59994) (layers B.Cu B.Mask))
  (pad "" connect oval (at 2.5 -15 180) (size 0.65024 0.65024) (layers B.Cu B.Mask))
  (pad "" connect oval (at 2.5 20 180) (size 0.65024 0.65024) (layers B.Cu B.Mask))
  (pad A5 connect rect (at 0 20 90) (size 0.65024 4.59994) (layers B.Cu B.Mask))
  (pad A5 connect rect (at 0 17.5 90) (size 0.65024 4.59994) (layers B.Cu B.Mask))
  (pad "" connect oval (at 2.5 17.5 180) (size 0.65024 0.65024) (layers B.Cu B.Mask))
  (pad "" connect oval (at 2.5 12.5 180) (size 0.65024 0.65024) (layers B.Cu B.Mask))
  (pad A5 connect rect (at 0 12.5 90) (size 0.65024 4.59994) (layers B.Cu B.Mask))
  (pad A5 connect rect (at 0 -17.5 90) (size 0.65024 4.59994) (layers B.Cu B.Mask))
  (pad "" connect oval (at 2.5 -17.5 180) (size 0.65024 0.65024) (layers B.Cu B.Mask))
  (pad "" connect oval (at 2.5 10 180) (size 0.65024 0.65024) (layers B.Cu B.Mask))
  (pad A5 connect rect (at 0 10 90) (size 0.65024 4.59994) (layers B.Cu B.Mask))
  (pad A5 connect rect (at 0 -20 90) (size 0.65024 4.59994) (layers B.Cu B.Mask))
  (pad "" connect oval (at 2.5 -20 180) (size 0.65024 0.65024) (layers B.Cu B.Mask))
  (pad "" connect oval (at 2.5 -2.5 180) (size 0.65024 0.65024) (layers B.Cu B.Mask))
  (pad A5 connect rect (at 0 -2.5 90) (size 0.65024 4.59994) (layers B.Cu B.Mask))
)
