(module audio_opto (layer F.Cu) (tedit 5C23BC7F)
  (fp_text reference REF** (at 6.1 4.7) (layer F.SilkS)
    (effects (font (size 1 1) (thickness 0.15)))
  )
  (fp_text value audio_opto (at 5.9 1.9) (layer F.Fab)
    (effects (font (size 1 1) (thickness 0.15)))
  )
  (fp_line (start 0 0) (end 12 0) (layer F.SilkS) (width 0.15))
  (fp_line (start 0 10) (end 12 10) (layer F.SilkS) (width 0.15))
  (fp_line (start 12 0) (end 12 10) (layer F.SilkS) (width 0.15))
  (fp_line (start 0 10) (end 0 0) (layer F.SilkS) (width 0.15))
  (fp_line (start 15.9 3.8) (end 12 3.8) (layer F.SilkS) (width 0.15))
  (fp_line (start 15.9 6.2) (end 12 6.2) (layer F.SilkS) (width 0.15))
  (fp_line (start -3.4 3) (end 0 3) (layer F.SilkS) (width 0.15))
  (fp_line (start -3.3 7.1) (end 0 7.1) (layer F.SilkS) (width 0.15))
  (pad 1 thru_hole circle (at 15.9 3.7) (size 1.524 1.524) (drill 0.762) (layers *.Cu *.Mask))
  (pad 2 thru_hole circle (at 15.9 6.2) (size 1.524 1.524) (drill 0.762) (layers *.Cu *.Mask))
  (pad 2 thru_hole circle (at -3.3 7.1) (size 1.524 1.524) (drill 0.762) (layers *.Cu *.Mask))
  (pad 1 thru_hole circle (at -3.3 3) (size 1.524 1.524) (drill 0.762) (layers *.Cu *.Mask))
)
