(footprint "Cement resistor" (version 20211014) (generator pcbnew)
  (layer "F.Cu")
  (tedit 621F95E0)
  (descr "Resistor, Axial_Power series, Axial, Vertical, pin pitch=10.16mm, 7W, length*width*height=25*9*9mm^3, http://cdn-reichelt.de/documents/datenblatt/B400/5WAXIAL_9WAXIAL_11WAXIAL_17WAXIAL%23YAG.pdf")
  (tags "Resistor Axial_Power series Axial Vertical pin pitch 10.16mm 7W length 25mm width 9mm height 9mm")
  (attr through_hole)
  (fp_text reference "R27" (at 6.39 1.54 -180) (layer "F.SilkS")
    (effects (font (size 1 1) (thickness 0.15)))
    (tstamp bf8979ef-3f4f-47ef-a34e-95025e876970)
  )
  (fp_text value "0.1" (at 3.05 -1.11 -180) (layer "F.Fab")
    (effects (font (size 1 1) (thickness 0.15)))
    (tstamp b79ff2df-87dd-4af3-a02c-5e915de28f6c)
  )
  (fp_line (start -0.05 0) (end 9.95 0) (layer "F.SilkS") (width 0.12) (tstamp 5f2596d7-f127-48cf-a0ba-e7236da1808d))
  (fp_rect (start -2.612502 -2.51) (end 12.467498 2.5) (layer "F.SilkS") (width 0.12) (fill none) (tstamp e0917702-c437-45dd-b276-380331097e9c))
  (fp_line (start -2.62 2.5) (end 12.47 2.49) (layer "F.CrtYd") (width 0.05) (tstamp 42413ebd-bb23-457e-83d6-ab4100ec7e37))
  (fp_line (start 12.47 2.49) (end 12.47 -2.51) (layer "F.CrtYd") (width 0.05) (tstamp 75d292b6-778a-426c-8da8-793371ab4d8f))
  (fp_line (start 12.47 -2.51) (end -2.62 -2.5) (layer "F.CrtYd") (width 0.05) (tstamp 7d892ccd-c711-455f-95ed-8a5ece59db84))
  (fp_line (start -2.62 -2.5) (end -2.62 2.5) (layer "F.CrtYd") (width 0.05) (tstamp ae22968e-cb1f-4c9d-8e9b-1c69b8b718d5))
  (pad "1" thru_hole circle (at -0.12 0 180) (size 2.4 2.4) (drill 1.2) (layers *.Cu *.Mask) (tstamp fc7d7a95-8776-4b64-bd9d-c833dba1508c))
  (pad "2" thru_hole oval (at 9.98 -0.02 180) (size 2.4 2.4) (drill 1.2) (layers *.Cu *.Mask) (tstamp 14191b5c-001e-4b2d-914f-568175f16275))
  (model "${ANDERS}/3DModels/Ceramic resistor.wrl"
    (offset (xyz -2.5 -2.6 0))
    (scale (xyz 1 1 1))
    (rotate (xyz 0 0 0))
  )
)
