(footprint "Fuseholder5x20_horiz_open_universal_Type-III" (version 20211014) (generator pcbnew)
  (layer "F.Cu")
  (tedit 6235BB92)
  (descr "Fuseholder, 5x20, open, horizontal, Type-III, universal, inline, lateral,")
  (tags "Fuseholder, 5x20, open, horizontal, Type-III, universal, inline, lateral, Sicherungshalter, offen,")
  (attr through_hole)
  (fp_text reference "REF**" (at 0 -5.08) (layer "F.SilkS")
    (effects (font (size 1 1) (thickness 0.15)))
    (tstamp 71e77d40-dade-41ee-9344-7e58702af180)
  )
  (fp_text value "4a" (at -0.635 1.905) (layer "F.Fab")
    (effects (font (size 1 1) (thickness 0.15)))
    (tstamp ab8c215d-04a9-417e-bdf1-89ddfc4d4b18)
  )
  (fp_line (start 4.48564 2.54) (end 4.48564 0) (layer "F.SilkS") (width 0.15) (tstamp 0de344d2-7071-44b7-a74b-6ef02cc41e5b))
  (fp_line (start -3.34264 0) (end -3.34264 -2.54) (layer "F.SilkS") (width 0.15) (tstamp 151e6b2c-53fd-481d-9ec2-b72d000e8000))
  (fp_line (start 13.2461 -2.54) (end 13.2461 2.54) (layer "F.SilkS") (width 0.15) (tstamp 17eac3a0-7059-46ed-95c3-c4a565b27154))
  (fp_line (start -3.34264 3.429) (end -3.34264 2.54) (layer "F.SilkS") (width 0.15) (tstamp 19b9118f-9963-408d-98ae-d8338e54c9f0))
  (fp_line (start 4.48564 2.54) (end 7.27964 2.54) (layer "F.SilkS") (width 0.15) (tstamp 1a8fa9d2-33f2-4ca9-9f2e-a8bdfa85611a))
  (fp_line (start 5.715 2.54) (end -5.969 2.54) (layer "F.SilkS") (width 0.15) (tstamp 1f651130-4b16-4a21-8d7d-9225aa15d5e4))
  (fp_line (start 14.13764 -3.429) (end 14.13764 3.429) (layer "F.SilkS") (width 0.15) (tstamp 282c2a00-c620-4c22-b231-af99b73d071e))
  (fp_line (start 13.24864 2.54) (end 10.58164 2.54) (layer "F.SilkS") (width 0.15) (tstamp 309a4843-d0f2-44f7-9e6c-5e7259031bd1))
  (fp_line (start -12.8651 -3.429) (end -9.0551 -3.429) (layer "F.SilkS") (width 0.15) (tstamp 3c19532c-86ff-4d8e-9085-211dd8a88510))
  (fp_line (start 4.48564 -3.429) (end 4.48564 -2.54) (layer "F.SilkS") (width 0.15) (tstamp 5523f8a3-01ab-4b4a-b43b-db90dc79b5a7))
  (fp_line (start 13.24864 -2.54) (end 10.58164 -2.54) (layer "F.SilkS") (width 0.15) (tstamp 56659a02-3d41-4a83-8024-d90208cbdd68))
  (fp_line (start -12.8651 3.429) (end -9.0551 3.429) (layer "F.SilkS") (width 0.15) (tstamp 57252f9a-43d2-40ac-ac6f-0a32208dd743))
  (fp_line (start -3.3401 -3.429) (end -6.2611 -3.429) (layer "F.SilkS") (width 0.15) (tstamp 5755f436-0e3d-4d45-8c1a-0bdd2b442e0b))
  (fp_line (start -3.34264 -3.429) (end -3.34264 -2.413) (layer "F.SilkS") (width 0.15) (tstamp 7e7c7c11-3faf-4288-b54c-c1a96cdb53f0))
  (fp_line (start 4.48564 0) (end 4.48564 -2.54) (layer "F.SilkS") (width 0.15) (tstamp 7fc10263-0123-4329-93ac-413dbb014f64))
  (fp_line (start -12.1031 -2.54) (end -9.3091 -2.54) (layer "F.SilkS") (width 0.15) (tstamp 84180856-0acd-47cc-944c-0431f4892cd6))
  (fp_line (start 4.48564 -3.429) (end 7.53364 -3.429) (layer "F.SilkS") (width 0.15) (tstamp 88e96532-f122-4aca-9226-fff5fca97e61))
  (fp_line (start 14.13764 3.429) (end 10.32764 3.429) (layer "F.SilkS") (width 0.15) (tstamp 8ff5ff5f-7aca-4b11-94e9-b9a22d0ac8fc))
  (fp_line (start -3.2512 0) (end 3.2512 0) (layer "F.SilkS") (width 0.15) (tstamp 94b43586-8936-44b2-a4c2-d7e2f3070afb))
  (fp_line (start 4.48564 -2.54) (end 7.27964 -2.54) (layer "F.SilkS") (width 0.15) (tstamp 9e32ab2a-3d06-45ec-8679-6330988a7a82))
  (fp_line (start 4.48564 3.429) (end 4.48564 2.54) (layer "F.SilkS") (width 0.15) (tstamp aef3976e-c93f-456c-88eb-6749455f8b4b))
  (fp_line (start -5.842 -2.54) (end 5.715 -2.54) (layer "F.SilkS") (width 0.15) (tstamp b7180800-fed1-4ced-9ae9-5f0eaa5fc6f7))
  (fp_line (start -12.1031 2.54) (end -9.3091 2.54) (layer "F.SilkS") (width 0.15) (tstamp cc35a772-bde8-4d78-a9ae-b0d5dc36a3f2))
  (fp_line (start -12.10564 -2.54) (end -12.10564 2.54) (layer "F.SilkS") (width 0.15) (tstamp d00a52eb-455d-4ed1-8561-2a123c033eb1))
  (fp_line (start -3.3401 3.429) (end -6.2611 3.429) (layer "F.SilkS") (width 0.15) (tstamp dbb26299-96da-4f8e-80e9-62a513b64fd3))
  (fp_line (start -3.3401 2.54) (end -6.0071 2.54) (layer "F.SilkS") (width 0.15) (tstamp e5a35611-9515-4321-b8bf-bd5285de2550))
  (fp_line (start -12.86764 -3.429) (end -12.86764 3.429) (layer "F.SilkS") (width 0.15) (tstamp e5e39f19-8fae-4f90-acf4-6b43745dd541))
  (fp_line (start -3.34264 2.54) (end -3.34264 0) (layer "F.SilkS") (width 0.15) (tstamp ead05602-8e98-452c-acaa-2d3059ff7e8c))
  (fp_line (start 4.48564 3.429) (end 7.53364 3.429) (layer "F.SilkS") (width 0.15) (tstamp f5ee9207-aef3-4ba3-89dc-684b916d2255))
  (fp_line (start -3.3401 -2.54) (end -6.0071 -2.54) (layer "F.SilkS") (width 0.15) (tstamp fcb23687-79e7-494b-b78d-610b9b788477))
  (fp_line (start 14.13764 -3.429) (end 10.32764 -3.429) (layer "F.SilkS") (width 0.15) (tstamp fd73bab2-fc71-4b2e-9d46-53bd4b06d591))
  (pad "1" thru_hole circle (at -10.1981 0) (size 2.3495 2.3495) (drill 1.34874) (layers *.Cu *.Mask "F.SilkS") (tstamp 929dee75-de4c-4726-a6f1-2bb9804d3c19))
  (pad "1" thru_hole circle (at -5.1181 0) (size 2.3495 2.3495) (drill 1.34874) (layers *.Cu *.Mask "F.SilkS") (tstamp a0da38ba-9538-4934-8d62-bca3f3051c3a))
  (pad "2" thru_hole circle (at 11.47064 0) (size 2.3495 2.3495) (drill 1.34874) (layers *.Cu *.Mask "F.SilkS") (tstamp 1e5a321b-41d6-4d46-b526-ecb1d65aa9ec))
  (pad "2" thru_hole circle (at 6.39064 0) (size 2.3495 2.3495) (drill 1.34874) (layers *.Cu *.Mask "F.SilkS") (tstamp d02c62c5-0acf-4b35-97a6-f1f3a880eb8b))
)
