(footprint "Potentiometer_cermet" (version 20211014) (generator pcbnew)
  (layer "F.Cu")
  (tedit 621FF547)
  (descr "Potentiometer, horizontally mounted, Omeg PC16PU, Omeg PC16PU, Omeg PC16PU, Vishay/Spectrol 248GJ/249GJ Single, Vishay/Spectrol 248GJ/249GJ Single, Vishay/Spectrol 248GJ/249GJ Single, Vishay/Spectrol 248GH/249GH Single, Vishay/Spectrol 148/149 Single, Vishay/Spectrol 148/149 Single, Vishay/Spectrol 148/149 Single, Vishay/Spectrol 148A/149A Single with mounting plates, Vishay/Spectrol 148/149 Double, Vishay/Spectrol 148A/149A Double with mounting plates, Piher PC-16 Single, Piher PC-16 Single, Piher PC-16 Single, Piher PC-16SV Single, Piher PC-16 Double, Piher PC-16 Triple, Piher T16H Single, Piher T16L Single, Piher T16H Double, Alps RK163 Single, Alps RK163 Double, Alps RK097 Single, Alps RK097 Double, Bourns PTV09A-2 Single with mounting sleve Single, Bourns PTV09A-1 with mounting sleve Single, Bourns PRS11S Single, Alps RK09K Single with mounting sleve Single, Alps RK09K with mounting sleve Single, Alps RK09L Single, Alps RK09L Single, Alps RK09L Double, Alps RK09L Double, Alps RK09Y Single, Bourns 3339S Single, Bourns 3339S Single, Bourns 3339P Single, Bourns 3339H Single, Vishay T7YA Single, Suntan TSR-3386H Single, Suntan TSR-3386H Single, Suntan TSR-3386P Single, Vishay T73XX Single, Vishay T73XX Single, Vishay T73YP Single, http://www.vishay.com/docs/51016/t73.pdf")
  (tags "Potentiometer horizontal  Omeg PC16PU  Omeg PC16PU  Omeg PC16PU  Vishay/Spectrol 248GJ/249GJ Single  Vishay/Spectrol 248GJ/249GJ Single  Vishay/Spectrol 248GJ/249GJ Single  Vishay/Spectrol 248GH/249GH Single  Vishay/Spectrol 148/149 Single  Vishay/Spectrol 148/149 Single  Vishay/Spectrol 148/149 Single  Vishay/Spectrol 148A/149A Single with mounting plates  Vishay/Spectrol 148/149 Double  Vishay/Spectrol 148A/149A Double with mounting plates  Piher PC-16 Single  Piher PC-16 Single  Piher PC-16 Single  Piher PC-16SV Single  Piher PC-16 Double  Piher PC-16 Triple  Piher T16H Single  Piher T16L Single  Piher T16H Double  Alps RK163 Single  Alps RK163 Double  Alps RK097 Single  Alps RK097 Double  Bourns PTV09A-2 Single with mounting sleve Single  Bourns PTV09A-1 with mounting sleve Single  Bourns PRS11S Single  Alps RK09K Single with mounting sleve Single  Alps RK09K with mounting sleve Single  Alps RK09L Single  Alps RK09L Single  Alps RK09L Double  Alps RK09L Double  Alps RK09Y Single  Bourns 3339S Single  Bourns 3339S Single  Bourns 3339P Single  Bourns 3339H Single  Vishay T7YA Single  Suntan TSR-3386H Single  Suntan TSR-3386H Single  Suntan TSR-3386P Single  Vishay T73XX Single  Vishay T73XX Single  Vishay T73YP Single")
  (attr through_hole)
  (fp_text reference "REF**" (at -0.06 -7.09) (layer "F.SilkS")
    (effects (font (size 1 1) (thickness 0.15)))
    (tstamp d1318a53-b3cc-4c2b-a7c2-bc0e43d13914)
  )
  (fp_text value "200" (at -0.06 2.01) (layer "F.Fab")
    (effects (font (size 1 1) (thickness 0.15)))
    (tstamp dea90e56-45b9-4ba4-8611-0ad6fd74b7ce)
  )
  (fp_line (start -3.62 -5.9) (end -0.611 -5.9) (layer "F.SilkS") (width 0.12) (tstamp 2ccfcfe9-e825-4a0c-aed7-12e981805eb5))
  (fp_line (start 0.611 0.82) (end 3.5 0.82) (layer "F.SilkS") (width 0.12) (tstamp 35e7459f-3015-4ae0-9485-99bac4455b07))
  (fp_line (start 3.5 -5.9) (end 3.5 0.82) (layer "F.SilkS") (width 0.12) (tstamp 38a92ea4-dcb4-4dc3-bb9d-175eb17f7640))
  (fp_line (start -3.62 -5.9) (end -3.62 0.82) (layer "F.SilkS") (width 0.12) (tstamp 6bbf1b9d-0f47-4388-94e2-4c15e1b28ae4))
  (fp_line (start 0.611 -5.9) (end 3.5 -5.9) (layer "F.SilkS") (width 0.12) (tstamp ca20dbbc-2ba3-4df2-bec9-b514f9a5f609))
  (fp_line (start -3.62 0.82) (end -0.611 0.82) (layer "F.SilkS") (width 0.12) (tstamp caaf7ce4-620a-49dd-be69-9f6f42de6c7d))
  (fp_line (start -3.85 1.05) (end 3.7 1.05) (layer "F.CrtYd") (width 0.05) (tstamp 20acf63d-8155-441b-99f1-aa553e9e9d3d))
  (fp_line (start 3.7 -6.1) (end -3.85 -6.1) (layer "F.CrtYd") (width 0.05) (tstamp 2db8df86-1062-446b-9531-cb2985ffef06))
  (fp_line (start 3.7 1.05) (end 3.7 -6.1) (layer "F.CrtYd") (width 0.05) (tstamp 77a38863-9e91-443b-bd99-2106dfc479ce))
  (fp_line (start -3.85 -6.1) (end -3.85 1.05) (layer "F.CrtYd") (width 0.05) (tstamp e5f139e5-97bc-47bb-b471-319a359a6376))
  (fp_line (start 0.164 -1.339) (end 0.164 -2.464) (layer "F.Fab") (width 0.1) (tstamp 0013ae5a-6b13-491b-83e1-6fe165e71981))
  (fp_line (start -0.961 -2.464) (end -0.961 -2.616) (layer "F.Fab") (width 0.1) (tstamp 3c70dee1-9664-4d68-9e46-2890a0d7d1e7))
  (fp_line (start 0.164 -3.741) (end 0.316 -3.741) (layer "F.Fab") (width 0.1) (tstamp 4a98e74f-1fb6-49e8-b8bb-ea48459ab3e0))
  (fp_line (start 1.441 -2.464) (end 0.316 -2.464) (layer "F.Fab") (width 0.1) (tstamp 4cb4d423-c98c-4cf3-89e4-ba07af733f3a))
  (fp_line (start 3.44 -5.84) (end -3.56 -5.84) (layer "F.Fab") (width 0.1) (tstamp 55311643-d7b8-4a29-b19e-bce86aa84e1d))
  (fp_line (start 0.316 -1.339) (end 0.164 -1.339) (layer "F.Fab") (width 0.1) (tstamp 56e249b0-5f8f-4e93-8344-b755160032fa))
  (fp_line (start 0.164 -2.464) (end -0.961 -2.464) (layer "F.Fab") (width 0.1) (tstamp 5946d17a-6d30-42c7-bf95-061ef09ccfda))
  (fp_line (start -0.961 -2.616) (end 0.164 -2.616) (layer "F.Fab") (width 0.1) (tstamp 5e8a4a02-5ed1-4eab-8321-d0ba5905ba64))
  (fp_line (start 0.316 -2.464) (end 0.316 -1.339) (layer "F.Fab") (width 0.1) (tstamp 663c97a3-e325-40b0-b958-69e3a96d96b2))
  (fp_line (start 1.441 -2.616) (end 1.441 -2.464) (layer "F.Fab") (width 0.1) (tstamp 6d0c1974-6515-412e-8e18-513465bbe537))
  (fp_line (start -3.56 0.76) (end 3.44 0.76) (layer "F.Fab") (width 0.1) (tstamp 74b15c23-64fb-4b0d-a247-7ccfe0bd3167))
  (fp_line (start -3.56 -5.84) (end -3.56 0.76) (layer "F.Fab") (width 0.1) (tstamp 7c8d2f28-70e0-4d09-928e-f0dced190bae))
  (fp_line (start 0.164 -2.616) (end 0.164 -3.741) (layer "F.Fab") (width 0.1) (tstamp 7cc17185-4e55-4e0f-9f60-cae6a356a4ff))
  (fp_line (start 0.316 -2.616) (end 1.441 -2.616) (layer "F.Fab") (width 0.1) (tstamp a8880393-5834-4dc2-bf36-03f93425a274))
  (fp_line (start 0.316 -3.741) (end 0.316 -2.616) (layer "F.Fab") (width 0.1) (tstamp e4912833-6a5a-4c11-ad08-e8951fecc674))
  (fp_line (start 3.44 0.76) (end 3.44 -5.84) (layer "F.Fab") (width 0.1) (tstamp e50d54c8-69a5-436e-84c9-b61c59cc4992))
  (fp_circle (center 0.24 -2.54) (end 1.74 -2.54) (layer "F.Fab") (width 0.1) (fill none) (tstamp 527f3c91-95f0-4b0d-b126-85c3de1e0a0e))
  (fp_circle (center 0.24 -2.54) (end 1.74 -2.54) (layer "F.Fab") (width 0.1) (fill none) (tstamp f750b89a-6e6b-4d07-847d-c0551bec44ba))
  (pad "1" thru_hole circle (at 0 0) (size 1.44 1.44) (drill 0.8) (layers *.Cu *.Mask) (tstamp 9d1bfe9a-a385-4696-8024-7a055d5779bb))
  (pad "2" thru_hole circle (at 2.54 -2.54) (size 1.44 1.44) (drill 0.8) (layers *.Cu *.Mask) (tstamp cda6ed8d-adc9-4996-9dec-d9c5b0fe5d92))
  (pad "3" thru_hole circle (at 0 -5.08) (size 1.44 1.44) (drill 0.8) (layers *.Cu *.Mask) (tstamp 4d7e04b3-c9cb-4cac-81b6-5a37c55de0e8))
  (model "${ANDERS}/3DModels/Pot small blue plastic.wrl"
    (offset (xyz -3.3 -0.8 0))
    (scale (xyz 1 1 1))
    (rotate (xyz -180 0 0))
  )
)
