(footprint "Relay HUI KE HK-19F DC12V" (version 20211014) (generator pcbnew)
  (layer "F.Cu")
  (tedit 61F8FCCC)
  (attr through_hole)
  (fp_text reference "HK-19f Relay" (at -2.794 -8.4455) (layer "F.SilkS")
    (effects (font (size 1.524 1.524) (thickness 0.3048)))
    (tstamp a4398e30-bbcb-4db6-94a1-1372a2cfb7d2)
  )
  (fp_text value "Val**" (at -7.747 8.382) (layer "F.SilkS")
    (effects (font (size 1.524 1.524) (thickness 0.3048)))
    (tstamp 95bc8f7f-8954-4dcd-948f-244fb5beb3dc)
  )
  (fp_text user "${REFERENCE}" (at 5.842 -0.0635) (layer "F.Fab")
    (effects (font (size 1 1) (thickness 0.15)))
    (tstamp 4b4e931f-b473-4785-b88c-162f4867f121)
  )
  (fp_text user "HK-19F" (at -5.588 -0.254) (layer "F.Fab")
    (effects (font (size 1 1) (thickness 0.15)))
    (tstamp adcaeaec-9ae5-4d26-a8bd-46881463a448)
  )
  (fp_rect (start 12.81 -6.85) (end -10.77 6.85) (layer "F.SilkS") (width 0.12) (fill none) (tstamp ea82ae62-6bec-419f-ba69-0d194c8505c4))
  (fp_line (start -10.922 6.985) (end 12.954 6.985) (layer "F.CrtYd") (width 0.15) (tstamp 01eac67f-a6cc-480b-a472-e149666ad40c))
  (fp_line (start 12.954 6.985) (end 12.954 -6.985) (layer "F.CrtYd") (width 0.15) (tstamp 1a1e5c7b-887e-4435-af0a-8a8320f7fae5))
  (fp_line (start -10.922 -6.858) (end -10.922 6.985) (layer "F.CrtYd") (width 0.15) (tstamp 28a6c7fd-bc5b-4cab-8c2f-d443e0b2af81))
  (fp_line (start 12.954 -6.985) (end -10.922 -6.985) (layer "F.CrtYd") (width 0.15) (tstamp 468b72f4-f6b7-46f1-877a-c52168709bb3))
  (fp_line (start 12.954 6.9215) (end 12.954 -6.985) (layer "F.Fab") (width 0.15) (tstamp 226a2dbe-4a32-459b-911c-8100521316b3))
  (fp_line (start 12.954 -6.985) (end -10.9855 -6.985) (layer "F.Fab") (width 0.15) (tstamp 5fc8135f-4c96-486f-8c93-82722e36f432))
  (fp_line (start -10.922 6.985) (end 12.954 6.985) (layer "F.Fab") (width 0.15) (tstamp a8bfe435-ed69-44cd-900a-618dba71e373))
  (fp_line (start -10.9855 -6.985) (end -10.922 6.985) (layer "F.Fab") (width 0.15) (tstamp c329277e-dd9b-4ee2-8b2d-40af0ea05543))
  (pad "1" thru_hole circle (at -8 3.6) (size 1.99898 1.99898) (drill 0.79756) (layers *.Cu *.Mask "F.SilkS") (tstamp 0a720912-c291-41c3-8639-a28a61df9a71))
  (pad "4" thru_hole circle (at -0.4 3.6) (size 1.99898 1.99898) (drill 0.79756) (layers *.Cu *.Mask "F.SilkS") (tstamp 494d616d-8dd3-4d21-8c21-f7064c881040))
  (pad "6" thru_hole circle (at 4.7 3.6) (size 1.99898 1.99898) (drill 0.79756) (layers *.Cu *.Mask "F.SilkS") (tstamp c499b5cd-f88e-4048-8bbb-4675443104bd))
  (pad "8" thru_hole circle (at 9.8 3.6) (size 1.99898 1.99898) (drill 0.79756) (layers *.Cu *.Mask "F.SilkS") (tstamp 673cef13-3d9d-48db-9cf3-9c623aa89f1f))
  (pad "9" thru_hole circle (at 9.8 -4) (size 1.99898 1.99898) (drill 0.79756) (layers *.Cu *.Mask "F.SilkS") (tstamp 444fcd17-4c9c-453d-bee5-c21100230508))
  (pad "11" thru_hole circle (at 4.7 -4) (size 1.99898 1.99898) (drill 0.79756) (layers *.Cu *.Mask "F.SilkS") (tstamp 439337c7-45ff-4003-afb4-0037a310423b))
  (pad "13" thru_hole circle (at -0.4 -4) (size 1.99898 1.99898) (drill 0.79756) (layers *.Cu *.Mask "F.SilkS") (tstamp 5685e93b-f4e3-4b3b-8a70-ce670211a075))
  (pad "16" thru_hole circle (at -8 -4) (size 1.99898 1.99898) (drill 0.79756) (layers *.Cu *.Mask "F.SilkS") (tstamp 329db23d-a008-4f2a-a4f3-5ef7f994b599))
)
